%!PS-Adobe-3.0 EPSF-3.0
%%DocumentNeededResources: font Helvetica
%%+ font Helvetica-Bold
%%+ font Helvetica-Oblique
%%+ font Helvetica-BoldOblique
%%+ font Symbol
%%Title: R Graphics Output
%%Creator: R Software
%%Pages: (atend)
%%BoundingBox: 60 177 552 615
%%EndComments
%%BeginProlog
/bp  { gs gs } def
% begin .ps.prolog
/gs  { gsave } def
/gr  { grestore } def
/ep  { showpage gr gr } def
/m   { moveto } def
/l  { rlineto } def
/np  { newpath } def
/cp  { closepath } def
/f   { fill } def
/o   { stroke } def
/c   { newpath 0 360 arc } def
/r   { 4 2 roll moveto 1 copy 3 -1 roll exch 0 exch rlineto 0 rlineto -1 mul 0 exch rlineto closepath } def
/p1  { stroke } def
/p2  { gsave bg fill grestore newpath } def
/p3  { gsave bg fill grestore stroke } def
/t   { 6 -2 roll moveto gsave rotate
       ps mul neg 0 2 1 roll rmoveto
       1 index stringwidth pop
       mul neg 0 rmoveto show grestore } def
/cl  { grestore gsave newpath 3 index 3 index moveto 1 index
       4 -1 roll lineto  exch 1 index lineto lineto
       closepath clip newpath } def
/rgb { setrgbcolor } def
/s   { scalefont setfont } def
% end   .ps.prolog
%%IncludeResource: font Helvetica
/Helvetica findfont
dup length dict begin
  {1 index /FID ne {def} {pop pop} ifelse} forall
  /Encoding ISOLatin1Encoding def
  currentdict
  end
/Font1 exch definefont pop
%%IncludeResource: font Helvetica-Bold
/Helvetica-Bold findfont
dup length dict begin
  {1 index /FID ne {def} {pop pop} ifelse} forall
  /Encoding ISOLatin1Encoding def
  currentdict
  end
/Font2 exch definefont pop
%%IncludeResource: font Helvetica-Oblique
/Helvetica-Oblique findfont
dup length dict begin
  {1 index /FID ne {def} {pop pop} ifelse} forall
  /Encoding ISOLatin1Encoding def
  currentdict
  end
/Font3 exch definefont pop
%%IncludeResource: font Helvetica-BoldOblique
/Helvetica-BoldOblique findfont
dup length dict begin
  {1 index /FID ne {def} {pop pop} ifelse} forall
  /Encoding ISOLatin1Encoding def
  currentdict
  end
/Font4 exch definefont pop
%%IncludeResource: font Symbol
/Symbol findfont
dup length dict begin
  {1 index /FID ne {def} {pop pop} ifelse} forall
  currentdict
  end
/Font5 exch definefont pop
%%EndProlog
%%Page: 1 1
bp
60.38 177.00 551.63 615.00 cl
60.38 177.00 551.63 615.00 cl
0 setgray
0.75 setlinewidth
[] 0 setdash
1 setlinecap
1 setlinejoin
10.00 setmiterlimit
np
84.86 537.20 m
0 13.82 l
14.09 0 l
0 -13.82 l
-14.09 0 l
o
np
84.86 438.46 m
0 13.82 l
14.09 0 l
0 -13.82 l
-14.09 0 l
o
np
156.22 339.72 m
0 13.82 l
14.09 0 l
0 -13.82 l
-14.09 0 l
o
np
156.22 240.98 m
0 13.82 l
14.09 0 l
0 -13.82 l
-14.09 0 l
o
np
227.59 537.20 m
0 13.82 l
14.09 0 l
0 -13.82 l
-14.09 0 l
o
np
227.59 240.98 m
0 13.82 l
14.09 0 l
0 -13.82 l
-14.09 0 l
o
np
298.96 339.72 m
0 13.82 l
14.08 0 l
0 -13.82 l
-14.08 0 l
o
np
370.32 438.46 m
0 13.82 l
14.09 0 l
0 -13.82 l
-14.09 0 l
o
np
441.69 339.72 m
0 13.82 l
14.09 0 l
0 -13.82 l
-14.09 0 l
o
np
91.90 353.54 m
0.13 0 l
0.12 0 l
0.12 -0.01 l
0.12 -0.01 l
0.13 0 l
0.12 -0.02 l
0.12 -0.01 l
0.12 -0.02 l
0.12 -0.01 l
0.13 -0.02 l
0.12 -0.03 l
0.12 -0.02 l
0.12 -0.03 l
0.12 -0.02 l
0.12 -0.03 l
0.11 -0.04 l
0.12 -0.03 l
0.12 -0.04 l
0.12 -0.04 l
0.11 -0.04 l
0.12 -0.04 l
0.11 -0.04 l
0.12 -0.05 l
0.11 -0.05 l
0.11 -0.05 l
0.11 -0.05 l
0.11 -0.05 l
0.11 -0.06 l
0.11 -0.06 l
0.10 -0.05 l
0.11 -0.07 l
0.11 -0.06 l
0.10 -0.06 l
0.10 -0.07 l
0.10 -0.07 l
0.10 -0.07 l
0.10 -0.07 l
0.10 -0.07 l
0.10 -0.08 l
0.09 -0.08 l
0.09 -0.07 l
0.10 -0.08 l
0.09 -0.09 l
0.09 -0.08 l
0.08 -0.08 l
0.09 -0.09 l
0.08 -0.09 l
0.09 -0.09 l
0.08 -0.09 l
0.08 -0.09 l
0.08 -0.09 l
0.07 -0.10 l
0.08 -0.09 l
0.07 -0.10 l
0.07 -0.10 l
0.07 -0.10 l
0.07 -0.10 l
0.07 -0.10 l
0.06 -0.10 l
0.06 -0.10 l
0.06 -0.11 l
0.06 -0.11 l
0.06 -0.10 l
0.05 -0.11 l
0.06 -0.11 l
0.05 -0.11 l
0.05 -0.11 l
0.04 -0.11 l
0.05 -0.11 l
0.04 -0.12 l
0.04 -0.11 l
0.04 -0.11 l
0.04 -0.12 l
0.03 -0.12 l
0.04 -0.11 l
0.03 -0.12 l
0.03 -0.12 l
0.02 -0.11 l
0.03 -0.12 l
0.02 -0.12 l
0.02 -0.12 l
0.02 -0.12 l
0.01 -0.12 l
0.02 -0.12 l
0.01 -0.12 l
0.01 -0.12 l
0.01 -0.12 l
0 -0.12 l
0.01 -0.12 l
0 -0.12 l
0 -0.12 l
-0.01 -0.12 l
0 -0.12 l
-0.01 -0.12 l
-0.01 -0.12 l
-0.01 -0.12 l
-0.02 -0.12 l
-0.01 -0.12 l
-0.02 -0.12 l
98.84 345.43 lineto
-0.02 -0.12 l
-0.03 -0.12 l
-0.02 -0.12 l
-0.03 -0.11 l
-0.03 -0.12 l
-0.04 -0.12 l
-0.03 -0.11 l
-0.04 -0.12 l
-0.04 -0.11 l
-0.04 -0.11 l
-0.04 -0.12 l
-0.05 -0.11 l
-0.04 -0.11 l
-0.05 -0.11 l
-0.05 -0.11 l
-0.06 -0.11 l
-0.05 -0.11 l
-0.06 -0.11 l
-0.06 -0.10 l
-0.06 -0.11 l
-0.06 -0.10 l
-0.06 -0.10 l
-0.07 -0.10 l
-0.07 -0.11 l
-0.07 -0.09 l
-0.07 -0.10 l
-0.07 -0.10 l
-0.08 -0.10 l
-0.07 -0.09 l
-0.08 -0.09 l
-0.08 -0.09 l
-0.08 -0.10 l
-0.09 -0.08 l
-0.08 -0.09 l
-0.09 -0.09 l
-0.08 -0.08 l
-0.09 -0.09 l
-0.09 -0.08 l
-0.10 -0.08 l
-0.09 -0.08 l
-0.09 -0.07 l
-0.10 -0.08 l
-0.10 -0.07 l
-0.10 -0.07 l
-0.10 -0.07 l
-0.10 -0.07 l
-0.10 -0.07 l
-0.10 -0.06 l
-0.11 -0.06 l
-0.11 -0.07 l
-0.10 -0.06 l
-0.11 -0.05 l
-0.11 -0.06 l
-0.11 -0.05 l
-0.11 -0.05 l
-0.11 -0.05 l
-0.11 -0.05 l
-0.12 -0.05 l
-0.11 -0.04 l
-0.12 -0.05 l
-0.11 -0.04 l
-0.12 -0.03 l
-0.12 -0.04 l
-0.12 -0.03 l
-0.11 -0.04 l
-0.12 -0.03 l
-0.12 -0.03 l
-0.12 -0.02 l
-0.12 -0.03 l
-0.12 -0.02 l
-0.13 -0.02 l
-0.12 -0.01 l
-0.12 -0.02 l
-0.12 -0.01 l
-0.12 -0.02 l
-0.13 -0.01 l
-0.12 0 l
-0.12 -0.01 l
-0.12 0 l
-0.13 0 l
-0.12 0 l
-0.12 0 l
-0.13 0.01 l
-0.12 0 l
-0.12 0.01 l
-0.12 0.02 l
-0.13 0.01 l
-0.12 0.02 l
-0.12 0.01 l
-0.12 0.02 l
-0.12 0.02 l
-0.12 0.03 l
-0.12 0.02 l
-0.12 0.03 l
-0.12 0.03 l
-0.12 0.04 l
-0.12 0.03 l
-0.11 0.04 l
-0.12 0.03 l
89.49 340.13 lineto
-0.11 0.05 l
-0.12 0.04 l
-0.11 0.05 l
-0.11 0.05 l
-0.11 0.05 l
-0.12 0.05 l
-0.11 0.05 l
-0.10 0.06 l
-0.11 0.05 l
-0.11 0.06 l
-0.11 0.07 l
-0.10 0.06 l
-0.10 0.06 l
-0.11 0.07 l
-0.10 0.07 l
-0.10 0.07 l
-0.10 0.07 l
-0.09 0.07 l
-0.10 0.08 l
-0.09 0.07 l
-0.10 0.08 l
-0.09 0.08 l
-0.09 0.08 l
-0.09 0.09 l
-0.09 0.08 l
-0.08 0.09 l
-0.09 0.09 l
-0.08 0.08 l
-0.08 0.10 l
-0.08 0.09 l
-0.08 0.09 l
-0.08 0.09 l
-0.07 0.10 l
-0.08 0.10 l
-0.07 0.10 l
-0.07 0.09 l
-0.06 0.11 l
-0.07 0.10 l
-0.07 0.10 l
-0.06 0.10 l
-0.06 0.11 l
-0.06 0.10 l
-0.05 0.11 l
-0.06 0.11 l
-0.05 0.11 l
-0.05 0.11 l
-0.05 0.11 l
-0.05 0.11 l
-0.04 0.11 l
-0.05 0.12 l
-0.04 0.11 l
-0.04 0.11 l
-0.03 0.12 l
-0.04 0.11 l
-0.03 0.12 l
-0.03 0.12 l
-0.03 0.11 l
-0.03 0.12 l
-0.02 0.12 l
-0.02 0.12 l
-0.02 0.12 l
-0.02 0.12 l
-0.02 0.12 l
-0.01 0.12 l
-0.01 0.12 l
-0.01 0.12 l
-0.01 0.12 l
-0.01 0.12 l
0 0.12 l
0 0.12 l
0 0.12 l
0 0.12 l
0.01 0.12 l
0.01 0.12 l
0.01 0.12 l
0.01 0.12 l
0.01 0.12 l
0.02 0.12 l
0.02 0.12 l
0.02 0.12 l
0.02 0.12 l
0.02 0.12 l
0.03 0.11 l
0.03 0.12 l
0.03 0.12 l
0.03 0.11 l
0.04 0.12 l
0.03 0.12 l
0.04 0.11 l
0.04 0.11 l
0.05 0.12 l
0.04 0.11 l
0.05 0.11 l
0.05 0.11 l
0.05 0.11 l
0.05 0.11 l
0.06 0.11 l
0.05 0.10 l
0.06 0.11 l
85.80 350.09 lineto
0.06 0.10 l
0.07 0.10 l
0.07 0.10 l
0.06 0.10 l
0.07 0.10 l
0.07 0.10 l
0.08 0.10 l
0.07 0.09 l
0.08 0.10 l
0.08 0.09 l
0.08 0.09 l
0.08 0.09 l
0.08 0.09 l
0.09 0.09 l
0.08 0.09 l
0.09 0.08 l
0.09 0.08 l
0.09 0.09 l
0.09 0.08 l
0.10 0.07 l
0.09 0.08 l
0.10 0.08 l
0.09 0.07 l
0.10 0.07 l
0.10 0.07 l
0.10 0.07 l
0.11 0.07 l
0.10 0.06 l
0.10 0.06 l
0.11 0.07 l
0.11 0.05 l
0.11 0.06 l
0.10 0.06 l
0.11 0.05 l
0.12 0.05 l
0.11 0.05 l
0.11 0.05 l
0.11 0.05 l
0.12 0.04 l
0.11 0.04 l
0.12 0.04 l
0.12 0.04 l
0.11 0.04 l
0.12 0.03 l
0.12 0.04 l
0.12 0.03 l
0.12 0.02 l
0.12 0.03 l
0.12 0.02 l
0.12 0.03 l
0.12 0.02 l
0.12 0.01 l
0.12 0.02 l
0.13 0.01 l
0.12 0.02 l
0.12 0 l
0.12 0.01 l
0.13 0.01 l
0.12 0 l
0.12 0 l
0 0 l
o
np
91.90 254.80 m
0.13 0 l
0.12 0 l
0.12 -0.01 l
0.12 -0.01 l
0.13 -0.01 l
0.12 -0.01 l
0.12 -0.01 l
0.12 -0.02 l
0.12 -0.01 l
0.13 -0.02 l
0.12 -0.03 l
0.12 -0.02 l
0.12 -0.03 l
0.12 -0.02 l
0.12 -0.03 l
0.11 -0.04 l
0.12 -0.03 l
0.12 -0.04 l
0.12 -0.04 l
0.11 -0.04 l
0.12 -0.04 l
0.11 -0.04 l
0.12 -0.05 l
0.11 -0.05 l
0.11 -0.05 l
0.11 -0.05 l
0.11 -0.05 l
0.11 -0.06 l
0.11 -0.06 l
0.10 -0.06 l
0.11 -0.06 l
0.11 -0.06 l
0.10 -0.06 l
0.10 -0.07 l
0.10 -0.07 l
0.10 -0.07 l
0.10 -0.07 l
0.10 -0.07 l
0.10 -0.08 l
0.09 -0.08 l
0.09 -0.07 l
0.10 -0.08 l
0.09 -0.09 l
0.09 -0.08 l
0.08 -0.08 l
0.09 -0.09 l
0.08 -0.09 l
0.09 -0.09 l
0.08 -0.09 l
0.08 -0.09 l
0.08 -0.09 l
0.07 -0.10 l
0.08 -0.09 l
0.07 -0.10 l
0.07 -0.10 l
0.07 -0.10 l
0.07 -0.10 l
0.07 -0.10 l
0.06 -0.10 l
0.06 -0.11 l
0.06 -0.10 l
0.06 -0.11 l
0.06 -0.10 l
0.05 -0.11 l
0.06 -0.11 l
0.05 -0.11 l
0.05 -0.11 l
0.04 -0.11 l
0.05 -0.11 l
0.04 -0.12 l
0.04 -0.11 l
0.04 -0.12 l
0.04 -0.11 l
0.03 -0.12 l
0.04 -0.11 l
0.03 -0.12 l
0.03 -0.12 l
0.02 -0.11 l
0.03 -0.12 l
0.02 -0.12 l
0.02 -0.12 l
0.02 -0.12 l
0.01 -0.12 l
0.02 -0.12 l
0.01 -0.12 l
0.01 -0.12 l
0.01 -0.12 l
0 -0.12 l
0.01 -0.12 l
0 -0.12 l
0 -0.12 l
-0.01 -0.12 l
0 -0.12 l
-0.01 -0.12 l
-0.01 -0.12 l
-0.01 -0.12 l
-0.02 -0.12 l
-0.01 -0.12 l
-0.02 -0.12 l
98.84 246.69 lineto
-0.02 -0.12 l
-0.03 -0.12 l
-0.02 -0.12 l
-0.03 -0.11 l
-0.03 -0.12 l
-0.04 -0.12 l
-0.03 -0.11 l
-0.04 -0.12 l
-0.04 -0.11 l
-0.04 -0.12 l
-0.04 -0.11 l
-0.05 -0.11 l
-0.04 -0.11 l
-0.05 -0.11 l
-0.05 -0.11 l
-0.06 -0.11 l
-0.05 -0.11 l
-0.06 -0.11 l
-0.06 -0.10 l
-0.06 -0.11 l
-0.06 -0.10 l
-0.06 -0.10 l
-0.07 -0.11 l
-0.07 -0.10 l
-0.07 -0.10 l
-0.07 -0.09 l
-0.07 -0.10 l
-0.08 -0.10 l
-0.07 -0.09 l
-0.08 -0.09 l
-0.08 -0.10 l
-0.08 -0.09 l
-0.09 -0.08 l
-0.08 -0.09 l
-0.09 -0.09 l
-0.08 -0.08 l
-0.09 -0.09 l
-0.09 -0.08 l
-0.10 -0.08 l
-0.09 -0.08 l
-0.09 -0.07 l
-0.10 -0.08 l
-0.10 -0.07 l
-0.10 -0.07 l
-0.10 -0.07 l
-0.10 -0.07 l
-0.10 -0.07 l
-0.10 -0.06 l
-0.11 -0.07 l
-0.11 -0.06 l
-0.10 -0.06 l
-0.11 -0.05 l
-0.11 -0.06 l
-0.11 -0.05 l
-0.11 -0.06 l
-0.11 -0.05 l
-0.11 -0.04 l
-0.12 -0.05 l
-0.11 -0.04 l
-0.12 -0.05 l
-0.11 -0.04 l
-0.12 -0.03 l
-0.12 -0.04 l
-0.12 -0.04 l
-0.11 -0.03 l
-0.12 -0.03 l
-0.12 -0.03 l
-0.12 -0.02 l
-0.12 -0.03 l
-0.12 -0.02 l
-0.13 -0.02 l
-0.12 -0.02 l
-0.12 -0.01 l
-0.12 -0.02 l
-0.12 -0.01 l
-0.13 -0.01 l
-0.12 0 l
-0.12 -0.01 l
-0.12 0 l
-0.13 0 l
-0.12 0 l
-0.12 0 l
-0.13 0.01 l
-0.12 0 l
-0.12 0.01 l
-0.12 0.01 l
-0.13 0.02 l
-0.12 0.01 l
-0.12 0.02 l
-0.12 0.02 l
-0.12 0.02 l
-0.12 0.03 l
-0.12 0.02 l
-0.12 0.03 l
-0.12 0.03 l
-0.12 0.03 l
-0.12 0.04 l
-0.11 0.04 l
-0.12 0.03 l
89.49 241.39 lineto
-0.11 0.05 l
-0.12 0.04 l
-0.11 0.05 l
-0.11 0.04 l
-0.11 0.05 l
-0.12 0.06 l
-0.11 0.05 l
-0.10 0.06 l
-0.11 0.05 l
-0.11 0.06 l
-0.11 0.06 l
-0.10 0.07 l
-0.10 0.06 l
-0.11 0.07 l
-0.10 0.07 l
-0.10 0.07 l
-0.10 0.07 l
-0.09 0.07 l
-0.10 0.08 l
-0.09 0.07 l
-0.10 0.08 l
-0.09 0.08 l
-0.09 0.08 l
-0.09 0.09 l
-0.09 0.08 l
-0.08 0.09 l
-0.09 0.09 l
-0.08 0.08 l
-0.08 0.09 l
-0.08 0.10 l
-0.08 0.09 l
-0.08 0.09 l
-0.07 0.10 l
-0.08 0.10 l
-0.07 0.09 l
-0.07 0.10 l
-0.06 0.10 l
-0.07 0.11 l
-0.07 0.10 l
-0.06 0.10 l
-0.06 0.11 l
-0.06 0.10 l
-0.05 0.11 l
-0.06 0.11 l
-0.05 0.11 l
-0.05 0.11 l
-0.05 0.11 l
-0.05 0.11 l
-0.04 0.11 l
-0.05 0.11 l
-0.04 0.12 l
-0.04 0.11 l
-0.03 0.12 l
-0.04 0.11 l
-0.03 0.12 l
-0.03 0.12 l
-0.03 0.11 l
-0.03 0.12 l
-0.02 0.12 l
-0.02 0.12 l
-0.02 0.12 l
-0.02 0.12 l
-0.02 0.12 l
-0.01 0.12 l
-0.01 0.12 l
-0.01 0.12 l
-0.01 0.12 l
-0.01 0.12 l
0 0.12 l
0 0.12 l
0 0.12 l
0 0.12 l
0.01 0.12 l
0.01 0.12 l
0.01 0.12 l
0.01 0.12 l
0.01 0.12 l
0.02 0.12 l
0.02 0.12 l
0.02 0.12 l
0.02 0.12 l
0.02 0.12 l
0.03 0.11 l
0.03 0.12 l
0.03 0.12 l
0.03 0.11 l
0.04 0.12 l
0.03 0.11 l
0.04 0.12 l
0.04 0.11 l
0.05 0.12 l
0.04 0.11 l
0.05 0.11 l
0.05 0.11 l
0.05 0.11 l
0.05 0.11 l
0.06 0.11 l
0.05 0.10 l
0.06 0.11 l
85.80 251.34 lineto
0.06 0.11 l
0.07 0.10 l
0.07 0.10 l
0.06 0.10 l
0.07 0.10 l
0.07 0.10 l
0.08 0.10 l
0.07 0.09 l
0.08 0.10 l
0.08 0.09 l
0.08 0.09 l
0.08 0.09 l
0.08 0.09 l
0.09 0.09 l
0.08 0.09 l
0.09 0.08 l
0.09 0.08 l
0.09 0.09 l
0.09 0.08 l
0.10 0.07 l
0.09 0.08 l
0.10 0.08 l
0.09 0.07 l
0.10 0.07 l
0.10 0.07 l
0.10 0.07 l
0.11 0.07 l
0.10 0.06 l
0.10 0.06 l
0.11 0.06 l
0.11 0.06 l
0.11 0.06 l
0.10 0.06 l
0.11 0.05 l
0.12 0.05 l
0.11 0.05 l
0.11 0.05 l
0.11 0.05 l
0.12 0.04 l
0.11 0.04 l
0.12 0.04 l
0.12 0.04 l
0.11 0.04 l
0.12 0.03 l
0.12 0.04 l
0.12 0.03 l
0.12 0.02 l
0.12 0.03 l
0.12 0.02 l
0.12 0.03 l
0.12 0.02 l
0.12 0.01 l
0.12 0.02 l
0.13 0.01 l
0.12 0.01 l
0.12 0.01 l
0.12 0.01 l
0.13 0.01 l
0.12 0 l
0.12 0 l
0 0 l
o
np
163.27 551.02 m
0.12 0 l
0.12 0 l
0.13 -0.01 l
0.12 0 l
0.12 -0.01 l
0.12 -0.01 l
0.13 -0.02 l
0.12 -0.01 l
0.12 -0.02 l
0.12 -0.02 l
0.12 -0.02 l
0.12 -0.03 l
0.12 -0.02 l
0.12 -0.03 l
0.12 -0.03 l
0.12 -0.03 l
0.12 -0.04 l
0.12 -0.04 l
0.11 -0.03 l
0.12 -0.04 l
0.11 -0.05 l
0.12 -0.04 l
0.11 -0.05 l
0.11 -0.04 l
0.12 -0.05 l
0.11 -0.06 l
0.11 -0.05 l
0.11 -0.06 l
0.10 -0.05 l
0.11 -0.06 l
0.11 -0.06 l
0.10 -0.07 l
0.10 -0.06 l
0.11 -0.07 l
0.10 -0.07 l
0.10 -0.07 l
0.10 -0.07 l
0.10 -0.07 l
0.09 -0.08 l
0.10 -0.07 l
0.09 -0.08 l
0.09 -0.08 l
0.09 -0.08 l
0.09 -0.09 l
0.09 -0.08 l
0.09 -0.09 l
0.08 -0.09 l
0.08 -0.08 l
0.08 -0.09 l
0.08 -0.10 l
0.08 -0.09 l
0.08 -0.09 l
0.07 -0.10 l
0.08 -0.10 l
0.07 -0.09 l
0.07 -0.10 l
0.07 -0.10 l
0.06 -0.11 l
0.07 -0.10 l
0.06 -0.10 l
0.06 -0.11 l
0.06 -0.10 l
0.05 -0.11 l
0.06 -0.11 l
0.05 -0.11 l
0.05 -0.11 l
0.05 -0.11 l
0.05 -0.11 l
0.04 -0.11 l
0.05 -0.11 l
0.04 -0.12 l
0.04 -0.11 l
0.03 -0.12 l
0.04 -0.11 l
0.03 -0.12 l
0.03 -0.12 l
0.03 -0.11 l
0.03 -0.12 l
0.02 -0.12 l
0.03 -0.12 l
0.02 -0.12 l
0.01 -0.12 l
0.02 -0.12 l
0.01 -0.12 l
0.02 -0.12 l
0.01 -0.12 l
0 -0.12 l
0.01 -0.12 l
0 -0.12 l
0 -0.12 l
0 -0.12 l
0 -0.12 l
-0.01 -0.12 l
0 -0.12 l
-0.01 -0.12 l
-0.02 -0.12 l
-0.01 -0.12 l
-0.02 -0.12 l
-0.01 -0.12 l
170.21 542.91 lineto
-0.03 -0.12 l
-0.02 -0.12 l
-0.03 -0.11 l
-0.03 -0.12 l
-0.03 -0.12 l
-0.03 -0.11 l
-0.04 -0.12 l
-0.03 -0.11 l
-0.04 -0.12 l
-0.04 -0.11 l
-0.05 -0.12 l
-0.04 -0.11 l
-0.05 -0.11 l
-0.05 -0.11 l
-0.05 -0.11 l
-0.05 -0.11 l
-0.06 -0.11 l
-0.05 -0.10 l
-0.06 -0.11 l
-0.06 -0.10 l
-0.06 -0.11 l
-0.07 -0.10 l
-0.06 -0.10 l
-0.07 -0.10 l
-0.07 -0.10 l
-0.07 -0.10 l
-0.08 -0.10 l
-0.07 -0.09 l
-0.08 -0.10 l
-0.08 -0.09 l
-0.08 -0.09 l
-0.08 -0.09 l
-0.08 -0.09 l
-0.08 -0.09 l
-0.09 -0.09 l
-0.09 -0.08 l
-0.09 -0.08 l
-0.09 -0.09 l
-0.09 -0.08 l
-0.09 -0.07 l
-0.10 -0.08 l
-0.09 -0.08 l
-0.10 -0.07 l
-0.10 -0.07 l
-0.10 -0.07 l
-0.10 -0.07 l
-0.11 -0.07 l
-0.10 -0.06 l
-0.10 -0.06 l
-0.11 -0.06 l
-0.11 -0.06 l
-0.10 -0.06 l
-0.11 -0.06 l
-0.11 -0.05 l
-0.11 -0.05 l
-0.12 -0.05 l
-0.11 -0.05 l
-0.11 -0.05 l
-0.12 -0.04 l
-0.11 -0.04 l
-0.12 -0.04 l
-0.11 -0.04 l
-0.12 -0.04 l
-0.12 -0.03 l
-0.12 -0.04 l
-0.12 -0.03 l
-0.12 -0.02 l
-0.12 -0.03 l
-0.12 -0.02 l
-0.12 -0.03 l
-0.12 -0.02 l
-0.12 -0.01 l
-0.12 -0.02 l
-0.13 -0.01 l
-0.12 -0.01 l
-0.12 -0.01 l
-0.12 -0.01 l
-0.13 -0.01 l
-0.12 0 l
-0.12 0 l
-0.12 0 l
-0.13 0 l
-0.12 0.01 l
-0.12 0.01 l
-0.13 0.01 l
-0.12 0.01 l
-0.12 0.01 l
-0.12 0.02 l
-0.12 0.01 l
-0.12 0.02 l
-0.13 0.03 l
-0.12 0.02 l
-0.12 0.03 l
-0.12 0.02 l
-0.11 0.03 l
-0.12 0.04 l
-0.12 0.03 l
-0.12 0.04 l
-0.11 0.04 l
160.86 537.62 lineto
-0.12 0.04 l
-0.11 0.04 l
-0.11 0.05 l
-0.12 0.05 l
-0.11 0.05 l
-0.11 0.05 l
-0.11 0.05 l
-0.11 0.06 l
-0.11 0.06 l
-0.10 0.06 l
-0.11 0.06 l
-0.10 0.06 l
-0.11 0.06 l
-0.10 0.07 l
-0.10 0.07 l
-0.10 0.07 l
-0.10 0.07 l
-0.10 0.07 l
-0.09 0.08 l
-0.10 0.08 l
-0.09 0.07 l
-0.09 0.08 l
-0.10 0.09 l
-0.08 0.08 l
-0.09 0.08 l
-0.09 0.09 l
-0.08 0.09 l
-0.09 0.09 l
-0.08 0.09 l
-0.08 0.09 l
-0.08 0.09 l
-0.07 0.10 l
-0.08 0.09 l
-0.07 0.10 l
-0.07 0.10 l
-0.07 0.10 l
-0.07 0.10 l
-0.07 0.10 l
-0.06 0.10 l
-0.06 0.11 l
-0.06 0.10 l
-0.06 0.11 l
-0.06 0.10 l
-0.05 0.11 l
-0.06 0.11 l
-0.05 0.11 l
-0.05 0.11 l
-0.04 0.11 l
-0.05 0.11 l
-0.04 0.12 l
-0.04 0.11 l
-0.04 0.12 l
-0.04 0.11 l
-0.03 0.12 l
-0.04 0.11 l
-0.03 0.12 l
-0.02 0.12 l
-0.03 0.11 l
-0.03 0.12 l
-0.02 0.12 l
-0.02 0.12 l
-0.02 0.12 l
-0.01 0.12 l
-0.02 0.12 l
-0.01 0.12 l
-0.01 0.12 l
-0.01 0.12 l
0 0.12 l
0 0.12 l
-0.01 0.12 l
0.01 0.12 l
0 0.12 l
0 0.12 l
0.01 0.12 l
0.01 0.12 l
0.01 0.12 l
0.02 0.12 l
0.01 0.12 l
0.02 0.12 l
0.02 0.12 l
0.02 0.12 l
0.03 0.12 l
0.03 0.12 l
0.02 0.11 l
0.03 0.12 l
0.04 0.12 l
0.03 0.11 l
0.04 0.12 l
0.04 0.11 l
0.04 0.12 l
0.04 0.11 l
0.05 0.11 l
0.04 0.11 l
0.05 0.11 l
0.05 0.11 l
0.06 0.11 l
0.05 0.11 l
0.06 0.11 l
0.06 0.10 l
157.17 547.57 lineto
0.06 0.10 l
0.06 0.10 l
0.07 0.11 l
0.07 0.10 l
0.07 0.10 l
0.07 0.09 l
0.07 0.10 l
0.08 0.10 l
0.07 0.09 l
0.08 0.09 l
0.08 0.10 l
0.08 0.09 l
0.09 0.08 l
0.08 0.09 l
0.09 0.09 l
0.09 0.08 l
0.08 0.09 l
0.10 0.08 l
0.09 0.08 l
0.09 0.08 l
0.10 0.07 l
0.09 0.08 l
0.10 0.07 l
0.10 0.07 l
0.10 0.07 l
0.10 0.07 l
0.10 0.07 l
0.11 0.06 l
0.10 0.07 l
0.11 0.06 l
0.10 0.06 l
0.11 0.05 l
0.11 0.06 l
0.11 0.05 l
0.11 0.06 l
0.11 0.05 l
0.12 0.04 l
0.11 0.05 l
0.11 0.04 l
0.12 0.05 l
0.12 0.04 l
0.11 0.03 l
0.12 0.04 l
0.12 0.04 l
0.12 0.03 l
0.11 0.03 l
0.12 0.03 l
0.12 0.02 l
0.12 0.03 l
0.13 0.02 l
0.12 0.02 l
0.12 0.02 l
0.12 0.01 l
0.12 0.02 l
0.12 0.01 l
0.13 0.01 l
0.12 0 l
0.12 0.01 l
0.13 0 l
0.12 0 l
0 0 l
o
np
163.27 547.18 m
1.38 3.71 l
o
np
163.27 543.06 m
2.75 7.41 l
o
np
163.27 538.95 m
4.02 10.84 l
o
np
164.17 537.26 m
4.28 11.54 l
o
np
165.85 537.68 m
3.61 9.73 l
o
np
167.80 538.82 m
2.41 6.49 l
o
np
163.27 551.02 m
0.12 0 l
0.12 0 l
0.13 -0.01 l
0.12 0 l
0.12 -0.01 l
0.12 -0.01 l
0.13 -0.02 l
0.12 -0.01 l
0.12 -0.02 l
0.12 -0.02 l
0.12 -0.02 l
0.12 -0.03 l
0.12 -0.02 l
0.12 -0.03 l
0.12 -0.03 l
0.12 -0.03 l
0.12 -0.04 l
0.12 -0.04 l
0.11 -0.03 l
0.12 -0.04 l
0.11 -0.05 l
0.12 -0.04 l
0.11 -0.05 l
0.11 -0.04 l
0.12 -0.05 l
0.11 -0.06 l
0.11 -0.05 l
0.11 -0.06 l
0.10 -0.05 l
0.11 -0.06 l
0.11 -0.06 l
0.10 -0.07 l
0.10 -0.06 l
0.11 -0.07 l
0.10 -0.07 l
0.10 -0.07 l
0.10 -0.07 l
0.10 -0.07 l
0.09 -0.08 l
0.10 -0.07 l
0.09 -0.08 l
0.09 -0.08 l
0.09 -0.08 l
0.09 -0.09 l
0.09 -0.08 l
0.09 -0.09 l
0.08 -0.09 l
0.08 -0.08 l
0.08 -0.09 l
0.08 -0.10 l
0.08 -0.09 l
0.08 -0.09 l
0.07 -0.10 l
0.08 -0.10 l
0.07 -0.09 l
0.07 -0.10 l
0.07 -0.10 l
0.06 -0.11 l
0.07 -0.10 l
0.06 -0.10 l
0.06 -0.11 l
0.06 -0.10 l
0.05 -0.11 l
0.06 -0.11 l
0.05 -0.11 l
0.05 -0.11 l
0.05 -0.11 l
0.05 -0.11 l
0.04 -0.11 l
0.05 -0.11 l
0.04 -0.12 l
0.04 -0.11 l
0.03 -0.12 l
0.04 -0.11 l
0.03 -0.12 l
0.03 -0.12 l
0.03 -0.11 l
0.03 -0.12 l
0.02 -0.12 l
0.03 -0.12 l
0.02 -0.12 l
0.01 -0.12 l
0.02 -0.12 l
0.01 -0.12 l
0.02 -0.12 l
0.01 -0.12 l
0 -0.12 l
0.01 -0.12 l
0 -0.12 l
0 -0.12 l
0 -0.12 l
0 -0.12 l
-0.01 -0.12 l
0 -0.12 l
-0.01 -0.12 l
-0.02 -0.12 l
-0.01 -0.12 l
-0.02 -0.12 l
-0.01 -0.12 l
170.21 542.91 lineto
-0.03 -0.12 l
-0.02 -0.12 l
-0.03 -0.11 l
-0.03 -0.12 l
-0.03 -0.12 l
-0.03 -0.11 l
-0.04 -0.12 l
-0.03 -0.11 l
-0.04 -0.12 l
-0.04 -0.11 l
-0.05 -0.12 l
-0.04 -0.11 l
-0.05 -0.11 l
-0.05 -0.11 l
-0.05 -0.11 l
-0.05 -0.11 l
-0.06 -0.11 l
-0.05 -0.10 l
-0.06 -0.11 l
-0.06 -0.10 l
-0.06 -0.11 l
-0.07 -0.10 l
-0.06 -0.10 l
-0.07 -0.10 l
-0.07 -0.10 l
-0.07 -0.10 l
-0.08 -0.10 l
-0.07 -0.09 l
-0.08 -0.10 l
-0.08 -0.09 l
-0.08 -0.09 l
-0.08 -0.09 l
-0.08 -0.09 l
-0.08 -0.09 l
-0.09 -0.09 l
-0.09 -0.08 l
-0.09 -0.08 l
-0.09 -0.09 l
-0.09 -0.08 l
-0.09 -0.07 l
-0.10 -0.08 l
-0.09 -0.08 l
-0.10 -0.07 l
-0.10 -0.07 l
-0.10 -0.07 l
-0.10 -0.07 l
-0.11 -0.07 l
-0.10 -0.06 l
-0.10 -0.06 l
-0.11 -0.06 l
-0.11 -0.06 l
-0.10 -0.06 l
-0.11 -0.06 l
-0.11 -0.05 l
-0.11 -0.05 l
-0.12 -0.05 l
-0.11 -0.05 l
-0.11 -0.05 l
-0.12 -0.04 l
-0.11 -0.04 l
-0.12 -0.04 l
-0.11 -0.04 l
-0.12 -0.04 l
-0.12 -0.03 l
-0.12 -0.04 l
-0.12 -0.03 l
-0.12 -0.02 l
-0.12 -0.03 l
-0.12 -0.02 l
-0.12 -0.03 l
-0.12 -0.02 l
-0.12 -0.01 l
-0.12 -0.02 l
-0.13 -0.01 l
-0.12 -0.01 l
-0.12 -0.01 l
-0.12 -0.01 l
-0.13 -0.01 l
-0.12 0 l
-0.12 0 l
0 13.82 l
o
np
163.27 537.20 m
-0.12 0 l
-0.13 0 l
-0.12 0.01 l
-0.12 0.01 l
-0.13 0.01 l
-0.12 0.01 l
-0.12 0.01 l
-0.12 0.02 l
-0.12 0.01 l
-0.12 0.02 l
-0.13 0.03 l
-0.12 0.02 l
-0.12 0.03 l
-0.12 0.02 l
-0.11 0.03 l
-0.12 0.04 l
-0.12 0.03 l
-0.12 0.04 l
-0.11 0.04 l
-0.12 0.04 l
-0.12 0.04 l
-0.11 0.04 l
-0.11 0.05 l
-0.12 0.05 l
-0.11 0.05 l
-0.11 0.05 l
-0.11 0.05 l
-0.11 0.06 l
-0.11 0.06 l
-0.10 0.06 l
-0.11 0.06 l
-0.10 0.06 l
-0.11 0.06 l
-0.10 0.07 l
-0.10 0.07 l
-0.10 0.07 l
-0.10 0.07 l
-0.10 0.07 l
-0.09 0.08 l
-0.10 0.08 l
-0.09 0.07 l
-0.09 0.08 l
-0.10 0.09 l
-0.08 0.08 l
-0.09 0.08 l
-0.09 0.09 l
-0.08 0.09 l
-0.09 0.09 l
-0.08 0.09 l
-0.08 0.09 l
-0.08 0.09 l
-0.07 0.10 l
-0.08 0.09 l
-0.07 0.10 l
-0.07 0.10 l
-0.07 0.10 l
-0.07 0.10 l
-0.07 0.10 l
-0.06 0.10 l
-0.06 0.11 l
-0.06 0.10 l
-0.06 0.11 l
-0.06 0.10 l
-0.05 0.11 l
-0.06 0.11 l
-0.05 0.11 l
-0.05 0.11 l
-0.04 0.11 l
-0.05 0.11 l
-0.04 0.12 l
-0.04 0.11 l
-0.04 0.12 l
-0.04 0.11 l
-0.03 0.12 l
-0.04 0.11 l
-0.03 0.12 l
-0.02 0.12 l
-0.03 0.11 l
-0.03 0.12 l
-0.02 0.12 l
-0.02 0.12 l
-0.02 0.12 l
-0.01 0.12 l
-0.02 0.12 l
-0.01 0.12 l
-0.01 0.12 l
-0.01 0.12 l
0 0.12 l
0 0.12 l
-0.01 0.12 l
0.01 0.12 l
0 0.12 l
0 0.12 l
0.01 0.12 l
0.01 0.12 l
0.01 0.12 l
0.02 0.12 l
0.01 0.12 l
0.02 0.12 l
156.33 545.31 lineto
0.02 0.12 l
0.03 0.12 l
0.03 0.12 l
0.02 0.11 l
0.03 0.12 l
0.04 0.12 l
0.03 0.11 l
0.04 0.12 l
0.04 0.11 l
0.04 0.12 l
0.04 0.11 l
0.05 0.11 l
0.04 0.11 l
0.05 0.11 l
0.05 0.11 l
0.06 0.11 l
0.05 0.11 l
0.06 0.11 l
0.06 0.10 l
0.06 0.11 l
0.06 0.10 l
0.06 0.10 l
0.07 0.11 l
0.07 0.10 l
0.07 0.10 l
0.07 0.09 l
0.07 0.10 l
0.08 0.10 l
0.07 0.09 l
0.08 0.09 l
0.08 0.10 l
0.08 0.09 l
0.09 0.08 l
0.08 0.09 l
0.09 0.09 l
0.09 0.08 l
0.08 0.09 l
0.10 0.08 l
0.09 0.08 l
0.09 0.08 l
0.10 0.07 l
0.09 0.08 l
0.10 0.07 l
0.10 0.07 l
0.10 0.07 l
0.10 0.07 l
0.10 0.07 l
0.11 0.06 l
0.10 0.07 l
0.11 0.06 l
0.10 0.06 l
0.11 0.05 l
0.11 0.06 l
0.11 0.05 l
0.11 0.06 l
0.11 0.05 l
0.12 0.04 l
0.11 0.05 l
0.11 0.04 l
0.12 0.05 l
0.12 0.04 l
0.11 0.03 l
0.12 0.04 l
0.12 0.04 l
0.12 0.03 l
0.11 0.03 l
0.12 0.03 l
0.12 0.02 l
0.12 0.03 l
0.13 0.02 l
0.12 0.02 l
0.12 0.02 l
0.12 0.01 l
0.12 0.02 l
0.12 0.01 l
0.13 0.01 l
0.12 0 l
0.12 0.01 l
0.13 0 l
0.12 0 l
0 -13.82 l
o
np
163.27 452.28 m
0.12 0 l
0.12 0 l
0.13 -0.01 l
0.12 0 l
0.12 -0.01 l
0.12 -0.02 l
0.13 -0.01 l
0.12 -0.02 l
0.12 -0.01 l
0.12 -0.02 l
0.12 -0.02 l
0.12 -0.03 l
0.12 -0.02 l
0.12 -0.03 l
0.12 -0.03 l
0.12 -0.04 l
0.12 -0.03 l
0.12 -0.04 l
0.11 -0.03 l
0.12 -0.04 l
0.11 -0.05 l
0.12 -0.04 l
0.11 -0.05 l
0.11 -0.05 l
0.12 -0.05 l
0.11 -0.05 l
0.11 -0.05 l
0.11 -0.06 l
0.10 -0.05 l
0.11 -0.06 l
0.11 -0.07 l
0.10 -0.06 l
0.10 -0.06 l
0.11 -0.07 l
0.10 -0.07 l
0.10 -0.07 l
0.10 -0.07 l
0.10 -0.07 l
0.09 -0.08 l
0.10 -0.07 l
0.09 -0.08 l
0.09 -0.08 l
0.09 -0.08 l
0.09 -0.09 l
0.09 -0.08 l
0.09 -0.09 l
0.08 -0.09 l
0.08 -0.08 l
0.08 -0.10 l
0.08 -0.09 l
0.08 -0.09 l
0.08 -0.09 l
0.07 -0.10 l
0.08 -0.10 l
0.07 -0.10 l
0.07 -0.09 l
0.07 -0.11 l
0.06 -0.10 l
0.07 -0.10 l
0.06 -0.10 l
0.06 -0.11 l
0.06 -0.10 l
0.05 -0.11 l
0.06 -0.11 l
0.05 -0.11 l
0.05 -0.11 l
0.05 -0.11 l
0.05 -0.11 l
0.04 -0.11 l
0.05 -0.12 l
0.04 -0.11 l
0.04 -0.11 l
0.03 -0.12 l
0.04 -0.11 l
0.03 -0.12 l
0.03 -0.12 l
0.03 -0.11 l
0.03 -0.12 l
0.02 -0.12 l
0.03 -0.12 l
0.02 -0.12 l
0.01 -0.12 l
0.02 -0.12 l
0.01 -0.12 l
0.02 -0.12 l
0.01 -0.12 l
0 -0.12 l
0.01 -0.12 l
0 -0.12 l
0 -0.12 l
0 -0.12 l
0 -0.12 l
-0.01 -0.12 l
0 -0.12 l
-0.01 -0.12 l
-0.02 -0.12 l
-0.01 -0.12 l
-0.02 -0.12 l
-0.01 -0.12 l
170.21 444.17 lineto
-0.03 -0.12 l
-0.02 -0.12 l
-0.03 -0.11 l
-0.03 -0.12 l
-0.03 -0.12 l
-0.03 -0.11 l
-0.04 -0.12 l
-0.03 -0.12 l
-0.04 -0.11 l
-0.04 -0.11 l
-0.05 -0.12 l
-0.04 -0.11 l
-0.05 -0.11 l
-0.05 -0.11 l
-0.05 -0.11 l
-0.05 -0.11 l
-0.06 -0.11 l
-0.05 -0.10 l
-0.06 -0.11 l
-0.06 -0.11 l
-0.06 -0.10 l
-0.07 -0.10 l
-0.06 -0.10 l
-0.07 -0.10 l
-0.07 -0.10 l
-0.07 -0.10 l
-0.08 -0.10 l
-0.07 -0.09 l
-0.08 -0.10 l
-0.08 -0.09 l
-0.08 -0.09 l
-0.08 -0.09 l
-0.08 -0.09 l
-0.08 -0.09 l
-0.09 -0.09 l
-0.09 -0.08 l
-0.09 -0.08 l
-0.09 -0.09 l
-0.09 -0.08 l
-0.09 -0.07 l
-0.10 -0.08 l
-0.09 -0.08 l
-0.10 -0.07 l
-0.10 -0.07 l
-0.10 -0.07 l
-0.10 -0.07 l
-0.11 -0.07 l
-0.10 -0.06 l
-0.10 -0.06 l
-0.11 -0.07 l
-0.11 -0.05 l
-0.10 -0.06 l
-0.11 -0.06 l
-0.11 -0.05 l
-0.11 -0.05 l
-0.12 -0.05 l
-0.11 -0.05 l
-0.11 -0.05 l
-0.12 -0.04 l
-0.11 -0.04 l
-0.12 -0.04 l
-0.11 -0.04 l
-0.12 -0.04 l
-0.12 -0.03 l
-0.12 -0.04 l
-0.12 -0.03 l
-0.12 -0.02 l
-0.12 -0.03 l
-0.12 -0.02 l
-0.12 -0.03 l
-0.12 -0.02 l
-0.12 -0.01 l
-0.12 -0.02 l
-0.13 -0.01 l
-0.12 -0.02 l
-0.12 0 l
-0.12 -0.01 l
-0.13 -0.01 l
-0.12 0 l
-0.12 0 l
-0.12 0 l
-0.13 0 l
-0.12 0.01 l
-0.12 0.01 l
-0.13 0 l
-0.12 0.02 l
-0.12 0.01 l
-0.12 0.02 l
-0.12 0.01 l
-0.12 0.02 l
-0.13 0.03 l
-0.12 0.02 l
-0.12 0.03 l
-0.12 0.02 l
-0.11 0.03 l
-0.12 0.04 l
-0.12 0.03 l
-0.12 0.04 l
-0.11 0.04 l
160.86 438.88 lineto
-0.12 0.04 l
-0.11 0.04 l
-0.11 0.05 l
-0.12 0.05 l
-0.11 0.05 l
-0.11 0.05 l
-0.11 0.05 l
-0.11 0.06 l
-0.11 0.06 l
-0.10 0.05 l
-0.11 0.07 l
-0.10 0.06 l
-0.11 0.06 l
-0.10 0.07 l
-0.10 0.07 l
-0.10 0.07 l
-0.10 0.07 l
-0.10 0.07 l
-0.09 0.08 l
-0.10 0.08 l
-0.09 0.07 l
-0.09 0.08 l
-0.10 0.09 l
-0.08 0.08 l
-0.09 0.08 l
-0.09 0.09 l
-0.08 0.09 l
-0.09 0.09 l
-0.08 0.09 l
-0.08 0.09 l
-0.08 0.09 l
-0.07 0.10 l
-0.08 0.09 l
-0.07 0.10 l
-0.07 0.10 l
-0.07 0.10 l
-0.07 0.10 l
-0.07 0.10 l
-0.06 0.10 l
-0.06 0.10 l
-0.06 0.11 l
-0.06 0.11 l
-0.06 0.10 l
-0.05 0.11 l
-0.06 0.11 l
-0.05 0.11 l
-0.05 0.11 l
-0.04 0.11 l
-0.05 0.11 l
-0.04 0.12 l
-0.04 0.11 l
-0.04 0.11 l
-0.04 0.12 l
-0.03 0.12 l
-0.04 0.11 l
-0.03 0.12 l
-0.02 0.12 l
-0.03 0.11 l
-0.03 0.12 l
-0.02 0.12 l
-0.02 0.12 l
-0.02 0.12 l
-0.01 0.12 l
-0.02 0.12 l
-0.01 0.12 l
-0.01 0.12 l
-0.01 0.12 l
0 0.12 l
0 0.12 l
-0.01 0.12 l
0.01 0.12 l
0 0.12 l
0 0.12 l
0.01 0.12 l
0.01 0.12 l
0.01 0.12 l
0.02 0.12 l
0.01 0.12 l
0.02 0.12 l
0.02 0.12 l
0.02 0.12 l
0.03 0.12 l
0.03 0.12 l
0.02 0.11 l
0.03 0.12 l
0.04 0.12 l
0.03 0.11 l
0.04 0.12 l
0.04 0.11 l
0.04 0.11 l
0.04 0.12 l
0.05 0.11 l
0.04 0.11 l
0.05 0.11 l
0.05 0.11 l
0.06 0.11 l
0.05 0.11 l
0.06 0.11 l
0.06 0.10 l
157.17 448.83 lineto
0.06 0.10 l
0.06 0.10 l
0.07 0.10 l
0.07 0.11 l
0.07 0.09 l
0.07 0.10 l
0.07 0.10 l
0.08 0.10 l
0.07 0.09 l
0.08 0.09 l
0.08 0.09 l
0.08 0.10 l
0.09 0.08 l
0.08 0.09 l
0.09 0.09 l
0.09 0.08 l
0.08 0.09 l
0.10 0.08 l
0.09 0.08 l
0.09 0.08 l
0.10 0.07 l
0.09 0.08 l
0.10 0.07 l
0.10 0.07 l
0.10 0.07 l
0.10 0.07 l
0.10 0.07 l
0.11 0.06 l
0.10 0.06 l
0.11 0.07 l
0.10 0.06 l
0.11 0.05 l
0.11 0.06 l
0.11 0.05 l
0.11 0.05 l
0.11 0.05 l
0.12 0.05 l
0.11 0.05 l
0.11 0.04 l
0.12 0.05 l
0.12 0.04 l
0.11 0.03 l
0.12 0.04 l
0.12 0.03 l
0.12 0.04 l
0.11 0.03 l
0.12 0.03 l
0.12 0.02 l
0.12 0.03 l
0.13 0.02 l
0.12 0.02 l
0.12 0.01 l
0.12 0.02 l
0.12 0.01 l
0.12 0.02 l
0.13 0.01 l
0.12 0 l
0.12 0.01 l
0.13 0 l
0.12 0 l
0 0 l
o
np
234.63 452.28 m
0.13 0 l
0.12 0 l
0.12 -0.01 l
0.13 0 l
0.12 -0.01 l
0.12 -0.02 l
0.12 -0.01 l
0.12 -0.02 l
0.13 -0.01 l
0.12 -0.02 l
0.12 -0.02 l
0.12 -0.03 l
0.12 -0.02 l
0.12 -0.03 l
0.12 -0.03 l
0.12 -0.04 l
0.11 -0.03 l
0.12 -0.04 l
0.12 -0.03 l
0.11 -0.04 l
0.12 -0.05 l
0.11 -0.04 l
0.12 -0.05 l
0.11 -0.05 l
0.11 -0.05 l
0.11 -0.05 l
0.11 -0.05 l
0.11 -0.06 l
0.11 -0.05 l
0.11 -0.06 l
0.10 -0.07 l
0.11 -0.06 l
0.10 -0.06 l
0.10 -0.07 l
0.10 -0.07 l
0.10 -0.07 l
0.10 -0.07 l
0.10 -0.07 l
0.10 -0.08 l
0.09 -0.07 l
0.10 -0.08 l
0.09 -0.08 l
0.09 -0.08 l
0.09 -0.09 l
0.09 -0.08 l
0.08 -0.09 l
0.09 -0.09 l
0.08 -0.08 l
0.08 -0.10 l
0.08 -0.09 l
0.08 -0.09 l
0.07 -0.09 l
0.08 -0.10 l
0.07 -0.10 l
0.07 -0.10 l
0.07 -0.09 l
0.07 -0.11 l
0.07 -0.10 l
0.06 -0.10 l
0.06 -0.10 l
0.06 -0.11 l
0.06 -0.10 l
0.06 -0.11 l
0.06 -0.11 l
0.05 -0.11 l
0.05 -0.11 l
0.05 -0.11 l
0.05 -0.11 l
0.04 -0.11 l
0.04 -0.12 l
0.04 -0.11 l
0.04 -0.11 l
0.04 -0.12 l
0.04 -0.11 l
0.03 -0.12 l
0.03 -0.12 l
0.03 -0.11 l
0.02 -0.12 l
0.03 -0.12 l
0.02 -0.12 l
0.02 -0.12 l
0.02 -0.12 l
0.02 -0.12 l
0.01 -0.12 l
0.01 -0.12 l
0.01 -0.12 l
0.01 -0.12 l
0 -0.12 l
0.01 -0.12 l
0 -0.12 l
0 -0.12 l
-0.01 -0.12 l
0 -0.12 l
-0.01 -0.12 l
-0.01 -0.12 l
-0.01 -0.12 l
-0.01 -0.12 l
-0.02 -0.12 l
-0.02 -0.12 l
241.57 444.17 lineto
-0.02 -0.12 l
-0.03 -0.12 l
-0.02 -0.11 l
-0.03 -0.12 l
-0.03 -0.12 l
-0.03 -0.11 l
-0.04 -0.12 l
-0.04 -0.12 l
-0.04 -0.11 l
-0.04 -0.11 l
-0.04 -0.12 l
-0.04 -0.11 l
-0.05 -0.11 l
-0.05 -0.11 l
-0.05 -0.11 l
-0.05 -0.11 l
-0.06 -0.11 l
-0.06 -0.10 l
-0.06 -0.11 l
-0.06 -0.11 l
-0.06 -0.10 l
-0.06 -0.10 l
-0.07 -0.10 l
-0.07 -0.10 l
-0.07 -0.10 l
-0.07 -0.10 l
-0.07 -0.10 l
-0.08 -0.09 l
-0.07 -0.10 l
-0.08 -0.09 l
-0.08 -0.09 l
-0.08 -0.09 l
-0.08 -0.09 l
-0.09 -0.09 l
-0.08 -0.09 l
-0.09 -0.08 l
-0.09 -0.08 l
-0.09 -0.09 l
-0.09 -0.08 l
-0.10 -0.07 l
-0.09 -0.08 l
-0.10 -0.08 l
-0.10 -0.07 l
-0.10 -0.07 l
-0.10 -0.07 l
-0.10 -0.07 l
-0.10 -0.07 l
-0.10 -0.06 l
-0.11 -0.06 l
-0.10 -0.07 l
-0.11 -0.05 l
-0.11 -0.06 l
-0.11 -0.06 l
-0.11 -0.05 l
-0.11 -0.05 l
-0.11 -0.05 l
-0.11 -0.05 l
-0.12 -0.05 l
-0.11 -0.04 l
-0.12 -0.04 l
-0.11 -0.04 l
-0.12 -0.04 l
-0.12 -0.04 l
-0.11 -0.03 l
-0.12 -0.04 l
-0.12 -0.03 l
-0.12 -0.02 l
-0.12 -0.03 l
-0.12 -0.02 l
-0.12 -0.03 l
-0.12 -0.02 l
-0.13 -0.01 l
-0.12 -0.02 l
-0.12 -0.01 l
-0.12 -0.02 l
-0.12 0 l
-0.13 -0.01 l
-0.12 -0.01 l
-0.12 0 l
-0.13 0 l
-0.12 0 l
-0.12 0 l
-0.12 0.01 l
-0.13 0.01 l
-0.12 0 l
-0.12 0.02 l
-0.12 0.01 l
-0.13 0.02 l
-0.12 0.01 l
-0.12 0.02 l
-0.12 0.03 l
-0.12 0.02 l
-0.12 0.03 l
-0.12 0.02 l
-0.12 0.03 l
-0.12 0.04 l
-0.12 0.03 l
-0.11 0.04 l
-0.12 0.04 l
232.23 438.88 lineto
-0.12 0.04 l
-0.11 0.04 l
-0.12 0.05 l
-0.11 0.05 l
-0.11 0.05 l
-0.11 0.05 l
-0.11 0.05 l
-0.11 0.06 l
-0.11 0.06 l
-0.11 0.05 l
-0.10 0.07 l
-0.11 0.06 l
-0.10 0.06 l
-0.10 0.07 l
-0.11 0.07 l
-0.10 0.07 l
-0.09 0.07 l
-0.10 0.07 l
-0.10 0.08 l
-0.09 0.08 l
-0.10 0.07 l
-0.09 0.08 l
-0.09 0.09 l
-0.09 0.08 l
-0.09 0.08 l
-0.08 0.09 l
-0.09 0.09 l
-0.08 0.09 l
-0.08 0.09 l
-0.08 0.09 l
-0.08 0.09 l
-0.08 0.10 l
-0.07 0.09 l
-0.07 0.10 l
-0.08 0.10 l
-0.07 0.10 l
-0.06 0.10 l
-0.07 0.10 l
-0.06 0.10 l
-0.07 0.10 l
-0.06 0.11 l
-0.06 0.11 l
-0.05 0.10 l
-0.06 0.11 l
-0.05 0.11 l
-0.05 0.11 l
-0.05 0.11 l
-0.05 0.11 l
-0.04 0.11 l
-0.04 0.12 l
-0.05 0.11 l
-0.03 0.11 l
-0.04 0.12 l
-0.04 0.12 l
-0.03 0.11 l
-0.03 0.12 l
-0.03 0.12 l
-0.03 0.11 l
-0.02 0.12 l
-0.02 0.12 l
-0.02 0.12 l
-0.02 0.12 l
-0.02 0.12 l
-0.01 0.12 l
-0.01 0.12 l
-0.01 0.12 l
-0.01 0.12 l
-0.01 0.12 l
0 0.12 l
0 0.12 l
0 0.12 l
0 0.12 l
0.01 0.12 l
0.01 0.12 l
0.01 0.12 l
0.01 0.12 l
0.01 0.12 l
0.02 0.12 l
0.02 0.12 l
0.02 0.12 l
0.02 0.12 l
0.02 0.12 l
0.03 0.12 l
0.03 0.11 l
0.03 0.12 l
0.03 0.12 l
0.04 0.11 l
0.04 0.12 l
0.03 0.11 l
0.05 0.11 l
0.04 0.12 l
0.04 0.11 l
0.05 0.11 l
0.05 0.11 l
0.05 0.11 l
0.05 0.11 l
0.06 0.11 l
0.05 0.11 l
0.06 0.10 l
228.53 448.83 lineto
0.07 0.10 l
0.06 0.10 l
0.07 0.10 l
0.06 0.11 l
0.07 0.09 l
0.08 0.10 l
0.07 0.10 l
0.07 0.10 l
0.08 0.09 l
0.08 0.09 l
0.08 0.09 l
0.08 0.10 l
0.08 0.08 l
0.09 0.09 l
0.08 0.09 l
0.09 0.08 l
0.09 0.09 l
0.09 0.08 l
0.09 0.08 l
0.10 0.08 l
0.09 0.07 l
0.10 0.08 l
0.10 0.07 l
0.09 0.07 l
0.10 0.07 l
0.11 0.07 l
0.10 0.07 l
0.10 0.06 l
0.11 0.06 l
0.10 0.07 l
0.11 0.06 l
0.11 0.05 l
0.11 0.06 l
0.11 0.05 l
0.11 0.05 l
0.11 0.05 l
0.11 0.05 l
0.12 0.05 l
0.11 0.04 l
0.12 0.05 l
0.11 0.04 l
0.12 0.03 l
0.11 0.04 l
0.12 0.03 l
0.12 0.04 l
0.12 0.03 l
0.12 0.03 l
0.12 0.02 l
0.12 0.03 l
0.12 0.02 l
0.12 0.02 l
0.12 0.01 l
0.13 0.02 l
0.12 0.01 l
0.12 0.02 l
0.12 0.01 l
0.13 0 l
0.12 0.01 l
0.12 0 l
0.12 0 l
0 0 l
o
np
234.63 353.54 m
0.13 0 l
0.12 0 l
0.12 -0.01 l
0.13 -0.01 l
0.12 0 l
0.12 -0.02 l
0.12 -0.01 l
0.12 -0.02 l
0.13 -0.01 l
0.12 -0.02 l
0.12 -0.03 l
0.12 -0.02 l
0.12 -0.03 l
0.12 -0.02 l
0.12 -0.03 l
0.12 -0.04 l
0.11 -0.03 l
0.12 -0.04 l
0.12 -0.04 l
0.11 -0.04 l
0.12 -0.04 l
0.11 -0.04 l
0.12 -0.05 l
0.11 -0.05 l
0.11 -0.05 l
0.11 -0.05 l
0.11 -0.05 l
0.11 -0.06 l
0.11 -0.06 l
0.11 -0.05 l
0.10 -0.07 l
0.11 -0.06 l
0.10 -0.06 l
0.10 -0.07 l
0.10 -0.07 l
0.10 -0.07 l
0.10 -0.07 l
0.10 -0.07 l
0.10 -0.08 l
0.09 -0.08 l
0.10 -0.07 l
0.09 -0.08 l
0.09 -0.09 l
0.09 -0.08 l
0.09 -0.08 l
0.08 -0.09 l
0.09 -0.09 l
0.08 -0.09 l
0.08 -0.09 l
0.08 -0.09 l
0.08 -0.09 l
0.07 -0.10 l
0.08 -0.09 l
0.07 -0.10 l
0.07 -0.10 l
0.07 -0.10 l
0.07 -0.10 l
0.07 -0.10 l
0.06 -0.10 l
0.06 -0.10 l
0.06 -0.11 l
0.06 -0.11 l
0.06 -0.10 l
0.06 -0.11 l
0.05 -0.11 l
0.05 -0.11 l
0.05 -0.11 l
0.05 -0.11 l
0.04 -0.11 l
0.04 -0.12 l
0.04 -0.11 l
0.04 -0.11 l
0.04 -0.12 l
0.04 -0.12 l
0.03 -0.11 l
0.03 -0.12 l
0.03 -0.12 l
0.02 -0.11 l
0.03 -0.12 l
0.02 -0.12 l
0.02 -0.12 l
0.02 -0.12 l
0.02 -0.12 l
0.01 -0.12 l
0.01 -0.12 l
0.01 -0.12 l
0.01 -0.12 l
0 -0.12 l
0.01 -0.12 l
0 -0.12 l
0 -0.12 l
-0.01 -0.12 l
0 -0.12 l
-0.01 -0.12 l
-0.01 -0.12 l
-0.01 -0.12 l
-0.01 -0.12 l
-0.02 -0.12 l
-0.02 -0.12 l
241.57 345.43 lineto
-0.02 -0.12 l
-0.03 -0.12 l
-0.02 -0.12 l
-0.03 -0.11 l
-0.03 -0.12 l
-0.03 -0.12 l
-0.04 -0.11 l
-0.04 -0.12 l
-0.04 -0.11 l
-0.04 -0.11 l
-0.04 -0.12 l
-0.04 -0.11 l
-0.05 -0.11 l
-0.05 -0.11 l
-0.05 -0.11 l
-0.05 -0.11 l
-0.06 -0.11 l
-0.06 -0.11 l
-0.06 -0.10 l
-0.06 -0.11 l
-0.06 -0.10 l
-0.06 -0.10 l
-0.07 -0.10 l
-0.07 -0.11 l
-0.07 -0.09 l
-0.07 -0.10 l
-0.07 -0.10 l
-0.08 -0.10 l
-0.07 -0.09 l
-0.08 -0.09 l
-0.08 -0.09 l
-0.08 -0.10 l
-0.08 -0.08 l
-0.09 -0.09 l
-0.08 -0.09 l
-0.09 -0.08 l
-0.09 -0.09 l
-0.09 -0.08 l
-0.09 -0.08 l
-0.10 -0.08 l
-0.09 -0.07 l
-0.10 -0.08 l
-0.10 -0.07 l
-0.10 -0.07 l
-0.10 -0.07 l
-0.10 -0.07 l
-0.10 -0.07 l
-0.10 -0.06 l
-0.11 -0.06 l
-0.10 -0.07 l
-0.11 -0.06 l
-0.11 -0.05 l
-0.11 -0.06 l
-0.11 -0.05 l
-0.11 -0.05 l
-0.11 -0.05 l
-0.11 -0.05 l
-0.12 -0.05 l
-0.11 -0.04 l
-0.12 -0.05 l
-0.11 -0.04 l
-0.12 -0.03 l
-0.12 -0.04 l
-0.11 -0.03 l
-0.12 -0.04 l
-0.12 -0.03 l
-0.12 -0.03 l
-0.12 -0.02 l
-0.12 -0.03 l
-0.12 -0.02 l
-0.12 -0.02 l
-0.13 -0.01 l
-0.12 -0.02 l
-0.12 -0.01 l
-0.12 -0.02 l
-0.12 -0.01 l
-0.13 0 l
-0.12 -0.01 l
-0.12 0 l
-0.13 0 l
-0.12 0 l
-0.12 0 l
-0.12 0.01 l
-0.13 0 l
-0.12 0.01 l
-0.12 0.02 l
-0.12 0.01 l
-0.13 0.02 l
-0.12 0.01 l
-0.12 0.02 l
-0.12 0.02 l
-0.12 0.03 l
-0.12 0.02 l
-0.12 0.03 l
-0.12 0.03 l
-0.12 0.04 l
-0.12 0.03 l
-0.11 0.04 l
-0.12 0.03 l
232.23 340.13 lineto
-0.12 0.05 l
-0.11 0.04 l
-0.12 0.05 l
-0.11 0.05 l
-0.11 0.05 l
-0.11 0.05 l
-0.11 0.05 l
-0.11 0.06 l
-0.11 0.05 l
-0.11 0.06 l
-0.10 0.07 l
-0.11 0.06 l
-0.10 0.06 l
-0.10 0.07 l
-0.11 0.07 l
-0.10 0.07 l
-0.09 0.07 l
-0.10 0.07 l
-0.10 0.08 l
-0.09 0.07 l
-0.10 0.08 l
-0.09 0.08 l
-0.09 0.08 l
-0.09 0.09 l
-0.09 0.08 l
-0.08 0.09 l
-0.09 0.09 l
-0.08 0.08 l
-0.08 0.10 l
-0.08 0.09 l
-0.08 0.09 l
-0.08 0.09 l
-0.07 0.10 l
-0.07 0.10 l
-0.08 0.10 l
-0.07 0.09 l
-0.06 0.11 l
-0.07 0.10 l
-0.06 0.10 l
-0.07 0.10 l
-0.06 0.11 l
-0.06 0.10 l
-0.05 0.11 l
-0.06 0.11 l
-0.05 0.11 l
-0.05 0.11 l
-0.05 0.11 l
-0.05 0.11 l
-0.04 0.11 l
-0.04 0.12 l
-0.05 0.11 l
-0.03 0.11 l
-0.04 0.12 l
-0.04 0.11 l
-0.03 0.12 l
-0.03 0.12 l
-0.03 0.11 l
-0.03 0.12 l
-0.02 0.12 l
-0.02 0.12 l
-0.02 0.12 l
-0.02 0.12 l
-0.02 0.12 l
-0.01 0.12 l
-0.01 0.12 l
-0.01 0.12 l
-0.01 0.12 l
-0.01 0.12 l
0 0.12 l
0 0.12 l
0 0.12 l
0 0.12 l
0.01 0.12 l
0.01 0.12 l
0.01 0.12 l
0.01 0.12 l
0.01 0.12 l
0.02 0.12 l
0.02 0.12 l
0.02 0.12 l
0.02 0.12 l
0.02 0.12 l
0.03 0.11 l
0.03 0.12 l
0.03 0.12 l
0.03 0.11 l
0.04 0.12 l
0.04 0.12 l
0.03 0.11 l
0.05 0.11 l
0.04 0.12 l
0.04 0.11 l
0.05 0.11 l
0.05 0.11 l
0.05 0.11 l
0.05 0.11 l
0.06 0.11 l
0.05 0.10 l
0.06 0.11 l
228.53 350.09 lineto
0.07 0.10 l
0.06 0.10 l
0.07 0.10 l
0.06 0.10 l
0.07 0.10 l
0.08 0.10 l
0.07 0.10 l
0.07 0.09 l
0.08 0.10 l
0.08 0.09 l
0.08 0.09 l
0.08 0.09 l
0.08 0.09 l
0.09 0.09 l
0.08 0.09 l
0.09 0.08 l
0.09 0.08 l
0.09 0.09 l
0.09 0.08 l
0.10 0.07 l
0.09 0.08 l
0.10 0.08 l
0.10 0.07 l
0.09 0.07 l
0.10 0.07 l
0.11 0.07 l
0.10 0.07 l
0.10 0.06 l
0.11 0.06 l
0.10 0.07 l
0.11 0.05 l
0.11 0.06 l
0.11 0.06 l
0.11 0.05 l
0.11 0.05 l
0.11 0.05 l
0.11 0.05 l
0.12 0.05 l
0.11 0.04 l
0.12 0.04 l
0.11 0.04 l
0.12 0.04 l
0.11 0.04 l
0.12 0.03 l
0.12 0.04 l
0.12 0.03 l
0.12 0.02 l
0.12 0.03 l
0.12 0.02 l
0.12 0.03 l
0.12 0.02 l
0.12 0.01 l
0.13 0.02 l
0.12 0.01 l
0.12 0.02 l
0.12 0 l
0.13 0.01 l
0.12 0.01 l
0.12 0 l
0.12 0 l
0 0 l
o
np
234.63 353.54 m
0.13 0 l
0.12 0 l
0.12 -0.01 l
0.13 -0.01 l
0.12 0 l
0.12 -0.02 l
0.12 -0.01 l
0.12 -0.02 l
0.13 -0.01 l
0.12 -0.02 l
0.12 -0.03 l
0.12 -0.02 l
0.12 -0.03 l
0.12 -0.02 l
0.12 -0.03 l
0.12 -0.04 l
0.11 -0.03 l
0.12 -0.04 l
0.12 -0.04 l
0.11 -0.04 l
0.12 -0.04 l
0.11 -0.04 l
0.12 -0.05 l
0.11 -0.05 l
0.11 -0.05 l
0.11 -0.05 l
0.11 -0.05 l
0.11 -0.06 l
0.11 -0.06 l
0.11 -0.05 l
0.10 -0.07 l
0.11 -0.06 l
0.10 -0.06 l
0.10 -0.07 l
0.10 -0.07 l
0.10 -0.07 l
0.10 -0.07 l
0.10 -0.07 l
0.10 -0.08 l
0.09 -0.08 l
0.10 -0.07 l
0.09 -0.08 l
0.09 -0.09 l
0.09 -0.08 l
0.09 -0.08 l
0.08 -0.09 l
0.09 -0.09 l
0.08 -0.09 l
0.08 -0.09 l
0.08 -0.09 l
0.08 -0.09 l
0.07 -0.10 l
0.08 -0.09 l
0.07 -0.10 l
0.07 -0.10 l
0.07 -0.10 l
0.07 -0.10 l
0.07 -0.10 l
0.06 -0.10 l
0.06 -0.10 l
0.06 -0.11 l
0.06 -0.11 l
0.06 -0.10 l
0.06 -0.11 l
0.05 -0.11 l
0.05 -0.11 l
0.05 -0.11 l
0.05 -0.11 l
0.04 -0.11 l
0.04 -0.12 l
0.04 -0.11 l
0.04 -0.11 l
0.04 -0.12 l
0.04 -0.12 l
0.03 -0.11 l
0.03 -0.12 l
0.03 -0.12 l
0.02 -0.11 l
0.03 -0.12 l
0.02 -0.12 l
0.02 -0.12 l
0.02 -0.12 l
0.02 -0.12 l
0.01 -0.12 l
0.01 -0.12 l
0.01 -0.12 l
0.01 -0.12 l
0 -0.12 l
0.01 -0.12 l
0 -0.12 l
0 -0.12 l
-0.01 -0.12 l
0 -0.12 l
-0.01 -0.12 l
-0.01 -0.12 l
-0.01 -0.12 l
-0.01 -0.12 l
-0.02 -0.12 l
-0.02 -0.12 l
241.57 345.43 lineto
-0.02 -0.12 l
-0.03 -0.12 l
-0.02 -0.12 l
-0.03 -0.11 l
-0.03 -0.12 l
-0.03 -0.12 l
-0.04 -0.11 l
-0.04 -0.12 l
-0.04 -0.11 l
-0.04 -0.11 l
-0.04 -0.12 l
-0.04 -0.11 l
-0.05 -0.11 l
-0.05 -0.11 l
-0.05 -0.11 l
-0.05 -0.11 l
-0.06 -0.11 l
-0.06 -0.11 l
-0.06 -0.10 l
-0.06 -0.11 l
-0.06 -0.10 l
-0.06 -0.10 l
-0.07 -0.10 l
-0.07 -0.11 l
-0.07 -0.09 l
-0.07 -0.10 l
-0.07 -0.10 l
-0.08 -0.10 l
-0.07 -0.09 l
-0.08 -0.09 l
-0.08 -0.09 l
-0.08 -0.10 l
-0.08 -0.08 l
-0.09 -0.09 l
-0.08 -0.09 l
-0.09 -0.08 l
-0.09 -0.09 l
-0.09 -0.08 l
-0.09 -0.08 l
-0.10 -0.08 l
-0.09 -0.07 l
-0.10 -0.08 l
-0.10 -0.07 l
-0.10 -0.07 l
-0.10 -0.07 l
-0.10 -0.07 l
-0.10 -0.07 l
-0.10 -0.06 l
-0.11 -0.06 l
-0.10 -0.07 l
-0.11 -0.06 l
-0.11 -0.05 l
-0.11 -0.06 l
-0.11 -0.05 l
-0.11 -0.05 l
-0.11 -0.05 l
-0.11 -0.05 l
-0.12 -0.05 l
-0.11 -0.04 l
-0.12 -0.05 l
-0.11 -0.04 l
-0.12 -0.03 l
-0.12 -0.04 l
-0.11 -0.03 l
-0.12 -0.04 l
-0.12 -0.03 l
-0.12 -0.03 l
-0.12 -0.02 l
-0.12 -0.03 l
-0.12 -0.02 l
-0.12 -0.02 l
-0.13 -0.01 l
-0.12 -0.02 l
-0.12 -0.01 l
-0.12 -0.02 l
-0.12 -0.01 l
-0.13 0 l
-0.12 -0.01 l
-0.12 0 l
-0.13 0 l
0 13.82 l
o
/bg { 0 setgray } def
np
 234.63 339.72 m
-0.12 0 l
-0.12 0 l
-0.12 0.01 l
-0.13 0 l
-0.12 0.01 l
-0.12 0.02 l
-0.12 0.01 l
-0.13 0.02 l
-0.12 0.01 l
-0.12 0.02 l
-0.12 0.02 l
-0.12 0.03 l
-0.12 0.02 l
-0.12 0.03 l
-0.12 0.03 l
-0.12 0.04 l
-0.12 0.03 l
-0.11 0.04 l
-0.12 0.03 l
-0.11 0.04 l
-0.12 0.05 l
-0.11 0.04 l
-0.12 0.05 l
-0.11 0.05 l
-0.11 0.05 l
-0.11 0.05 l
-0.11 0.05 l
-0.11 0.06 l
-0.11 0.05 l
-0.11 0.06 l
-0.10 0.07 l
-0.11 0.06 l
-0.10 0.06 l
-0.10 0.07 l
-0.11 0.07 l
-0.10 0.07 l
-0.09 0.07 l
-0.10 0.07 l
-0.10 0.08 l
-0.09 0.07 l
-0.10 0.08 l
-0.09 0.08 l
-0.09 0.08 l
-0.09 0.09 l
-0.09 0.08 l
-0.08 0.09 l
-0.09 0.09 l
-0.08 0.08 l
-0.08 0.10 l
-0.08 0.09 l
-0.08 0.09 l
-0.08 0.09 l
-0.07 0.10 l
-0.07 0.10 l
-0.08 0.10 l
-0.07 0.09 l
-0.06 0.11 l
-0.07 0.10 l
-0.06 0.10 l
-0.07 0.10 l
-0.06 0.11 l
-0.06 0.10 l
-0.05 0.11 l
-0.06 0.11 l
-0.05 0.11 l
-0.05 0.11 l
-0.05 0.11 l
-0.05 0.11 l
-0.04 0.11 l
-0.04 0.12 l
-0.05 0.11 l
-0.03 0.11 l
-0.04 0.12 l
-0.04 0.11 l
-0.03 0.12 l
-0.03 0.12 l
-0.03 0.11 l
-0.03 0.12 l
-0.02 0.12 l
-0.02 0.12 l
-0.02 0.12 l
-0.02 0.12 l
-0.02 0.12 l
-0.01 0.12 l
-0.01 0.12 l
-0.01 0.12 l
-0.01 0.12 l
-0.01 0.12 l
0 0.12 l
0 0.12 l
0 0.12 l
0 0.12 l
0.01 0.12 l
0.01 0.12 l
0.01 0.12 l
0.01 0.12 l
0.01 0.12 l
0.02 0.12 l
0.02 0.12 l
227.70 347.83 lineto
0.02 0.12 l
0.02 0.12 l
0.03 0.11 l
0.03 0.12 l
0.03 0.12 l
0.03 0.11 l
0.04 0.12 l
0.04 0.12 l
0.03 0.11 l
0.05 0.11 l
0.04 0.12 l
0.04 0.11 l
0.05 0.11 l
0.05 0.11 l
0.05 0.11 l
0.05 0.11 l
0.06 0.11 l
0.05 0.10 l
0.06 0.11 l
0.06 0.11 l
0.07 0.10 l
0.06 0.10 l
0.07 0.10 l
0.06 0.10 l
0.07 0.10 l
0.08 0.10 l
0.07 0.10 l
0.07 0.09 l
0.08 0.10 l
0.08 0.09 l
0.08 0.09 l
0.08 0.09 l
0.08 0.09 l
0.09 0.09 l
0.08 0.09 l
0.09 0.08 l
0.09 0.08 l
0.09 0.09 l
0.09 0.08 l
0.10 0.07 l
0.09 0.08 l
0.10 0.08 l
0.10 0.07 l
0.09 0.07 l
0.10 0.07 l
0.11 0.07 l
0.10 0.07 l
0.10 0.06 l
0.11 0.06 l
0.10 0.07 l
0.11 0.05 l
0.11 0.06 l
0.11 0.06 l
0.11 0.05 l
0.11 0.05 l
0.11 0.05 l
0.11 0.05 l
0.12 0.05 l
0.11 0.04 l
0.12 0.04 l
0.11 0.04 l
0.12 0.04 l
0.11 0.04 l
0.12 0.03 l
0.12 0.04 l
0.12 0.03 l
0.12 0.02 l
0.12 0.03 l
0.12 0.02 l
0.12 0.03 l
0.12 0.02 l
0.12 0.01 l
0.13 0.02 l
0.12 0.01 l
0.12 0.02 l
0.12 0 l
0.13 0.01 l
0.12 0.01 l
0.12 0 l
0.12 0 l
cp p3
np
306.00 551.02 m
0.12 0 l
0.13 0 l
0.12 -0.01 l
0.12 0 l
0.12 -0.01 l
0.13 -0.01 l
0.12 -0.02 l
0.12 -0.01 l
0.12 -0.02 l
0.12 -0.02 l
0.12 -0.02 l
0.12 -0.03 l
0.12 -0.02 l
0.12 -0.03 l
0.12 -0.03 l
0.12 -0.03 l
0.12 -0.04 l
0.12 -0.04 l
0.11 -0.03 l
0.12 -0.04 l
0.11 -0.05 l
0.12 -0.04 l
0.11 -0.05 l
0.12 -0.04 l
0.11 -0.05 l
0.11 -0.06 l
0.11 -0.05 l
0.11 -0.06 l
0.10 -0.05 l
0.11 -0.06 l
0.11 -0.06 l
0.10 -0.07 l
0.11 -0.06 l
0.10 -0.07 l
0.10 -0.07 l
0.10 -0.07 l
0.10 -0.07 l
0.10 -0.07 l
0.09 -0.08 l
0.10 -0.07 l
0.09 -0.08 l
0.09 -0.08 l
0.09 -0.08 l
0.09 -0.09 l
0.09 -0.08 l
0.09 -0.09 l
0.08 -0.09 l
0.08 -0.08 l
0.09 -0.09 l
0.08 -0.10 l
0.07 -0.09 l
0.08 -0.09 l
0.08 -0.10 l
0.07 -0.10 l
0.07 -0.09 l
0.07 -0.10 l
0.07 -0.10 l
0.06 -0.11 l
0.07 -0.10 l
0.06 -0.10 l
0.06 -0.11 l
0.06 -0.10 l
0.06 -0.11 l
0.05 -0.11 l
0.05 -0.11 l
0.05 -0.11 l
0.05 -0.11 l
0.05 -0.11 l
0.05 -0.11 l
0.04 -0.11 l
0.04 -0.12 l
0.04 -0.11 l
0.04 -0.12 l
0.03 -0.11 l
0.03 -0.12 l
0.03 -0.12 l
0.03 -0.11 l
0.03 -0.12 l
0.02 -0.12 l
0.03 -0.12 l
0.02 -0.12 l
0.02 -0.12 l
0.01 -0.12 l
0.02 -0.12 l
0.01 -0.12 l
0.01 -0.12 l
0 -0.12 l
0.01 -0.12 l
0 -0.12 l
0 -0.12 l
0 -0.12 l
0 -0.12 l
-0.01 -0.12 l
0 -0.12 l
-0.01 -0.12 l
-0.01 -0.12 l
-0.02 -0.12 l
-0.01 -0.12 l
-0.02 -0.12 l
312.94 542.91 lineto
-0.03 -0.12 l
-0.02 -0.12 l
-0.03 -0.11 l
-0.03 -0.12 l
-0.03 -0.12 l
-0.03 -0.11 l
-0.03 -0.12 l
-0.04 -0.11 l
-0.04 -0.12 l
-0.04 -0.11 l
-0.04 -0.12 l
-0.05 -0.11 l
-0.05 -0.11 l
-0.05 -0.11 l
-0.05 -0.11 l
-0.05 -0.11 l
-0.05 -0.11 l
-0.06 -0.10 l
-0.06 -0.11 l
-0.06 -0.10 l
-0.06 -0.11 l
-0.07 -0.10 l
-0.06 -0.10 l
-0.07 -0.10 l
-0.07 -0.10 l
-0.07 -0.10 l
-0.07 -0.10 l
-0.08 -0.09 l
-0.08 -0.10 l
-0.07 -0.09 l
-0.08 -0.09 l
-0.09 -0.09 l
-0.08 -0.09 l
-0.08 -0.09 l
-0.09 -0.09 l
-0.09 -0.08 l
-0.09 -0.08 l
-0.09 -0.09 l
-0.09 -0.08 l
-0.09 -0.07 l
-0.10 -0.08 l
-0.09 -0.08 l
-0.10 -0.07 l
-0.10 -0.07 l
-0.10 -0.07 l
-0.10 -0.07 l
-0.10 -0.07 l
-0.11 -0.06 l
-0.10 -0.06 l
-0.11 -0.06 l
-0.11 -0.06 l
-0.10 -0.06 l
-0.11 -0.06 l
-0.11 -0.05 l
-0.11 -0.05 l
-0.11 -0.05 l
-0.12 -0.05 l
-0.11 -0.05 l
-0.12 -0.04 l
-0.11 -0.04 l
-0.12 -0.04 l
-0.11 -0.04 l
-0.12 -0.04 l
-0.12 -0.03 l
-0.12 -0.04 l
-0.12 -0.03 l
-0.12 -0.02 l
-0.12 -0.03 l
-0.12 -0.02 l
-0.12 -0.03 l
-0.12 -0.02 l
-0.12 -0.01 l
-0.12 -0.02 l
-0.12 -0.01 l
-0.13 -0.01 l
-0.12 -0.01 l
-0.12 -0.01 l
-0.12 -0.01 l
-0.13 0 l
-0.12 0 l
-0.12 0 l
-0.13 0 l
-0.12 0.01 l
-0.12 0.01 l
-0.12 0.01 l
-0.13 0.01 l
-0.12 0.01 l
-0.12 0.02 l
-0.12 0.01 l
-0.12 0.02 l
-0.12 0.03 l
-0.12 0.02 l
-0.12 0.03 l
-0.12 0.02 l
-0.12 0.03 l
-0.12 0.04 l
-0.12 0.03 l
-0.12 0.04 l
-0.11 0.04 l
303.59 537.62 lineto
-0.11 0.04 l
-0.12 0.04 l
-0.11 0.05 l
-0.12 0.05 l
-0.11 0.05 l
-0.11 0.05 l
-0.11 0.05 l
-0.11 0.06 l
-0.10 0.06 l
-0.11 0.06 l
-0.11 0.06 l
-0.10 0.06 l
-0.11 0.06 l
-0.10 0.07 l
-0.10 0.07 l
-0.10 0.07 l
-0.10 0.07 l
-0.10 0.07 l
-0.09 0.08 l
-0.10 0.08 l
-0.09 0.07 l
-0.09 0.08 l
-0.09 0.09 l
-0.09 0.08 l
-0.09 0.08 l
-0.09 0.09 l
-0.08 0.09 l
-0.08 0.09 l
-0.09 0.09 l
-0.08 0.09 l
-0.07 0.09 l
-0.08 0.10 l
-0.08 0.09 l
-0.07 0.10 l
-0.07 0.10 l
-0.07 0.10 l
-0.07 0.10 l
-0.06 0.10 l
-0.07 0.10 l
-0.06 0.11 l
-0.06 0.10 l
-0.06 0.11 l
-0.06 0.10 l
-0.05 0.11 l
-0.05 0.11 l
-0.05 0.11 l
-0.05 0.11 l
-0.05 0.11 l
-0.05 0.11 l
-0.04 0.12 l
-0.04 0.11 l
-0.04 0.12 l
-0.04 0.11 l
-0.03 0.12 l
-0.03 0.11 l
-0.03 0.12 l
-0.03 0.12 l
-0.03 0.11 l
-0.02 0.12 l
-0.03 0.12 l
-0.02 0.12 l
-0.02 0.12 l
-0.01 0.12 l
-0.02 0.12 l
-0.01 0.12 l
-0.01 0.12 l
0 0.12 l
-0.01 0.12 l
0 0.12 l
0 0.12 l
0 0.12 l
0 0.12 l
0.01 0.12 l
0 0.12 l
0.01 0.12 l
0.01 0.12 l
0.02 0.12 l
0.01 0.12 l
0.02 0.12 l
0.02 0.12 l
0.03 0.12 l
0.02 0.12 l
0.03 0.12 l
0.03 0.11 l
0.03 0.12 l
0.03 0.12 l
0.03 0.11 l
0.04 0.12 l
0.04 0.11 l
0.04 0.12 l
0.04 0.11 l
0.05 0.11 l
0.05 0.11 l
0.05 0.11 l
0.05 0.11 l
0.05 0.11 l
0.05 0.11 l
0.06 0.11 l
0.06 0.10 l
299.90 547.57 lineto
0.06 0.10 l
0.07 0.10 l
0.06 0.11 l
0.07 0.10 l
0.07 0.10 l
0.07 0.09 l
0.07 0.10 l
0.08 0.10 l
0.08 0.09 l
0.07 0.09 l
0.08 0.10 l
0.09 0.09 l
0.08 0.08 l
0.08 0.09 l
0.09 0.09 l
0.09 0.08 l
0.09 0.09 l
0.09 0.08 l
0.09 0.08 l
0.09 0.08 l
0.10 0.07 l
0.09 0.08 l
0.10 0.07 l
0.10 0.07 l
0.10 0.07 l
0.10 0.07 l
0.10 0.07 l
0.11 0.06 l
0.10 0.07 l
0.11 0.06 l
0.11 0.06 l
0.10 0.05 l
0.11 0.06 l
0.11 0.05 l
0.11 0.06 l
0.11 0.05 l
0.12 0.04 l
0.11 0.05 l
0.12 0.04 l
0.11 0.05 l
0.12 0.04 l
0.11 0.03 l
0.12 0.04 l
0.12 0.04 l
0.12 0.03 l
0.12 0.03 l
0.12 0.03 l
0.12 0.02 l
0.12 0.03 l
0.12 0.02 l
0.12 0.02 l
0.12 0.02 l
0.12 0.01 l
0.12 0.02 l
0.13 0.01 l
0.12 0.01 l
0.12 0 l
0.12 0.01 l
0.13 0 l
0.12 0 l
0 0 l
o
np
306.00 452.28 m
0.12 0 l
0.13 0 l
0.12 -0.01 l
0.12 0 l
0.12 -0.01 l
0.13 -0.02 l
0.12 -0.01 l
0.12 -0.02 l
0.12 -0.01 l
0.12 -0.02 l
0.12 -0.02 l
0.12 -0.03 l
0.12 -0.02 l
0.12 -0.03 l
0.12 -0.03 l
0.12 -0.04 l
0.12 -0.03 l
0.12 -0.04 l
0.11 -0.03 l
0.12 -0.04 l
0.11 -0.05 l
0.12 -0.04 l
0.11 -0.05 l
0.12 -0.05 l
0.11 -0.05 l
0.11 -0.05 l
0.11 -0.05 l
0.11 -0.06 l
0.10 -0.05 l
0.11 -0.06 l
0.11 -0.07 l
0.10 -0.06 l
0.11 -0.06 l
0.10 -0.07 l
0.10 -0.07 l
0.10 -0.07 l
0.10 -0.07 l
0.10 -0.07 l
0.09 -0.08 l
0.10 -0.07 l
0.09 -0.08 l
0.09 -0.08 l
0.09 -0.08 l
0.09 -0.09 l
0.09 -0.08 l
0.09 -0.09 l
0.08 -0.09 l
0.08 -0.08 l
0.09 -0.10 l
0.08 -0.09 l
0.07 -0.09 l
0.08 -0.09 l
0.08 -0.10 l
0.07 -0.10 l
0.07 -0.10 l
0.07 -0.09 l
0.07 -0.11 l
0.06 -0.10 l
0.07 -0.10 l
0.06 -0.10 l
0.06 -0.11 l
0.06 -0.10 l
0.06 -0.11 l
0.05 -0.11 l
0.05 -0.11 l
0.05 -0.11 l
0.05 -0.11 l
0.05 -0.11 l
0.05 -0.11 l
0.04 -0.12 l
0.04 -0.11 l
0.04 -0.11 l
0.04 -0.12 l
0.03 -0.11 l
0.03 -0.12 l
0.03 -0.12 l
0.03 -0.11 l
0.03 -0.12 l
0.02 -0.12 l
0.03 -0.12 l
0.02 -0.12 l
0.02 -0.12 l
0.01 -0.12 l
0.02 -0.12 l
0.01 -0.12 l
0.01 -0.12 l
0 -0.12 l
0.01 -0.12 l
0 -0.12 l
0 -0.12 l
0 -0.12 l
0 -0.12 l
-0.01 -0.12 l
0 -0.12 l
-0.01 -0.12 l
-0.01 -0.12 l
-0.02 -0.12 l
-0.01 -0.12 l
-0.02 -0.12 l
312.94 444.17 lineto
-0.03 -0.12 l
-0.02 -0.12 l
-0.03 -0.11 l
-0.03 -0.12 l
-0.03 -0.12 l
-0.03 -0.11 l
-0.03 -0.12 l
-0.04 -0.12 l
-0.04 -0.11 l
-0.04 -0.11 l
-0.04 -0.12 l
-0.05 -0.11 l
-0.05 -0.11 l
-0.05 -0.11 l
-0.05 -0.11 l
-0.05 -0.11 l
-0.05 -0.11 l
-0.06 -0.10 l
-0.06 -0.11 l
-0.06 -0.11 l
-0.06 -0.10 l
-0.07 -0.10 l
-0.06 -0.10 l
-0.07 -0.10 l
-0.07 -0.10 l
-0.07 -0.10 l
-0.07 -0.10 l
-0.08 -0.09 l
-0.08 -0.10 l
-0.07 -0.09 l
-0.08 -0.09 l
-0.09 -0.09 l
-0.08 -0.09 l
-0.08 -0.09 l
-0.09 -0.09 l
-0.09 -0.08 l
-0.09 -0.08 l
-0.09 -0.09 l
-0.09 -0.08 l
-0.09 -0.07 l
-0.10 -0.08 l
-0.09 -0.08 l
-0.10 -0.07 l
-0.10 -0.07 l
-0.10 -0.07 l
-0.10 -0.07 l
-0.10 -0.07 l
-0.11 -0.06 l
-0.10 -0.06 l
-0.11 -0.07 l
-0.11 -0.05 l
-0.10 -0.06 l
-0.11 -0.06 l
-0.11 -0.05 l
-0.11 -0.05 l
-0.11 -0.05 l
-0.12 -0.05 l
-0.11 -0.05 l
-0.12 -0.04 l
-0.11 -0.04 l
-0.12 -0.04 l
-0.11 -0.04 l
-0.12 -0.04 l
-0.12 -0.03 l
-0.12 -0.04 l
-0.12 -0.03 l
-0.12 -0.02 l
-0.12 -0.03 l
-0.12 -0.02 l
-0.12 -0.03 l
-0.12 -0.02 l
-0.12 -0.01 l
-0.12 -0.02 l
-0.12 -0.01 l
-0.13 -0.02 l
-0.12 0 l
-0.12 -0.01 l
-0.12 -0.01 l
-0.13 0 l
-0.12 0 l
-0.12 0 l
-0.13 0 l
-0.12 0.01 l
-0.12 0.01 l
-0.12 0 l
-0.13 0.02 l
-0.12 0.01 l
-0.12 0.02 l
-0.12 0.01 l
-0.12 0.02 l
-0.12 0.03 l
-0.12 0.02 l
-0.12 0.03 l
-0.12 0.02 l
-0.12 0.03 l
-0.12 0.04 l
-0.12 0.03 l
-0.12 0.04 l
-0.11 0.04 l
303.59 438.88 lineto
-0.11 0.04 l
-0.12 0.04 l
-0.11 0.05 l
-0.12 0.05 l
-0.11 0.05 l
-0.11 0.05 l
-0.11 0.05 l
-0.11 0.06 l
-0.10 0.06 l
-0.11 0.05 l
-0.11 0.07 l
-0.10 0.06 l
-0.11 0.06 l
-0.10 0.07 l
-0.10 0.07 l
-0.10 0.07 l
-0.10 0.07 l
-0.10 0.07 l
-0.09 0.08 l
-0.10 0.08 l
-0.09 0.07 l
-0.09 0.08 l
-0.09 0.09 l
-0.09 0.08 l
-0.09 0.08 l
-0.09 0.09 l
-0.08 0.09 l
-0.08 0.09 l
-0.09 0.09 l
-0.08 0.09 l
-0.07 0.09 l
-0.08 0.10 l
-0.08 0.09 l
-0.07 0.10 l
-0.07 0.10 l
-0.07 0.10 l
-0.07 0.10 l
-0.06 0.10 l
-0.07 0.10 l
-0.06 0.10 l
-0.06 0.11 l
-0.06 0.11 l
-0.06 0.10 l
-0.05 0.11 l
-0.05 0.11 l
-0.05 0.11 l
-0.05 0.11 l
-0.05 0.11 l
-0.05 0.11 l
-0.04 0.12 l
-0.04 0.11 l
-0.04 0.11 l
-0.04 0.12 l
-0.03 0.12 l
-0.03 0.11 l
-0.03 0.12 l
-0.03 0.12 l
-0.03 0.11 l
-0.02 0.12 l
-0.03 0.12 l
-0.02 0.12 l
-0.02 0.12 l
-0.01 0.12 l
-0.02 0.12 l
-0.01 0.12 l
-0.01 0.12 l
0 0.12 l
-0.01 0.12 l
0 0.12 l
0 0.12 l
0 0.12 l
0 0.12 l
0.01 0.12 l
0 0.12 l
0.01 0.12 l
0.01 0.12 l
0.02 0.12 l
0.01 0.12 l
0.02 0.12 l
0.02 0.12 l
0.03 0.12 l
0.02 0.12 l
0.03 0.12 l
0.03 0.11 l
0.03 0.12 l
0.03 0.12 l
0.03 0.11 l
0.04 0.12 l
0.04 0.11 l
0.04 0.11 l
0.04 0.12 l
0.05 0.11 l
0.05 0.11 l
0.05 0.11 l
0.05 0.11 l
0.05 0.11 l
0.05 0.11 l
0.06 0.11 l
0.06 0.10 l
299.90 448.83 lineto
0.06 0.10 l
0.07 0.10 l
0.06 0.10 l
0.07 0.11 l
0.07 0.09 l
0.07 0.10 l
0.07 0.10 l
0.08 0.10 l
0.08 0.09 l
0.07 0.09 l
0.08 0.09 l
0.09 0.10 l
0.08 0.08 l
0.08 0.09 l
0.09 0.09 l
0.09 0.08 l
0.09 0.09 l
0.09 0.08 l
0.09 0.08 l
0.09 0.08 l
0.10 0.07 l
0.09 0.08 l
0.10 0.07 l
0.10 0.07 l
0.10 0.07 l
0.10 0.07 l
0.10 0.07 l
0.11 0.06 l
0.10 0.06 l
0.11 0.07 l
0.11 0.06 l
0.10 0.05 l
0.11 0.06 l
0.11 0.05 l
0.11 0.05 l
0.11 0.05 l
0.12 0.05 l
0.11 0.05 l
0.12 0.04 l
0.11 0.05 l
0.12 0.04 l
0.11 0.03 l
0.12 0.04 l
0.12 0.03 l
0.12 0.04 l
0.12 0.03 l
0.12 0.03 l
0.12 0.02 l
0.12 0.03 l
0.12 0.02 l
0.12 0.02 l
0.12 0.01 l
0.12 0.02 l
0.12 0.01 l
0.13 0.02 l
0.12 0.01 l
0.12 0 l
0.12 0.01 l
0.13 0 l
0.12 0 l
0 0 l
o
np
306.00 450.48 m
0.66 1.77 l
o
np
306.00 446.37 m
2.08 5.60 l
o
np
306.00 442.25 m
3.40 9.17 l
o
np
306.12 438.46 m
4.50 12.13 l
o
np
307.72 438.67 m
3.99 10.75 l
o
np
309.51 439.38 m
3.11 8.36 l
o
np
311.82 441.47 m
1.19 3.22 l
o
np
306.00 452.28 m
0.12 0 l
0.13 0 l
0.12 -0.01 l
0.12 0 l
0.12 -0.01 l
0.13 -0.02 l
0.12 -0.01 l
0.12 -0.02 l
0.12 -0.01 l
0.12 -0.02 l
0.12 -0.02 l
0.12 -0.03 l
0.12 -0.02 l
0.12 -0.03 l
0.12 -0.03 l
0.12 -0.04 l
0.12 -0.03 l
0.12 -0.04 l
0.11 -0.03 l
0.12 -0.04 l
0.11 -0.05 l
0.12 -0.04 l
0.11 -0.05 l
0.12 -0.05 l
0.11 -0.05 l
0.11 -0.05 l
0.11 -0.05 l
0.11 -0.06 l
0.10 -0.05 l
0.11 -0.06 l
0.11 -0.07 l
0.10 -0.06 l
0.11 -0.06 l
0.10 -0.07 l
0.10 -0.07 l
0.10 -0.07 l
0.10 -0.07 l
0.10 -0.07 l
0.09 -0.08 l
0.10 -0.07 l
0.09 -0.08 l
0.09 -0.08 l
0.09 -0.08 l
0.09 -0.09 l
0.09 -0.08 l
0.09 -0.09 l
0.08 -0.09 l
0.08 -0.08 l
0.09 -0.10 l
0.08 -0.09 l
0.07 -0.09 l
0.08 -0.09 l
0.08 -0.10 l
0.07 -0.10 l
0.07 -0.10 l
0.07 -0.09 l
0.07 -0.11 l
0.06 -0.10 l
0.07 -0.10 l
0.06 -0.10 l
0.06 -0.11 l
0.06 -0.10 l
0.06 -0.11 l
0.05 -0.11 l
0.05 -0.11 l
0.05 -0.11 l
0.05 -0.11 l
0.05 -0.11 l
0.05 -0.11 l
0.04 -0.12 l
0.04 -0.11 l
0.04 -0.11 l
0.04 -0.12 l
0.03 -0.11 l
0.03 -0.12 l
0.03 -0.12 l
0.03 -0.11 l
0.03 -0.12 l
0.02 -0.12 l
0.03 -0.12 l
0.02 -0.12 l
0.02 -0.12 l
0.01 -0.12 l
0.02 -0.12 l
0.01 -0.12 l
0.01 -0.12 l
0 -0.12 l
0.01 -0.12 l
0 -0.12 l
0 -0.12 l
0 -0.12 l
0 -0.12 l
-0.01 -0.12 l
0 -0.12 l
-0.01 -0.12 l
-0.01 -0.12 l
-0.02 -0.12 l
-0.01 -0.12 l
-0.02 -0.12 l
312.94 444.17 lineto
-0.03 -0.12 l
-0.02 -0.12 l
-0.03 -0.11 l
-0.03 -0.12 l
-0.03 -0.12 l
-0.03 -0.11 l
-0.03 -0.12 l
-0.04 -0.12 l
-0.04 -0.11 l
-0.04 -0.11 l
-0.04 -0.12 l
-0.05 -0.11 l
-0.05 -0.11 l
-0.05 -0.11 l
-0.05 -0.11 l
-0.05 -0.11 l
-0.05 -0.11 l
-0.06 -0.10 l
-0.06 -0.11 l
-0.06 -0.11 l
-0.06 -0.10 l
-0.07 -0.10 l
-0.06 -0.10 l
-0.07 -0.10 l
-0.07 -0.10 l
-0.07 -0.10 l
-0.07 -0.10 l
-0.08 -0.09 l
-0.08 -0.10 l
-0.07 -0.09 l
-0.08 -0.09 l
-0.09 -0.09 l
-0.08 -0.09 l
-0.08 -0.09 l
-0.09 -0.09 l
-0.09 -0.08 l
-0.09 -0.08 l
-0.09 -0.09 l
-0.09 -0.08 l
-0.09 -0.07 l
-0.10 -0.08 l
-0.09 -0.08 l
-0.10 -0.07 l
-0.10 -0.07 l
-0.10 -0.07 l
-0.10 -0.07 l
-0.10 -0.07 l
-0.11 -0.06 l
-0.10 -0.06 l
-0.11 -0.07 l
-0.11 -0.05 l
-0.10 -0.06 l
-0.11 -0.06 l
-0.11 -0.05 l
-0.11 -0.05 l
-0.11 -0.05 l
-0.12 -0.05 l
-0.11 -0.05 l
-0.12 -0.04 l
-0.11 -0.04 l
-0.12 -0.04 l
-0.11 -0.04 l
-0.12 -0.04 l
-0.12 -0.03 l
-0.12 -0.04 l
-0.12 -0.03 l
-0.12 -0.02 l
-0.12 -0.03 l
-0.12 -0.02 l
-0.12 -0.03 l
-0.12 -0.02 l
-0.12 -0.01 l
-0.12 -0.02 l
-0.12 -0.01 l
-0.13 -0.02 l
-0.12 0 l
-0.12 -0.01 l
-0.12 -0.01 l
-0.13 0 l
-0.12 0 l
0 13.82 l
o
np
306.00 438.46 m
-0.12 0 l
-0.13 0 l
-0.12 0.01 l
-0.12 0.01 l
-0.12 0 l
-0.13 0.02 l
-0.12 0.01 l
-0.12 0.02 l
-0.12 0.01 l
-0.12 0.02 l
-0.12 0.03 l
-0.12 0.02 l
-0.12 0.03 l
-0.12 0.02 l
-0.12 0.03 l
-0.12 0.04 l
-0.12 0.03 l
-0.12 0.04 l
-0.11 0.04 l
-0.12 0.04 l
-0.11 0.04 l
-0.12 0.04 l
-0.11 0.05 l
-0.12 0.05 l
-0.11 0.05 l
-0.11 0.05 l
-0.11 0.05 l
-0.11 0.06 l
-0.10 0.06 l
-0.11 0.05 l
-0.11 0.07 l
-0.10 0.06 l
-0.11 0.06 l
-0.10 0.07 l
-0.10 0.07 l
-0.10 0.07 l
-0.10 0.07 l
-0.10 0.07 l
-0.09 0.08 l
-0.10 0.08 l
-0.09 0.07 l
-0.09 0.08 l
-0.09 0.09 l
-0.09 0.08 l
-0.09 0.08 l
-0.09 0.09 l
-0.08 0.09 l
-0.08 0.09 l
-0.09 0.09 l
-0.08 0.09 l
-0.07 0.09 l
-0.08 0.10 l
-0.08 0.09 l
-0.07 0.10 l
-0.07 0.10 l
-0.07 0.10 l
-0.07 0.10 l
-0.06 0.10 l
-0.07 0.10 l
-0.06 0.10 l
-0.06 0.11 l
-0.06 0.11 l
-0.06 0.10 l
-0.05 0.11 l
-0.05 0.11 l
-0.05 0.11 l
-0.05 0.11 l
-0.05 0.11 l
-0.05 0.11 l
-0.04 0.12 l
-0.04 0.11 l
-0.04 0.11 l
-0.04 0.12 l
-0.03 0.12 l
-0.03 0.11 l
-0.03 0.12 l
-0.03 0.12 l
-0.03 0.11 l
-0.02 0.12 l
-0.03 0.12 l
-0.02 0.12 l
-0.02 0.12 l
-0.01 0.12 l
-0.02 0.12 l
-0.01 0.12 l
-0.01 0.12 l
0 0.12 l
-0.01 0.12 l
0 0.12 l
0 0.12 l
0 0.12 l
0 0.12 l
0.01 0.12 l
0 0.12 l
0.01 0.12 l
0.01 0.12 l
0.02 0.12 l
0.01 0.12 l
0.02 0.12 l
299.06 446.57 lineto
0.03 0.12 l
0.02 0.12 l
0.03 0.12 l
0.03 0.11 l
0.03 0.12 l
0.03 0.12 l
0.03 0.11 l
0.04 0.12 l
0.04 0.11 l
0.04 0.11 l
0.04 0.12 l
0.05 0.11 l
0.05 0.11 l
0.05 0.11 l
0.05 0.11 l
0.05 0.11 l
0.05 0.11 l
0.06 0.11 l
0.06 0.10 l
0.06 0.11 l
0.06 0.10 l
0.07 0.10 l
0.06 0.10 l
0.07 0.11 l
0.07 0.09 l
0.07 0.10 l
0.07 0.10 l
0.08 0.10 l
0.08 0.09 l
0.07 0.09 l
0.08 0.09 l
0.09 0.10 l
0.08 0.08 l
0.08 0.09 l
0.09 0.09 l
0.09 0.08 l
0.09 0.09 l
0.09 0.08 l
0.09 0.08 l
0.09 0.08 l
0.10 0.07 l
0.09 0.08 l
0.10 0.07 l
0.10 0.07 l
0.10 0.07 l
0.10 0.07 l
0.10 0.07 l
0.11 0.06 l
0.10 0.06 l
0.11 0.07 l
0.11 0.06 l
0.10 0.05 l
0.11 0.06 l
0.11 0.05 l
0.11 0.05 l
0.11 0.05 l
0.12 0.05 l
0.11 0.05 l
0.12 0.04 l
0.11 0.05 l
0.12 0.04 l
0.11 0.03 l
0.12 0.04 l
0.12 0.03 l
0.12 0.04 l
0.12 0.03 l
0.12 0.03 l
0.12 0.02 l
0.12 0.03 l
0.12 0.02 l
0.12 0.02 l
0.12 0.01 l
0.12 0.02 l
0.12 0.01 l
0.13 0.02 l
0.12 0.01 l
0.12 0 l
0.12 0.01 l
0.13 0 l
0.12 0 l
0 -13.82 l
o
np
306.00 254.80 m
0.12 0 l
0.13 0 l
0.12 -0.01 l
0.12 -0.01 l
0.12 -0.01 l
0.13 -0.01 l
0.12 -0.01 l
0.12 -0.02 l
0.12 -0.01 l
0.12 -0.02 l
0.12 -0.03 l
0.12 -0.02 l
0.12 -0.03 l
0.12 -0.02 l
0.12 -0.03 l
0.12 -0.04 l
0.12 -0.03 l
0.12 -0.04 l
0.11 -0.04 l
0.12 -0.04 l
0.11 -0.04 l
0.12 -0.04 l
0.11 -0.05 l
0.12 -0.05 l
0.11 -0.05 l
0.11 -0.05 l
0.11 -0.05 l
0.11 -0.06 l
0.10 -0.06 l
0.11 -0.06 l
0.11 -0.06 l
0.10 -0.06 l
0.11 -0.06 l
0.10 -0.07 l
0.10 -0.07 l
0.10 -0.07 l
0.10 -0.07 l
0.10 -0.07 l
0.09 -0.08 l
0.10 -0.08 l
0.09 -0.07 l
0.09 -0.08 l
0.09 -0.09 l
0.09 -0.08 l
0.09 -0.08 l
0.09 -0.09 l
0.08 -0.09 l
0.08 -0.09 l
0.09 -0.09 l
0.08 -0.09 l
0.07 -0.09 l
0.08 -0.10 l
0.08 -0.09 l
0.07 -0.10 l
0.07 -0.10 l
0.07 -0.10 l
0.07 -0.10 l
0.06 -0.10 l
0.07 -0.10 l
0.06 -0.11 l
0.06 -0.10 l
0.06 -0.11 l
0.06 -0.10 l
0.05 -0.11 l
0.05 -0.11 l
0.05 -0.11 l
0.05 -0.11 l
0.05 -0.11 l
0.05 -0.11 l
0.04 -0.12 l
0.04 -0.11 l
0.04 -0.12 l
0.04 -0.11 l
0.03 -0.12 l
0.03 -0.11 l
0.03 -0.12 l
0.03 -0.12 l
0.03 -0.11 l
0.02 -0.12 l
0.03 -0.12 l
0.02 -0.12 l
0.02 -0.12 l
0.01 -0.12 l
0.02 -0.12 l
0.01 -0.12 l
0.01 -0.12 l
0 -0.12 l
0.01 -0.12 l
0 -0.12 l
0 -0.12 l
0 -0.12 l
0 -0.12 l
-0.01 -0.12 l
0 -0.12 l
-0.01 -0.12 l
-0.01 -0.12 l
-0.02 -0.12 l
-0.01 -0.12 l
-0.02 -0.12 l
312.94 246.69 lineto
-0.03 -0.12 l
-0.02 -0.12 l
-0.03 -0.12 l
-0.03 -0.11 l
-0.03 -0.12 l
-0.03 -0.12 l
-0.03 -0.11 l
-0.04 -0.12 l
-0.04 -0.11 l
-0.04 -0.12 l
-0.04 -0.11 l
-0.05 -0.11 l
-0.05 -0.11 l
-0.05 -0.11 l
-0.05 -0.11 l
-0.05 -0.11 l
-0.05 -0.11 l
-0.06 -0.11 l
-0.06 -0.10 l
-0.06 -0.11 l
-0.06 -0.10 l
-0.07 -0.10 l
-0.06 -0.11 l
-0.07 -0.10 l
-0.07 -0.10 l
-0.07 -0.09 l
-0.07 -0.10 l
-0.08 -0.10 l
-0.08 -0.09 l
-0.07 -0.09 l
-0.08 -0.10 l
-0.09 -0.09 l
-0.08 -0.08 l
-0.08 -0.09 l
-0.09 -0.09 l
-0.09 -0.08 l
-0.09 -0.09 l
-0.09 -0.08 l
-0.09 -0.08 l
-0.09 -0.08 l
-0.10 -0.07 l
-0.09 -0.08 l
-0.10 -0.07 l
-0.10 -0.07 l
-0.10 -0.07 l
-0.10 -0.07 l
-0.10 -0.07 l
-0.11 -0.06 l
-0.10 -0.07 l
-0.11 -0.06 l
-0.11 -0.06 l
-0.10 -0.05 l
-0.11 -0.06 l
-0.11 -0.05 l
-0.11 -0.06 l
-0.11 -0.05 l
-0.12 -0.04 l
-0.11 -0.05 l
-0.12 -0.04 l
-0.11 -0.05 l
-0.12 -0.04 l
-0.11 -0.03 l
-0.12 -0.04 l
-0.12 -0.04 l
-0.12 -0.03 l
-0.12 -0.03 l
-0.12 -0.03 l
-0.12 -0.02 l
-0.12 -0.03 l
-0.12 -0.02 l
-0.12 -0.02 l
-0.12 -0.02 l
-0.12 -0.01 l
-0.12 -0.02 l
-0.13 -0.01 l
-0.12 -0.01 l
-0.12 0 l
-0.12 -0.01 l
-0.13 0 l
-0.12 0 l
-0.12 0 l
-0.13 0 l
-0.12 0.01 l
-0.12 0 l
-0.12 0.01 l
-0.13 0.01 l
-0.12 0.02 l
-0.12 0.01 l
-0.12 0.02 l
-0.12 0.02 l
-0.12 0.02 l
-0.12 0.03 l
-0.12 0.02 l
-0.12 0.03 l
-0.12 0.03 l
-0.12 0.03 l
-0.12 0.04 l
-0.12 0.04 l
-0.11 0.03 l
303.59 241.39 lineto
-0.11 0.05 l
-0.12 0.04 l
-0.11 0.05 l
-0.12 0.04 l
-0.11 0.05 l
-0.11 0.06 l
-0.11 0.05 l
-0.11 0.06 l
-0.10 0.05 l
-0.11 0.06 l
-0.11 0.06 l
-0.10 0.07 l
-0.11 0.06 l
-0.10 0.07 l
-0.10 0.07 l
-0.10 0.07 l
-0.10 0.07 l
-0.10 0.07 l
-0.09 0.08 l
-0.10 0.07 l
-0.09 0.08 l
-0.09 0.08 l
-0.09 0.08 l
-0.09 0.09 l
-0.09 0.08 l
-0.09 0.09 l
-0.08 0.09 l
-0.08 0.08 l
-0.09 0.09 l
-0.08 0.10 l
-0.07 0.09 l
-0.08 0.09 l
-0.08 0.10 l
-0.07 0.10 l
-0.07 0.09 l
-0.07 0.10 l
-0.07 0.10 l
-0.06 0.11 l
-0.07 0.10 l
-0.06 0.10 l
-0.06 0.11 l
-0.06 0.10 l
-0.06 0.11 l
-0.05 0.11 l
-0.05 0.11 l
-0.05 0.11 l
-0.05 0.11 l
-0.05 0.11 l
-0.05 0.11 l
-0.04 0.11 l
-0.04 0.12 l
-0.04 0.11 l
-0.04 0.12 l
-0.03 0.11 l
-0.03 0.12 l
-0.03 0.12 l
-0.03 0.11 l
-0.03 0.12 l
-0.02 0.12 l
-0.03 0.12 l
-0.02 0.12 l
-0.02 0.12 l
-0.01 0.12 l
-0.02 0.12 l
-0.01 0.12 l
-0.01 0.12 l
0 0.12 l
-0.01 0.12 l
0 0.12 l
0 0.12 l
0 0.12 l
0 0.12 l
0.01 0.12 l
0 0.12 l
0.01 0.12 l
0.01 0.12 l
0.02 0.12 l
0.01 0.12 l
0.02 0.12 l
0.02 0.12 l
0.03 0.12 l
0.02 0.12 l
0.03 0.11 l
0.03 0.12 l
0.03 0.12 l
0.03 0.11 l
0.03 0.12 l
0.04 0.11 l
0.04 0.12 l
0.04 0.11 l
0.04 0.12 l
0.05 0.11 l
0.05 0.11 l
0.05 0.11 l
0.05 0.11 l
0.05 0.11 l
0.05 0.11 l
0.06 0.10 l
0.06 0.11 l
299.90 251.34 lineto
0.06 0.11 l
0.07 0.10 l
0.06 0.10 l
0.07 0.10 l
0.07 0.10 l
0.07 0.10 l
0.07 0.10 l
0.08 0.09 l
0.08 0.10 l
0.07 0.09 l
0.08 0.09 l
0.09 0.09 l
0.08 0.09 l
0.08 0.09 l
0.09 0.09 l
0.09 0.08 l
0.09 0.08 l
0.09 0.09 l
0.09 0.08 l
0.09 0.07 l
0.10 0.08 l
0.09 0.08 l
0.10 0.07 l
0.10 0.07 l
0.10 0.07 l
0.10 0.07 l
0.10 0.07 l
0.11 0.06 l
0.10 0.06 l
0.11 0.06 l
0.11 0.06 l
0.10 0.06 l
0.11 0.06 l
0.11 0.05 l
0.11 0.05 l
0.11 0.05 l
0.12 0.05 l
0.11 0.05 l
0.12 0.04 l
0.11 0.04 l
0.12 0.04 l
0.11 0.04 l
0.12 0.04 l
0.12 0.03 l
0.12 0.04 l
0.12 0.03 l
0.12 0.02 l
0.12 0.03 l
0.12 0.02 l
0.12 0.03 l
0.12 0.02 l
0.12 0.01 l
0.12 0.02 l
0.12 0.01 l
0.13 0.01 l
0.12 0.01 l
0.12 0.01 l
0.12 0.01 l
0.13 0 l
0.12 0 l
0 0 l
o
np
377.37 353.54 m
0.12 0 l
0.12 0 l
0.12 -0.01 l
0.13 -0.01 l
0.12 0 l
0.12 -0.02 l
0.12 -0.01 l
0.13 -0.02 l
0.12 -0.01 l
0.12 -0.02 l
0.12 -0.03 l
0.12 -0.02 l
0.12 -0.03 l
0.12 -0.02 l
0.12 -0.03 l
0.12 -0.04 l
0.12 -0.03 l
0.11 -0.04 l
0.12 -0.04 l
0.11 -0.04 l
0.12 -0.04 l
0.11 -0.04 l
0.12 -0.05 l
0.11 -0.05 l
0.11 -0.05 l
0.11 -0.05 l
0.11 -0.05 l
0.11 -0.06 l
0.11 -0.06 l
0.11 -0.05 l
0.10 -0.07 l
0.11 -0.06 l
0.10 -0.06 l
0.10 -0.07 l
0.11 -0.07 l
0.10 -0.07 l
0.09 -0.07 l
0.10 -0.07 l
0.10 -0.08 l
0.09 -0.08 l
0.10 -0.07 l
0.09 -0.08 l
0.09 -0.09 l
0.09 -0.08 l
0.09 -0.08 l
0.08 -0.09 l
0.09 -0.09 l
0.08 -0.09 l
0.08 -0.09 l
0.08 -0.09 l
0.08 -0.09 l
0.08 -0.10 l
0.07 -0.09 l
0.07 -0.10 l
0.08 -0.10 l
0.07 -0.10 l
0.06 -0.10 l
0.07 -0.10 l
0.06 -0.10 l
0.07 -0.10 l
0.06 -0.11 l
0.06 -0.11 l
0.05 -0.10 l
0.06 -0.11 l
0.05 -0.11 l
0.05 -0.11 l
0.05 -0.11 l
0.05 -0.11 l
0.04 -0.11 l
0.04 -0.12 l
0.05 -0.11 l
0.03 -0.11 l
0.04 -0.12 l
0.04 -0.12 l
0.03 -0.11 l
0.03 -0.12 l
0.03 -0.12 l
0.03 -0.11 l
0.02 -0.12 l
0.02 -0.12 l
0.02 -0.12 l
0.02 -0.12 l
0.02 -0.12 l
0.01 -0.12 l
0.01 -0.12 l
0.01 -0.12 l
0.01 -0.12 l
0.01 -0.12 l
0 -0.12 l
0 -0.12 l
0 -0.12 l
0 -0.12 l
-0.01 -0.12 l
-0.01 -0.12 l
-0.01 -0.12 l
-0.01 -0.12 l
-0.01 -0.12 l
-0.02 -0.12 l
-0.02 -0.12 l
384.30 345.43 lineto
-0.02 -0.12 l
-0.02 -0.12 l
-0.03 -0.12 l
-0.03 -0.11 l
-0.03 -0.12 l
-0.03 -0.12 l
-0.04 -0.11 l
-0.04 -0.12 l
-0.03 -0.11 l
-0.05 -0.11 l
-0.04 -0.12 l
-0.04 -0.11 l
-0.05 -0.11 l
-0.05 -0.11 l
-0.05 -0.11 l
-0.05 -0.11 l
-0.06 -0.11 l
-0.05 -0.11 l
-0.06 -0.10 l
-0.06 -0.11 l
-0.07 -0.10 l
-0.06 -0.10 l
-0.07 -0.10 l
-0.06 -0.11 l
-0.07 -0.09 l
-0.08 -0.10 l
-0.07 -0.10 l
-0.07 -0.10 l
-0.08 -0.09 l
-0.08 -0.09 l
-0.08 -0.09 l
-0.08 -0.10 l
-0.08 -0.08 l
-0.09 -0.09 l
-0.08 -0.09 l
-0.09 -0.08 l
-0.09 -0.09 l
-0.09 -0.08 l
-0.09 -0.08 l
-0.10 -0.08 l
-0.09 -0.07 l
-0.10 -0.08 l
-0.10 -0.07 l
-0.09 -0.07 l
-0.10 -0.07 l
-0.11 -0.07 l
-0.10 -0.07 l
-0.10 -0.06 l
-0.11 -0.06 l
-0.10 -0.07 l
-0.11 -0.06 l
-0.11 -0.05 l
-0.11 -0.06 l
-0.11 -0.05 l
-0.11 -0.05 l
-0.11 -0.05 l
-0.11 -0.05 l
-0.12 -0.05 l
-0.11 -0.04 l
-0.12 -0.05 l
-0.11 -0.04 l
-0.12 -0.03 l
-0.11 -0.04 l
-0.12 -0.03 l
-0.12 -0.04 l
-0.12 -0.03 l
-0.12 -0.03 l
-0.12 -0.02 l
-0.12 -0.03 l
-0.12 -0.02 l
-0.12 -0.02 l
-0.12 -0.01 l
-0.13 -0.02 l
-0.12 -0.01 l
-0.12 -0.02 l
-0.12 -0.01 l
-0.13 0 l
-0.12 -0.01 l
-0.12 0 l
-0.12 0 l
-0.13 0 l
-0.12 0 l
-0.12 0.01 l
-0.13 0 l
-0.12 0.01 l
-0.12 0.02 l
-0.12 0.01 l
-0.12 0.02 l
-0.13 0.01 l
-0.12 0.02 l
-0.12 0.02 l
-0.12 0.03 l
-0.12 0.02 l
-0.12 0.03 l
-0.12 0.03 l
-0.12 0.04 l
-0.11 0.03 l
-0.12 0.04 l
-0.12 0.03 l
374.96 340.13 lineto
-0.12 0.05 l
-0.11 0.04 l
-0.12 0.05 l
-0.11 0.05 l
-0.11 0.05 l
-0.11 0.05 l
-0.11 0.05 l
-0.11 0.06 l
-0.11 0.05 l
-0.11 0.06 l
-0.10 0.07 l
-0.11 0.06 l
-0.10 0.06 l
-0.10 0.07 l
-0.10 0.07 l
-0.10 0.07 l
-0.10 0.07 l
-0.10 0.07 l
-0.10 0.08 l
-0.09 0.07 l
-0.10 0.08 l
-0.09 0.08 l
-0.09 0.08 l
-0.09 0.09 l
-0.09 0.08 l
-0.08 0.09 l
-0.09 0.09 l
-0.08 0.08 l
-0.08 0.10 l
-0.08 0.09 l
-0.08 0.09 l
-0.07 0.09 l
-0.08 0.10 l
-0.07 0.10 l
-0.07 0.10 l
-0.07 0.09 l
-0.07 0.11 l
-0.07 0.10 l
-0.06 0.10 l
-0.06 0.10 l
-0.06 0.11 l
-0.06 0.10 l
-0.06 0.11 l
-0.06 0.11 l
-0.05 0.11 l
-0.05 0.11 l
-0.05 0.11 l
-0.05 0.11 l
-0.04 0.11 l
-0.04 0.12 l
-0.04 0.11 l
-0.04 0.11 l
-0.04 0.12 l
-0.04 0.11 l
-0.03 0.12 l
-0.03 0.12 l
-0.03 0.11 l
-0.02 0.12 l
-0.03 0.12 l
-0.02 0.12 l
-0.02 0.12 l
-0.02 0.12 l
-0.02 0.12 l
-0.01 0.12 l
-0.01 0.12 l
-0.01 0.12 l
-0.01 0.12 l
0 0.12 l
-0.01 0.12 l
0 0.12 l
0 0.12 l
0.01 0.12 l
0 0.12 l
0.01 0.12 l
0.01 0.12 l
0.01 0.12 l
0.01 0.12 l
0.02 0.12 l
0.02 0.12 l
0.02 0.12 l
0.02 0.12 l
0.03 0.12 l
0.02 0.11 l
0.03 0.12 l
0.03 0.12 l
0.03 0.11 l
0.04 0.12 l
0.04 0.12 l
0.04 0.11 l
0.04 0.11 l
0.04 0.12 l
0.04 0.11 l
0.05 0.11 l
0.05 0.11 l
0.05 0.11 l
0.05 0.11 l
0.06 0.11 l
0.06 0.10 l
0.06 0.11 l
371.27 350.09 lineto
0.06 0.10 l
0.06 0.10 l
0.07 0.10 l
0.07 0.10 l
0.07 0.10 l
0.07 0.10 l
0.07 0.10 l
0.08 0.09 l
0.07 0.10 l
0.08 0.09 l
0.08 0.09 l
0.08 0.09 l
0.08 0.09 l
0.09 0.09 l
0.08 0.09 l
0.09 0.08 l
0.09 0.08 l
0.09 0.09 l
0.09 0.08 l
0.10 0.07 l
0.09 0.08 l
0.10 0.08 l
0.10 0.07 l
0.10 0.07 l
0.10 0.07 l
0.10 0.07 l
0.10 0.07 l
0.10 0.06 l
0.11 0.06 l
0.10 0.07 l
0.11 0.05 l
0.11 0.06 l
0.11 0.06 l
0.11 0.05 l
0.11 0.05 l
0.11 0.05 l
0.11 0.05 l
0.12 0.05 l
0.11 0.04 l
0.12 0.04 l
0.11 0.04 l
0.12 0.04 l
0.12 0.04 l
0.11 0.03 l
0.12 0.04 l
0.12 0.03 l
0.12 0.02 l
0.12 0.03 l
0.12 0.02 l
0.12 0.03 l
0.12 0.02 l
0.13 0.01 l
0.12 0.02 l
0.12 0.01 l
0.12 0.02 l
0.12 0 l
0.13 0.01 l
0.12 0.01 l
0.12 0 l
0.13 0 l
0 0 l
o
np
377.37 254.80 m
0.12 0 l
0.12 0 l
0.12 -0.01 l
0.13 -0.01 l
0.12 -0.01 l
0.12 -0.01 l
0.12 -0.01 l
0.13 -0.02 l
0.12 -0.01 l
0.12 -0.02 l
0.12 -0.03 l
0.12 -0.02 l
0.12 -0.03 l
0.12 -0.02 l
0.12 -0.03 l
0.12 -0.04 l
0.12 -0.03 l
0.11 -0.04 l
0.12 -0.04 l
0.11 -0.04 l
0.12 -0.04 l
0.11 -0.04 l
0.12 -0.05 l
0.11 -0.05 l
0.11 -0.05 l
0.11 -0.05 l
0.11 -0.05 l
0.11 -0.06 l
0.11 -0.06 l
0.11 -0.06 l
0.10 -0.06 l
0.11 -0.06 l
0.10 -0.06 l
0.10 -0.07 l
0.11 -0.07 l
0.10 -0.07 l
0.09 -0.07 l
0.10 -0.07 l
0.10 -0.08 l
0.09 -0.08 l
0.10 -0.07 l
0.09 -0.08 l
0.09 -0.09 l
0.09 -0.08 l
0.09 -0.08 l
0.08 -0.09 l
0.09 -0.09 l
0.08 -0.09 l
0.08 -0.09 l
0.08 -0.09 l
0.08 -0.09 l
0.08 -0.10 l
0.07 -0.09 l
0.07 -0.10 l
0.08 -0.10 l
0.07 -0.10 l
0.06 -0.10 l
0.07 -0.10 l
0.06 -0.10 l
0.07 -0.11 l
0.06 -0.10 l
0.06 -0.11 l
0.05 -0.10 l
0.06 -0.11 l
0.05 -0.11 l
0.05 -0.11 l
0.05 -0.11 l
0.05 -0.11 l
0.04 -0.11 l
0.04 -0.12 l
0.05 -0.11 l
0.03 -0.12 l
0.04 -0.11 l
0.04 -0.12 l
0.03 -0.11 l
0.03 -0.12 l
0.03 -0.12 l
0.03 -0.11 l
0.02 -0.12 l
0.02 -0.12 l
0.02 -0.12 l
0.02 -0.12 l
0.02 -0.12 l
0.01 -0.12 l
0.01 -0.12 l
0.01 -0.12 l
0.01 -0.12 l
0.01 -0.12 l
0 -0.12 l
0 -0.12 l
0 -0.12 l
0 -0.12 l
-0.01 -0.12 l
-0.01 -0.12 l
-0.01 -0.12 l
-0.01 -0.12 l
-0.01 -0.12 l
-0.02 -0.12 l
-0.02 -0.12 l
384.30 246.69 lineto
-0.02 -0.12 l
-0.02 -0.12 l
-0.03 -0.12 l
-0.03 -0.11 l
-0.03 -0.12 l
-0.03 -0.12 l
-0.04 -0.11 l
-0.04 -0.12 l
-0.03 -0.11 l
-0.05 -0.12 l
-0.04 -0.11 l
-0.04 -0.11 l
-0.05 -0.11 l
-0.05 -0.11 l
-0.05 -0.11 l
-0.05 -0.11 l
-0.06 -0.11 l
-0.05 -0.11 l
-0.06 -0.10 l
-0.06 -0.11 l
-0.07 -0.10 l
-0.06 -0.10 l
-0.07 -0.11 l
-0.06 -0.10 l
-0.07 -0.10 l
-0.08 -0.09 l
-0.07 -0.10 l
-0.07 -0.10 l
-0.08 -0.09 l
-0.08 -0.09 l
-0.08 -0.10 l
-0.08 -0.09 l
-0.08 -0.08 l
-0.09 -0.09 l
-0.08 -0.09 l
-0.09 -0.08 l
-0.09 -0.09 l
-0.09 -0.08 l
-0.09 -0.08 l
-0.10 -0.08 l
-0.09 -0.07 l
-0.10 -0.08 l
-0.10 -0.07 l
-0.09 -0.07 l
-0.10 -0.07 l
-0.11 -0.07 l
-0.10 -0.07 l
-0.10 -0.06 l
-0.11 -0.07 l
-0.10 -0.06 l
-0.11 -0.06 l
-0.11 -0.05 l
-0.11 -0.06 l
-0.11 -0.05 l
-0.11 -0.06 l
-0.11 -0.05 l
-0.11 -0.04 l
-0.12 -0.05 l
-0.11 -0.04 l
-0.12 -0.05 l
-0.11 -0.04 l
-0.12 -0.03 l
-0.11 -0.04 l
-0.12 -0.04 l
-0.12 -0.03 l
-0.12 -0.03 l
-0.12 -0.03 l
-0.12 -0.02 l
-0.12 -0.03 l
-0.12 -0.02 l
-0.12 -0.02 l
-0.12 -0.02 l
-0.13 -0.01 l
-0.12 -0.02 l
-0.12 -0.01 l
-0.12 -0.01 l
-0.13 0 l
-0.12 -0.01 l
-0.12 0 l
-0.12 0 l
-0.13 0 l
-0.12 0 l
-0.12 0.01 l
-0.13 0 l
-0.12 0.01 l
-0.12 0.01 l
-0.12 0.02 l
-0.12 0.01 l
-0.13 0.02 l
-0.12 0.02 l
-0.12 0.02 l
-0.12 0.03 l
-0.12 0.02 l
-0.12 0.03 l
-0.12 0.03 l
-0.12 0.03 l
-0.11 0.04 l
-0.12 0.04 l
-0.12 0.03 l
374.96 241.39 lineto
-0.12 0.05 l
-0.11 0.04 l
-0.12 0.05 l
-0.11 0.04 l
-0.11 0.05 l
-0.11 0.06 l
-0.11 0.05 l
-0.11 0.06 l
-0.11 0.05 l
-0.11 0.06 l
-0.10 0.06 l
-0.11 0.07 l
-0.10 0.06 l
-0.10 0.07 l
-0.10 0.07 l
-0.10 0.07 l
-0.10 0.07 l
-0.10 0.07 l
-0.10 0.08 l
-0.09 0.07 l
-0.10 0.08 l
-0.09 0.08 l
-0.09 0.08 l
-0.09 0.09 l
-0.09 0.08 l
-0.08 0.09 l
-0.09 0.09 l
-0.08 0.08 l
-0.08 0.09 l
-0.08 0.10 l
-0.08 0.09 l
-0.07 0.09 l
-0.08 0.10 l
-0.07 0.10 l
-0.07 0.09 l
-0.07 0.10 l
-0.07 0.10 l
-0.07 0.11 l
-0.06 0.10 l
-0.06 0.10 l
-0.06 0.11 l
-0.06 0.10 l
-0.06 0.11 l
-0.06 0.11 l
-0.05 0.11 l
-0.05 0.11 l
-0.05 0.11 l
-0.05 0.11 l
-0.04 0.11 l
-0.04 0.11 l
-0.04 0.12 l
-0.04 0.11 l
-0.04 0.12 l
-0.04 0.11 l
-0.03 0.12 l
-0.03 0.12 l
-0.03 0.11 l
-0.02 0.12 l
-0.03 0.12 l
-0.02 0.12 l
-0.02 0.12 l
-0.02 0.12 l
-0.02 0.12 l
-0.01 0.12 l
-0.01 0.12 l
-0.01 0.12 l
-0.01 0.12 l
0 0.12 l
-0.01 0.12 l
0 0.12 l
0 0.12 l
0.01 0.12 l
0 0.12 l
0.01 0.12 l
0.01 0.12 l
0.01 0.12 l
0.01 0.12 l
0.02 0.12 l
0.02 0.12 l
0.02 0.12 l
0.02 0.12 l
0.03 0.12 l
0.02 0.11 l
0.03 0.12 l
0.03 0.12 l
0.03 0.11 l
0.04 0.12 l
0.04 0.11 l
0.04 0.12 l
0.04 0.11 l
0.04 0.12 l
0.04 0.11 l
0.05 0.11 l
0.05 0.11 l
0.05 0.11 l
0.05 0.11 l
0.06 0.11 l
0.06 0.10 l
0.06 0.11 l
371.27 251.34 lineto
0.06 0.11 l
0.06 0.10 l
0.07 0.10 l
0.07 0.10 l
0.07 0.10 l
0.07 0.10 l
0.07 0.10 l
0.08 0.09 l
0.07 0.10 l
0.08 0.09 l
0.08 0.09 l
0.08 0.09 l
0.08 0.09 l
0.09 0.09 l
0.08 0.09 l
0.09 0.08 l
0.09 0.08 l
0.09 0.09 l
0.09 0.08 l
0.10 0.07 l
0.09 0.08 l
0.10 0.08 l
0.10 0.07 l
0.10 0.07 l
0.10 0.07 l
0.10 0.07 l
0.10 0.07 l
0.10 0.06 l
0.11 0.06 l
0.10 0.06 l
0.11 0.06 l
0.11 0.06 l
0.11 0.06 l
0.11 0.05 l
0.11 0.05 l
0.11 0.05 l
0.11 0.05 l
0.12 0.05 l
0.11 0.04 l
0.12 0.04 l
0.11 0.04 l
0.12 0.04 l
0.12 0.04 l
0.11 0.03 l
0.12 0.04 l
0.12 0.03 l
0.12 0.02 l
0.12 0.03 l
0.12 0.02 l
0.12 0.03 l
0.12 0.02 l
0.13 0.01 l
0.12 0.02 l
0.12 0.01 l
0.12 0.01 l
0.12 0.01 l
0.13 0.01 l
0.12 0.01 l
0.12 0 l
0.13 0 l
0 0 l
o
np
448.73 452.28 m
0.12 0 l
0.13 0 l
0.12 -0.01 l
0.12 0 l
0.13 -0.01 l
0.12 -0.02 l
0.12 -0.01 l
0.12 -0.02 l
0.12 -0.01 l
0.12 -0.02 l
0.13 -0.02 l
0.12 -0.03 l
0.12 -0.02 l
0.12 -0.03 l
0.11 -0.03 l
0.12 -0.04 l
0.12 -0.03 l
0.12 -0.04 l
0.11 -0.03 l
0.12 -0.04 l
0.12 -0.05 l
0.11 -0.04 l
0.11 -0.05 l
0.12 -0.05 l
0.11 -0.05 l
0.11 -0.05 l
0.11 -0.05 l
0.11 -0.06 l
0.11 -0.05 l
0.10 -0.06 l
0.11 -0.07 l
0.10 -0.06 l
0.11 -0.06 l
0.10 -0.07 l
0.10 -0.07 l
0.10 -0.07 l
0.10 -0.07 l
0.10 -0.07 l
0.09 -0.08 l
0.10 -0.07 l
0.09 -0.08 l
0.09 -0.08 l
0.10 -0.08 l
0.08 -0.09 l
0.09 -0.08 l
0.09 -0.09 l
0.08 -0.09 l
0.09 -0.08 l
0.08 -0.10 l
0.08 -0.09 l
0.08 -0.09 l
0.07 -0.09 l
0.08 -0.10 l
0.07 -0.10 l
0.07 -0.10 l
0.07 -0.09 l
0.07 -0.11 l
0.07 -0.10 l
0.06 -0.10 l
0.06 -0.10 l
0.06 -0.11 l
0.06 -0.10 l
0.06 -0.11 l
0.05 -0.11 l
0.06 -0.11 l
0.05 -0.11 l
0.05 -0.11 l
0.04 -0.11 l
0.05 -0.11 l
0.04 -0.12 l
0.04 -0.11 l
0.04 -0.11 l
0.04 -0.12 l
0.03 -0.11 l
0.04 -0.12 l
0.03 -0.12 l
0.02 -0.11 l
0.03 -0.12 l
0.03 -0.12 l
0.02 -0.12 l
0.02 -0.12 l
0.02 -0.12 l
0.01 -0.12 l
0.02 -0.12 l
0.01 -0.12 l
0.01 -0.12 l
0.01 -0.12 l
0 -0.12 l
0 -0.12 l
0.01 -0.12 l
-0.01 -0.12 l
0 -0.12 l
0 -0.12 l
-0.01 -0.12 l
-0.01 -0.12 l
-0.01 -0.12 l
-0.02 -0.12 l
-0.01 -0.12 l
-0.02 -0.12 l
455.67 444.17 lineto
-0.02 -0.12 l
-0.03 -0.12 l
-0.03 -0.11 l
-0.02 -0.12 l
-0.03 -0.12 l
-0.04 -0.11 l
-0.03 -0.12 l
-0.04 -0.12 l
-0.04 -0.11 l
-0.04 -0.11 l
-0.04 -0.12 l
-0.05 -0.11 l
-0.04 -0.11 l
-0.05 -0.11 l
-0.05 -0.11 l
-0.06 -0.11 l
-0.05 -0.11 l
-0.06 -0.10 l
-0.06 -0.11 l
-0.06 -0.11 l
-0.06 -0.10 l
-0.06 -0.10 l
-0.07 -0.10 l
-0.07 -0.10 l
-0.07 -0.10 l
-0.07 -0.10 l
-0.07 -0.10 l
-0.08 -0.09 l
-0.07 -0.10 l
-0.08 -0.09 l
-0.08 -0.09 l
-0.08 -0.09 l
-0.09 -0.09 l
-0.08 -0.09 l
-0.09 -0.09 l
-0.09 -0.08 l
-0.08 -0.08 l
-0.10 -0.09 l
-0.09 -0.08 l
-0.09 -0.07 l
-0.10 -0.08 l
-0.09 -0.08 l
-0.10 -0.07 l
-0.10 -0.07 l
-0.10 -0.07 l
-0.10 -0.07 l
-0.10 -0.07 l
-0.11 -0.06 l
-0.10 -0.06 l
-0.11 -0.07 l
-0.10 -0.05 l
-0.11 -0.06 l
-0.11 -0.06 l
-0.11 -0.05 l
-0.11 -0.05 l
-0.11 -0.05 l
-0.12 -0.05 l
-0.11 -0.05 l
-0.11 -0.04 l
-0.12 -0.04 l
-0.12 -0.04 l
-0.11 -0.04 l
-0.12 -0.04 l
-0.12 -0.03 l
-0.12 -0.04 l
-0.11 -0.03 l
-0.12 -0.02 l
-0.12 -0.03 l
-0.12 -0.02 l
-0.13 -0.03 l
-0.12 -0.02 l
-0.12 -0.01 l
-0.12 -0.02 l
-0.12 -0.01 l
-0.12 -0.02 l
-0.13 0 l
-0.12 -0.01 l
-0.12 -0.01 l
-0.13 0 l
-0.12 0 l
-0.12 0 l
-0.12 0 l
-0.13 0.01 l
-0.12 0.01 l
-0.12 0 l
-0.12 0.02 l
-0.13 0.01 l
-0.12 0.02 l
-0.12 0.01 l
-0.12 0.02 l
-0.12 0.03 l
-0.12 0.02 l
-0.12 0.03 l
-0.12 0.02 l
-0.12 0.03 l
-0.12 0.04 l
-0.12 0.03 l
-0.12 0.04 l
-0.11 0.04 l
446.32 438.88 lineto
-0.11 0.04 l
-0.12 0.04 l
-0.11 0.05 l
-0.11 0.05 l
-0.12 0.05 l
-0.11 0.05 l
-0.11 0.05 l
-0.11 0.06 l
-0.10 0.06 l
-0.11 0.05 l
-0.11 0.07 l
-0.10 0.06 l
-0.10 0.06 l
-0.11 0.07 l
-0.10 0.07 l
-0.10 0.07 l
-0.10 0.07 l
-0.10 0.07 l
-0.09 0.08 l
-0.10 0.08 l
-0.09 0.07 l
-0.09 0.08 l
-0.09 0.09 l
-0.09 0.08 l
-0.09 0.08 l
-0.09 0.09 l
-0.08 0.09 l
-0.08 0.09 l
-0.08 0.09 l
-0.08 0.09 l
-0.08 0.09 l
-0.08 0.10 l
-0.07 0.09 l
-0.08 0.10 l
-0.07 0.10 l
-0.07 0.10 l
-0.07 0.10 l
-0.06 0.10 l
-0.07 0.10 l
-0.06 0.10 l
-0.06 0.11 l
-0.06 0.11 l
-0.05 0.10 l
-0.06 0.11 l
-0.05 0.11 l
-0.05 0.11 l
-0.05 0.11 l
-0.05 0.11 l
-0.04 0.11 l
-0.05 0.12 l
-0.04 0.11 l
-0.04 0.11 l
-0.03 0.12 l
-0.04 0.12 l
-0.03 0.11 l
-0.03 0.12 l
-0.03 0.12 l
-0.03 0.11 l
-0.02 0.12 l
-0.03 0.12 l
-0.02 0.12 l
-0.01 0.12 l
-0.02 0.12 l
-0.01 0.12 l
-0.02 0.12 l
-0.01 0.12 l
0 0.12 l
-0.01 0.12 l
0 0.12 l
0 0.12 l
0 0.12 l
0 0.12 l
0.01 0.12 l
0 0.12 l
0.01 0.12 l
0.02 0.12 l
0.01 0.12 l
0.02 0.12 l
0.01 0.12 l
0.02 0.12 l
0.03 0.12 l
0.02 0.12 l
0.03 0.12 l
0.03 0.11 l
0.03 0.12 l
0.03 0.12 l
0.04 0.11 l
0.03 0.12 l
0.04 0.11 l
0.04 0.11 l
0.05 0.12 l
0.04 0.11 l
0.05 0.11 l
0.05 0.11 l
0.05 0.11 l
0.05 0.11 l
0.06 0.11 l
0.05 0.11 l
0.06 0.10 l
442.63 448.83 lineto
0.06 0.10 l
0.07 0.10 l
0.06 0.10 l
0.07 0.11 l
0.07 0.09 l
0.07 0.10 l
0.08 0.10 l
0.07 0.10 l
0.08 0.09 l
0.08 0.09 l
0.08 0.09 l
0.08 0.10 l
0.08 0.08 l
0.08 0.09 l
0.09 0.09 l
0.09 0.08 l
0.09 0.09 l
0.09 0.08 l
0.09 0.08 l
0.09 0.08 l
0.10 0.07 l
0.09 0.08 l
0.10 0.07 l
0.10 0.07 l
0.10 0.07 l
0.10 0.07 l
0.11 0.07 l
0.10 0.06 l
0.10 0.06 l
0.11 0.07 l
0.11 0.06 l
0.10 0.05 l
0.11 0.06 l
0.11 0.05 l
0.11 0.05 l
0.12 0.05 l
0.11 0.05 l
0.11 0.05 l
0.12 0.04 l
0.11 0.05 l
0.12 0.04 l
0.11 0.03 l
0.12 0.04 l
0.12 0.03 l
0.12 0.04 l
0.12 0.03 l
0.12 0.03 l
0.12 0.02 l
0.12 0.03 l
0.12 0.02 l
0.12 0.02 l
0.12 0.01 l
0.12 0.02 l
0.13 0.01 l
0.12 0.02 l
0.12 0.01 l
0.12 0 l
0.13 0.01 l
0.12 0 l
0.12 0 l
0 0 l
o
np
448.73 452.28 m
0.12 0 l
0.13 0 l
0.12 -0.01 l
0.12 0 l
0.13 -0.01 l
0.12 -0.02 l
0.12 -0.01 l
0.12 -0.02 l
0.12 -0.01 l
0.12 -0.02 l
0.13 -0.02 l
0.12 -0.03 l
0.12 -0.02 l
0.12 -0.03 l
0.11 -0.03 l
0.12 -0.04 l
0.12 -0.03 l
0.12 -0.04 l
0.11 -0.03 l
0.12 -0.04 l
0.12 -0.05 l
0.11 -0.04 l
0.11 -0.05 l
0.12 -0.05 l
0.11 -0.05 l
0.11 -0.05 l
0.11 -0.05 l
0.11 -0.06 l
0.11 -0.05 l
0.10 -0.06 l
0.11 -0.07 l
0.10 -0.06 l
0.11 -0.06 l
0.10 -0.07 l
0.10 -0.07 l
0.10 -0.07 l
0.10 -0.07 l
0.10 -0.07 l
0.09 -0.08 l
0.10 -0.07 l
0.09 -0.08 l
0.09 -0.08 l
0.10 -0.08 l
0.08 -0.09 l
0.09 -0.08 l
0.09 -0.09 l
0.08 -0.09 l
0.09 -0.08 l
0.08 -0.10 l
0.08 -0.09 l
0.08 -0.09 l
0.07 -0.09 l
0.08 -0.10 l
0.07 -0.10 l
0.07 -0.10 l
0.07 -0.09 l
0.07 -0.11 l
0.07 -0.10 l
0.06 -0.10 l
0.06 -0.10 l
0.06 -0.11 l
0.06 -0.10 l
0.06 -0.11 l
0.05 -0.11 l
0.06 -0.11 l
0.05 -0.11 l
0.05 -0.11 l
0.04 -0.11 l
0.05 -0.11 l
0.04 -0.12 l
0.04 -0.11 l
0.04 -0.11 l
0.04 -0.12 l
0.03 -0.11 l
0.04 -0.12 l
0.03 -0.12 l
0.02 -0.11 l
0.03 -0.12 l
0.03 -0.12 l
0.02 -0.12 l
0.02 -0.12 l
0.02 -0.12 l
0.01 -0.12 l
0.02 -0.12 l
0.01 -0.12 l
0.01 -0.12 l
0.01 -0.12 l
0 -0.12 l
0 -0.12 l
0.01 -0.12 l
-0.01 -0.12 l
0 -0.12 l
0 -0.12 l
-0.01 -0.12 l
-0.01 -0.12 l
-0.01 -0.12 l
-0.02 -0.12 l
-0.01 -0.12 l
-0.02 -0.12 l
455.67 444.17 lineto
-0.02 -0.12 l
-0.03 -0.12 l
-0.03 -0.11 l
-0.02 -0.12 l
-0.03 -0.12 l
-0.04 -0.11 l
-0.03 -0.12 l
-0.04 -0.12 l
-0.04 -0.11 l
-0.04 -0.11 l
-0.04 -0.12 l
-0.05 -0.11 l
-0.04 -0.11 l
-0.05 -0.11 l
-0.05 -0.11 l
-0.06 -0.11 l
-0.05 -0.11 l
-0.06 -0.10 l
-0.06 -0.11 l
-0.06 -0.11 l
-0.06 -0.10 l
-0.06 -0.10 l
-0.07 -0.10 l
-0.07 -0.10 l
-0.07 -0.10 l
-0.07 -0.10 l
-0.07 -0.10 l
-0.08 -0.09 l
-0.07 -0.10 l
-0.08 -0.09 l
-0.08 -0.09 l
-0.08 -0.09 l
-0.09 -0.09 l
-0.08 -0.09 l
-0.09 -0.09 l
-0.09 -0.08 l
-0.08 -0.08 l
-0.10 -0.09 l
-0.09 -0.08 l
-0.09 -0.07 l
-0.10 -0.08 l
-0.09 -0.08 l
-0.10 -0.07 l
-0.10 -0.07 l
-0.10 -0.07 l
-0.10 -0.07 l
-0.10 -0.07 l
-0.11 -0.06 l
-0.10 -0.06 l
-0.11 -0.07 l
-0.10 -0.05 l
-0.11 -0.06 l
-0.11 -0.06 l
-0.11 -0.05 l
-0.11 -0.05 l
-0.11 -0.05 l
-0.12 -0.05 l
-0.11 -0.05 l
-0.11 -0.04 l
-0.12 -0.04 l
-0.12 -0.04 l
-0.11 -0.04 l
-0.12 -0.04 l
-0.12 -0.03 l
-0.12 -0.04 l
-0.11 -0.03 l
-0.12 -0.02 l
-0.12 -0.03 l
-0.12 -0.02 l
-0.13 -0.03 l
-0.12 -0.02 l
-0.12 -0.01 l
-0.12 -0.02 l
-0.12 -0.01 l
-0.12 -0.02 l
-0.13 0 l
-0.12 -0.01 l
-0.12 -0.01 l
-0.13 0 l
-0.12 0 l
0 13.82 l
o
np
 448.73 438.46 m
-0.12 0 l
-0.12 0 l
-0.13 0.01 l
-0.12 0.01 l
-0.12 0 l
-0.12 0.02 l
-0.13 0.01 l
-0.12 0.02 l
-0.12 0.01 l
-0.12 0.02 l
-0.12 0.03 l
-0.12 0.02 l
-0.12 0.03 l
-0.12 0.02 l
-0.12 0.03 l
-0.12 0.04 l
-0.12 0.03 l
-0.12 0.04 l
-0.11 0.04 l
-0.12 0.04 l
-0.11 0.04 l
-0.12 0.04 l
-0.11 0.05 l
-0.11 0.05 l
-0.12 0.05 l
-0.11 0.05 l
-0.11 0.05 l
-0.11 0.06 l
-0.10 0.06 l
-0.11 0.05 l
-0.11 0.07 l
-0.10 0.06 l
-0.10 0.06 l
-0.11 0.07 l
-0.10 0.07 l
-0.10 0.07 l
-0.10 0.07 l
-0.10 0.07 l
-0.09 0.08 l
-0.10 0.08 l
-0.09 0.07 l
-0.09 0.08 l
-0.09 0.09 l
-0.09 0.08 l
-0.09 0.08 l
-0.09 0.09 l
-0.08 0.09 l
-0.08 0.09 l
-0.08 0.09 l
-0.08 0.09 l
-0.08 0.09 l
-0.08 0.10 l
-0.07 0.09 l
-0.08 0.10 l
-0.07 0.10 l
-0.07 0.10 l
-0.07 0.10 l
-0.06 0.10 l
-0.07 0.10 l
-0.06 0.10 l
-0.06 0.11 l
-0.06 0.11 l
-0.05 0.10 l
-0.06 0.11 l
-0.05 0.11 l
-0.05 0.11 l
-0.05 0.11 l
-0.05 0.11 l
-0.04 0.11 l
-0.05 0.12 l
-0.04 0.11 l
-0.04 0.11 l
-0.03 0.12 l
-0.04 0.12 l
-0.03 0.11 l
-0.03 0.12 l
-0.03 0.12 l
-0.03 0.11 l
-0.02 0.12 l
-0.03 0.12 l
-0.02 0.12 l
-0.01 0.12 l
-0.02 0.12 l
-0.01 0.12 l
-0.02 0.12 l
-0.01 0.12 l
0 0.12 l
-0.01 0.12 l
0 0.12 l
0 0.12 l
0 0.12 l
0 0.12 l
0.01 0.12 l
0 0.12 l
0.01 0.12 l
0.02 0.12 l
0.01 0.12 l
0.02 0.12 l
0.01 0.12 l
441.79 446.57 lineto
0.03 0.12 l
0.02 0.12 l
0.03 0.12 l
0.03 0.11 l
0.03 0.12 l
0.03 0.12 l
0.04 0.11 l
0.03 0.12 l
0.04 0.11 l
0.04 0.11 l
0.05 0.12 l
0.04 0.11 l
0.05 0.11 l
0.05 0.11 l
0.05 0.11 l
0.05 0.11 l
0.06 0.11 l
0.05 0.11 l
0.06 0.10 l
0.06 0.11 l
0.06 0.10 l
0.07 0.10 l
0.06 0.10 l
0.07 0.11 l
0.07 0.09 l
0.07 0.10 l
0.08 0.10 l
0.07 0.10 l
0.08 0.09 l
0.08 0.09 l
0.08 0.09 l
0.08 0.10 l
0.08 0.08 l
0.08 0.09 l
0.09 0.09 l
0.09 0.08 l
0.09 0.09 l
0.09 0.08 l
0.09 0.08 l
0.09 0.08 l
0.10 0.07 l
0.09 0.08 l
0.10 0.07 l
0.10 0.07 l
0.10 0.07 l
0.10 0.07 l
0.11 0.07 l
0.10 0.06 l
0.10 0.06 l
0.11 0.07 l
0.11 0.06 l
0.10 0.05 l
0.11 0.06 l
0.11 0.05 l
0.11 0.05 l
0.12 0.05 l
0.11 0.05 l
0.11 0.05 l
0.12 0.04 l
0.11 0.05 l
0.12 0.04 l
0.11 0.03 l
0.12 0.04 l
0.12 0.03 l
0.12 0.04 l
0.12 0.03 l
0.12 0.03 l
0.12 0.02 l
0.12 0.03 l
0.12 0.02 l
0.12 0.02 l
0.12 0.01 l
0.12 0.02 l
0.13 0.01 l
0.12 0.02 l
0.12 0.01 l
0.12 0 l
0.13 0.01 l
0.12 0 l
0.12 0 l
cp p3
np
448.73 254.80 m
0.12 0 l
0.13 0 l
0.12 -0.01 l
0.12 -0.01 l
0.13 -0.01 l
0.12 -0.01 l
0.12 -0.01 l
0.12 -0.02 l
0.12 -0.01 l
0.12 -0.02 l
0.13 -0.03 l
0.12 -0.02 l
0.12 -0.03 l
0.12 -0.02 l
0.11 -0.03 l
0.12 -0.04 l
0.12 -0.03 l
0.12 -0.04 l
0.11 -0.04 l
0.12 -0.04 l
0.12 -0.04 l
0.11 -0.04 l
0.11 -0.05 l
0.12 -0.05 l
0.11 -0.05 l
0.11 -0.05 l
0.11 -0.05 l
0.11 -0.06 l
0.11 -0.06 l
0.10 -0.06 l
0.11 -0.06 l
0.10 -0.06 l
0.11 -0.06 l
0.10 -0.07 l
0.10 -0.07 l
0.10 -0.07 l
0.10 -0.07 l
0.10 -0.07 l
0.09 -0.08 l
0.10 -0.08 l
0.09 -0.07 l
0.09 -0.08 l
0.10 -0.09 l
0.08 -0.08 l
0.09 -0.08 l
0.09 -0.09 l
0.08 -0.09 l
0.09 -0.09 l
0.08 -0.09 l
0.08 -0.09 l
0.08 -0.09 l
0.07 -0.10 l
0.08 -0.09 l
0.07 -0.10 l
0.07 -0.10 l
0.07 -0.10 l
0.07 -0.10 l
0.07 -0.10 l
0.06 -0.10 l
0.06 -0.11 l
0.06 -0.10 l
0.06 -0.11 l
0.06 -0.10 l
0.05 -0.11 l
0.06 -0.11 l
0.05 -0.11 l
0.05 -0.11 l
0.04 -0.11 l
0.05 -0.11 l
0.04 -0.12 l
0.04 -0.11 l
0.04 -0.12 l
0.04 -0.11 l
0.03 -0.12 l
0.04 -0.11 l
0.03 -0.12 l
0.02 -0.12 l
0.03 -0.11 l
0.03 -0.12 l
0.02 -0.12 l
0.02 -0.12 l
0.02 -0.12 l
0.01 -0.12 l
0.02 -0.12 l
0.01 -0.12 l
0.01 -0.12 l
0.01 -0.12 l
0 -0.12 l
0 -0.12 l
0.01 -0.12 l
-0.01 -0.12 l
0 -0.12 l
0 -0.12 l
-0.01 -0.12 l
-0.01 -0.12 l
-0.01 -0.12 l
-0.02 -0.12 l
-0.01 -0.12 l
-0.02 -0.12 l
455.67 246.69 lineto
-0.02 -0.12 l
-0.03 -0.12 l
-0.03 -0.12 l
-0.02 -0.11 l
-0.03 -0.12 l
-0.04 -0.12 l
-0.03 -0.11 l
-0.04 -0.12 l
-0.04 -0.11 l
-0.04 -0.12 l
-0.04 -0.11 l
-0.05 -0.11 l
-0.04 -0.11 l
-0.05 -0.11 l
-0.05 -0.11 l
-0.06 -0.11 l
-0.05 -0.11 l
-0.06 -0.11 l
-0.06 -0.10 l
-0.06 -0.11 l
-0.06 -0.10 l
-0.06 -0.10 l
-0.07 -0.11 l
-0.07 -0.10 l
-0.07 -0.10 l
-0.07 -0.09 l
-0.07 -0.10 l
-0.08 -0.10 l
-0.07 -0.09 l
-0.08 -0.09 l
-0.08 -0.10 l
-0.08 -0.09 l
-0.09 -0.08 l
-0.08 -0.09 l
-0.09 -0.09 l
-0.09 -0.08 l
-0.08 -0.09 l
-0.10 -0.08 l
-0.09 -0.08 l
-0.09 -0.08 l
-0.10 -0.07 l
-0.09 -0.08 l
-0.10 -0.07 l
-0.10 -0.07 l
-0.10 -0.07 l
-0.10 -0.07 l
-0.10 -0.07 l
-0.11 -0.06 l
-0.10 -0.07 l
-0.11 -0.06 l
-0.10 -0.06 l
-0.11 -0.05 l
-0.11 -0.06 l
-0.11 -0.05 l
-0.11 -0.06 l
-0.11 -0.05 l
-0.12 -0.04 l
-0.11 -0.05 l
-0.11 -0.04 l
-0.12 -0.05 l
-0.12 -0.04 l
-0.11 -0.03 l
-0.12 -0.04 l
-0.12 -0.04 l
-0.12 -0.03 l
-0.11 -0.03 l
-0.12 -0.03 l
-0.12 -0.02 l
-0.12 -0.03 l
-0.13 -0.02 l
-0.12 -0.02 l
-0.12 -0.02 l
-0.12 -0.01 l
-0.12 -0.02 l
-0.12 -0.01 l
-0.13 -0.01 l
-0.12 0 l
-0.12 -0.01 l
-0.13 0 l
-0.12 0 l
-0.12 0 l
-0.12 0 l
-0.13 0.01 l
-0.12 0 l
-0.12 0.01 l
-0.12 0.01 l
-0.13 0.02 l
-0.12 0.01 l
-0.12 0.02 l
-0.12 0.02 l
-0.12 0.02 l
-0.12 0.03 l
-0.12 0.02 l
-0.12 0.03 l
-0.12 0.03 l
-0.12 0.03 l
-0.12 0.04 l
-0.12 0.04 l
-0.11 0.03 l
446.32 241.39 lineto
-0.11 0.05 l
-0.12 0.04 l
-0.11 0.05 l
-0.11 0.04 l
-0.12 0.05 l
-0.11 0.06 l
-0.11 0.05 l
-0.11 0.06 l
-0.10 0.05 l
-0.11 0.06 l
-0.11 0.06 l
-0.10 0.07 l
-0.10 0.06 l
-0.11 0.07 l
-0.10 0.07 l
-0.10 0.07 l
-0.10 0.07 l
-0.10 0.07 l
-0.09 0.08 l
-0.10 0.07 l
-0.09 0.08 l
-0.09 0.08 l
-0.09 0.08 l
-0.09 0.09 l
-0.09 0.08 l
-0.09 0.09 l
-0.08 0.09 l
-0.08 0.08 l
-0.08 0.09 l
-0.08 0.10 l
-0.08 0.09 l
-0.08 0.09 l
-0.07 0.10 l
-0.08 0.10 l
-0.07 0.09 l
-0.07 0.10 l
-0.07 0.10 l
-0.06 0.11 l
-0.07 0.10 l
-0.06 0.10 l
-0.06 0.11 l
-0.06 0.10 l
-0.05 0.11 l
-0.06 0.11 l
-0.05 0.11 l
-0.05 0.11 l
-0.05 0.11 l
-0.05 0.11 l
-0.04 0.11 l
-0.05 0.11 l
-0.04 0.12 l
-0.04 0.11 l
-0.03 0.12 l
-0.04 0.11 l
-0.03 0.12 l
-0.03 0.12 l
-0.03 0.11 l
-0.03 0.12 l
-0.02 0.12 l
-0.03 0.12 l
-0.02 0.12 l
-0.01 0.12 l
-0.02 0.12 l
-0.01 0.12 l
-0.02 0.12 l
-0.01 0.12 l
0 0.12 l
-0.01 0.12 l
0 0.12 l
0 0.12 l
0 0.12 l
0 0.12 l
0.01 0.12 l
0 0.12 l
0.01 0.12 l
0.02 0.12 l
0.01 0.12 l
0.02 0.12 l
0.01 0.12 l
0.02 0.12 l
0.03 0.12 l
0.02 0.12 l
0.03 0.11 l
0.03 0.12 l
0.03 0.12 l
0.03 0.11 l
0.04 0.12 l
0.03 0.11 l
0.04 0.12 l
0.04 0.11 l
0.05 0.12 l
0.04 0.11 l
0.05 0.11 l
0.05 0.11 l
0.05 0.11 l
0.05 0.11 l
0.06 0.11 l
0.05 0.10 l
0.06 0.11 l
442.63 251.34 lineto
0.06 0.11 l
0.07 0.10 l
0.06 0.10 l
0.07 0.10 l
0.07 0.10 l
0.07 0.10 l
0.08 0.10 l
0.07 0.09 l
0.08 0.10 l
0.08 0.09 l
0.08 0.09 l
0.08 0.09 l
0.08 0.09 l
0.08 0.09 l
0.09 0.09 l
0.09 0.08 l
0.09 0.08 l
0.09 0.09 l
0.09 0.08 l
0.09 0.07 l
0.10 0.08 l
0.09 0.08 l
0.10 0.07 l
0.10 0.07 l
0.10 0.07 l
0.10 0.07 l
0.11 0.07 l
0.10 0.06 l
0.10 0.06 l
0.11 0.06 l
0.11 0.06 l
0.10 0.06 l
0.11 0.06 l
0.11 0.05 l
0.11 0.05 l
0.12 0.05 l
0.11 0.05 l
0.11 0.05 l
0.12 0.04 l
0.11 0.04 l
0.12 0.04 l
0.11 0.04 l
0.12 0.04 l
0.12 0.03 l
0.12 0.04 l
0.12 0.03 l
0.12 0.02 l
0.12 0.03 l
0.12 0.02 l
0.12 0.03 l
0.12 0.02 l
0.12 0.01 l
0.12 0.02 l
0.13 0.01 l
0.12 0.01 l
0.12 0.01 l
0.12 0.01 l
0.13 0.01 l
0.12 0 l
0.12 0 l
0 0 l
o
np
520.10 353.54 m
0.12 0 l
0.12 0 l
0.13 -0.01 l
0.12 -0.01 l
0.12 0 l
0.12 -0.02 l
0.13 -0.01 l
0.12 -0.02 l
0.12 -0.01 l
0.12 -0.02 l
0.12 -0.03 l
0.12 -0.02 l
0.12 -0.03 l
0.12 -0.02 l
0.12 -0.03 l
0.12 -0.04 l
0.12 -0.03 l
0.11 -0.04 l
0.12 -0.04 l
0.12 -0.04 l
0.11 -0.04 l
0.12 -0.04 l
0.11 -0.05 l
0.11 -0.05 l
0.11 -0.05 l
0.12 -0.05 l
0.11 -0.05 l
0.10 -0.06 l
0.11 -0.06 l
0.11 -0.05 l
0.11 -0.07 l
0.10 -0.06 l
0.10 -0.06 l
0.11 -0.07 l
0.10 -0.07 l
0.10 -0.07 l
0.10 -0.07 l
0.09 -0.07 l
0.10 -0.08 l
0.09 -0.08 l
0.10 -0.07 l
0.09 -0.08 l
0.09 -0.09 l
0.09 -0.08 l
0.09 -0.08 l
0.08 -0.09 l
0.09 -0.09 l
0.08 -0.09 l
0.08 -0.09 l
0.08 -0.09 l
0.08 -0.09 l
0.08 -0.10 l
0.07 -0.09 l
0.08 -0.10 l
0.07 -0.10 l
0.07 -0.10 l
0.06 -0.10 l
0.07 -0.10 l
0.07 -0.10 l
0.06 -0.10 l
0.06 -0.11 l
0.06 -0.11 l
0.05 -0.10 l
0.06 -0.11 l
0.05 -0.11 l
0.05 -0.11 l
0.05 -0.11 l
0.05 -0.11 l
0.04 -0.11 l
0.05 -0.12 l
0.04 -0.11 l
0.04 -0.11 l
0.03 -0.12 l
0.04 -0.12 l
0.03 -0.11 l
0.03 -0.12 l
0.03 -0.12 l
0.03 -0.11 l
0.02 -0.12 l
0.02 -0.12 l
0.02 -0.12 l
0.02 -0.12 l
0.02 -0.12 l
0.01 -0.12 l
0.01 -0.12 l
0.01 -0.12 l
0.01 -0.12 l
0.01 -0.12 l
0 -0.12 l
0 -0.12 l
0 -0.12 l
0 -0.12 l
-0.01 -0.12 l
-0.01 -0.12 l
-0.01 -0.12 l
-0.01 -0.12 l
-0.01 -0.12 l
-0.02 -0.12 l
-0.02 -0.12 l
527.03 345.43 lineto
-0.02 -0.12 l
-0.02 -0.12 l
-0.03 -0.12 l
-0.03 -0.11 l
-0.03 -0.12 l
-0.03 -0.12 l
-0.04 -0.11 l
-0.03 -0.12 l
-0.04 -0.11 l
-0.04 -0.11 l
-0.05 -0.12 l
-0.04 -0.11 l
-0.05 -0.11 l
-0.05 -0.11 l
-0.05 -0.11 l
-0.05 -0.11 l
-0.06 -0.11 l
-0.05 -0.11 l
-0.06 -0.10 l
-0.06 -0.11 l
-0.06 -0.10 l
-0.07 -0.10 l
-0.07 -0.10 l
-0.06 -0.11 l
-0.07 -0.09 l
-0.07 -0.10 l
-0.08 -0.10 l
-0.07 -0.10 l
-0.08 -0.09 l
-0.08 -0.09 l
-0.08 -0.09 l
-0.08 -0.10 l
-0.08 -0.08 l
-0.09 -0.09 l
-0.08 -0.09 l
-0.09 -0.08 l
-0.09 -0.09 l
-0.09 -0.08 l
-0.09 -0.08 l
-0.10 -0.08 l
-0.09 -0.07 l
-0.10 -0.08 l
-0.09 -0.07 l
-0.10 -0.07 l
-0.10 -0.07 l
-0.10 -0.07 l
-0.11 -0.07 l
-0.10 -0.06 l
-0.10 -0.06 l
-0.11 -0.07 l
-0.11 -0.06 l
-0.11 -0.05 l
-0.10 -0.06 l
-0.11 -0.05 l
-0.12 -0.05 l
-0.11 -0.05 l
-0.11 -0.05 l
-0.11 -0.05 l
-0.12 -0.04 l
-0.11 -0.05 l
-0.12 -0.04 l
-0.12 -0.03 l
-0.11 -0.04 l
-0.12 -0.03 l
-0.12 -0.04 l
-0.12 -0.03 l
-0.12 -0.03 l
-0.12 -0.02 l
-0.12 -0.03 l
-0.12 -0.02 l
-0.12 -0.02 l
-0.12 -0.01 l
-0.12 -0.02 l
-0.13 -0.01 l
-0.12 -0.02 l
-0.12 -0.01 l
-0.12 0 l
-0.13 -0.01 l
-0.12 0 l
-0.12 0 l
-0.13 0 l
-0.12 0 l
-0.12 0.01 l
-0.12 0 l
-0.13 0.01 l
-0.12 0.02 l
-0.12 0.01 l
-0.12 0.02 l
-0.12 0.01 l
-0.13 0.02 l
-0.12 0.02 l
-0.12 0.03 l
-0.12 0.02 l
-0.12 0.03 l
-0.12 0.03 l
-0.11 0.04 l
-0.12 0.03 l
-0.12 0.04 l
-0.12 0.03 l
517.69 340.13 lineto
-0.12 0.05 l
-0.11 0.04 l
-0.12 0.05 l
-0.11 0.05 l
-0.11 0.05 l
-0.11 0.05 l
-0.11 0.05 l
-0.11 0.06 l
-0.11 0.05 l
-0.10 0.06 l
-0.11 0.07 l
-0.11 0.06 l
-0.10 0.06 l
-0.10 0.07 l
-0.10 0.07 l
-0.10 0.07 l
-0.10 0.07 l
-0.10 0.07 l
-0.10 0.08 l
-0.09 0.07 l
-0.09 0.08 l
-0.10 0.08 l
-0.09 0.08 l
-0.09 0.09 l
-0.08 0.08 l
-0.09 0.09 l
-0.08 0.09 l
-0.09 0.08 l
-0.08 0.10 l
-0.08 0.09 l
-0.08 0.09 l
-0.07 0.09 l
-0.08 0.10 l
-0.07 0.10 l
-0.07 0.10 l
-0.07 0.09 l
-0.07 0.11 l
-0.07 0.10 l
-0.06 0.10 l
-0.06 0.10 l
-0.06 0.11 l
-0.06 0.10 l
-0.06 0.11 l
-0.05 0.11 l
-0.06 0.11 l
-0.05 0.11 l
-0.05 0.11 l
-0.04 0.11 l
-0.05 0.11 l
-0.04 0.12 l
-0.04 0.11 l
-0.04 0.11 l
-0.04 0.12 l
-0.03 0.11 l
-0.04 0.12 l
-0.03 0.12 l
-0.03 0.11 l
-0.02 0.12 l
-0.03 0.12 l
-0.02 0.12 l
-0.02 0.12 l
-0.02 0.12 l
-0.01 0.12 l
-0.02 0.12 l
-0.01 0.12 l
-0.01 0.12 l
-0.01 0.12 l
0 0.12 l
-0.01 0.12 l
0 0.12 l
0 0.12 l
0.01 0.12 l
0 0.12 l
0.01 0.12 l
0.01 0.12 l
0.01 0.12 l
0.02 0.12 l
0.01 0.12 l
0.02 0.12 l
0.02 0.12 l
0.02 0.12 l
0.03 0.12 l
0.02 0.11 l
0.03 0.12 l
0.03 0.12 l
0.04 0.11 l
0.03 0.12 l
0.04 0.12 l
0.04 0.11 l
0.04 0.11 l
0.04 0.12 l
0.05 0.11 l
0.04 0.11 l
0.05 0.11 l
0.05 0.11 l
0.06 0.11 l
0.05 0.11 l
0.06 0.10 l
0.06 0.11 l
514.00 350.09 lineto
0.06 0.10 l
0.06 0.10 l
0.07 0.10 l
0.07 0.10 l
0.07 0.10 l
0.07 0.10 l
0.07 0.10 l
0.08 0.09 l
0.07 0.10 l
0.08 0.09 l
0.08 0.09 l
0.08 0.09 l
0.09 0.09 l
0.08 0.09 l
0.09 0.09 l
0.08 0.08 l
0.09 0.08 l
0.09 0.09 l
0.10 0.08 l
0.09 0.07 l
0.09 0.08 l
0.10 0.08 l
0.10 0.07 l
0.10 0.07 l
0.10 0.07 l
0.10 0.07 l
0.10 0.07 l
0.10 0.06 l
0.11 0.06 l
0.11 0.07 l
0.10 0.05 l
0.11 0.06 l
0.11 0.06 l
0.11 0.05 l
0.11 0.05 l
0.11 0.05 l
0.11 0.05 l
0.12 0.05 l
0.11 0.04 l
0.12 0.04 l
0.11 0.04 l
0.12 0.04 l
0.12 0.04 l
0.12 0.03 l
0.11 0.04 l
0.12 0.03 l
0.12 0.02 l
0.12 0.03 l
0.12 0.02 l
0.12 0.03 l
0.13 0.02 l
0.12 0.01 l
0.12 0.02 l
0.12 0.01 l
0.12 0.02 l
0.13 0 l
0.12 0.01 l
0.12 0.01 l
0.12 0 l
0.13 0 l
0 0 l
o
np
520.10 353.54 m
0.12 0 l
0.12 0 l
0.13 -0.01 l
0.12 -0.01 l
0.12 0 l
0.12 -0.02 l
0.13 -0.01 l
0.12 -0.02 l
0.12 -0.01 l
0.12 -0.02 l
0.12 -0.03 l
0.12 -0.02 l
0.12 -0.03 l
0.12 -0.02 l
0.12 -0.03 l
0.12 -0.04 l
0.12 -0.03 l
0.11 -0.04 l
0.12 -0.04 l
0.12 -0.04 l
0.11 -0.04 l
0.12 -0.04 l
0.11 -0.05 l
0.11 -0.05 l
0.11 -0.05 l
0.12 -0.05 l
0.11 -0.05 l
0.10 -0.06 l
0.11 -0.06 l
0.11 -0.05 l
0.11 -0.07 l
0.10 -0.06 l
0.10 -0.06 l
0.11 -0.07 l
0.10 -0.07 l
0.10 -0.07 l
0.10 -0.07 l
0.09 -0.07 l
0.10 -0.08 l
0.09 -0.08 l
0.10 -0.07 l
0.09 -0.08 l
0.09 -0.09 l
0.09 -0.08 l
0.09 -0.08 l
0.08 -0.09 l
0.09 -0.09 l
0.08 -0.09 l
0.08 -0.09 l
0.08 -0.09 l
0.08 -0.09 l
0.08 -0.10 l
0.07 -0.09 l
0.08 -0.10 l
0.07 -0.10 l
0.07 -0.10 l
0.06 -0.10 l
0.07 -0.10 l
0.07 -0.10 l
0.06 -0.10 l
0.06 -0.11 l
0.06 -0.11 l
0.05 -0.10 l
0.06 -0.11 l
0.05 -0.11 l
0.05 -0.11 l
0.05 -0.11 l
0.05 -0.11 l
0.04 -0.11 l
0.05 -0.12 l
0.04 -0.11 l
0.04 -0.11 l
0.03 -0.12 l
0.04 -0.12 l
0.03 -0.11 l
0.03 -0.12 l
0.03 -0.12 l
0.03 -0.11 l
0.02 -0.12 l
0.02 -0.12 l
0.02 -0.12 l
0.02 -0.12 l
0.02 -0.12 l
0.01 -0.12 l
0.01 -0.12 l
0.01 -0.12 l
0.01 -0.12 l
0.01 -0.12 l
0 -0.12 l
0 -0.12 l
0 -0.12 l
0 -0.12 l
-0.01 -0.12 l
-0.01 -0.12 l
-0.01 -0.12 l
-0.01 -0.12 l
-0.01 -0.12 l
-0.02 -0.12 l
-0.02 -0.12 l
527.03 345.43 lineto
-0.02 -0.12 l
-0.02 -0.12 l
-0.03 -0.12 l
-0.03 -0.11 l
-0.03 -0.12 l
-0.03 -0.12 l
-0.04 -0.11 l
-0.03 -0.12 l
-0.04 -0.11 l
-0.04 -0.11 l
-0.05 -0.12 l
-0.04 -0.11 l
-0.05 -0.11 l
-0.05 -0.11 l
-0.05 -0.11 l
-0.05 -0.11 l
-0.06 -0.11 l
-0.05 -0.11 l
-0.06 -0.10 l
-0.06 -0.11 l
-0.06 -0.10 l
-0.07 -0.10 l
-0.07 -0.10 l
-0.06 -0.11 l
-0.07 -0.09 l
-0.07 -0.10 l
-0.08 -0.10 l
-0.07 -0.10 l
-0.08 -0.09 l
-0.08 -0.09 l
-0.08 -0.09 l
-0.08 -0.10 l
-0.08 -0.08 l
-0.09 -0.09 l
-0.08 -0.09 l
-0.09 -0.08 l
-0.09 -0.09 l
-0.09 -0.08 l
-0.09 -0.08 l
-0.10 -0.08 l
-0.09 -0.07 l
-0.10 -0.08 l
-0.09 -0.07 l
-0.10 -0.07 l
-0.10 -0.07 l
-0.10 -0.07 l
-0.11 -0.07 l
-0.10 -0.06 l
-0.10 -0.06 l
-0.11 -0.07 l
-0.11 -0.06 l
-0.11 -0.05 l
-0.10 -0.06 l
-0.11 -0.05 l
-0.12 -0.05 l
-0.11 -0.05 l
-0.11 -0.05 l
-0.11 -0.05 l
-0.12 -0.04 l
-0.11 -0.05 l
-0.12 -0.04 l
-0.12 -0.03 l
-0.11 -0.04 l
-0.12 -0.03 l
-0.12 -0.04 l
-0.12 -0.03 l
-0.12 -0.03 l
-0.12 -0.02 l
-0.12 -0.03 l
-0.12 -0.02 l
-0.12 -0.02 l
-0.12 -0.01 l
-0.12 -0.02 l
-0.13 -0.01 l
-0.12 -0.02 l
-0.12 -0.01 l
-0.12 0 l
-0.13 -0.01 l
-0.12 0 l
-0.12 0 l
0 13.82 l
o
np
 520.10 339.72 m
-0.13 0 l
-0.12 0 l
-0.12 0.01 l
-0.12 0 l
-0.13 0.01 l
-0.12 0.02 l
-0.12 0.01 l
-0.12 0.02 l
-0.12 0.01 l
-0.13 0.02 l
-0.12 0.02 l
-0.12 0.03 l
-0.12 0.02 l
-0.12 0.03 l
-0.12 0.03 l
-0.11 0.04 l
-0.12 0.03 l
-0.12 0.04 l
-0.12 0.03 l
-0.11 0.04 l
-0.12 0.05 l
-0.11 0.04 l
-0.12 0.05 l
-0.11 0.05 l
-0.11 0.05 l
-0.11 0.05 l
-0.11 0.05 l
-0.11 0.06 l
-0.11 0.05 l
-0.10 0.06 l
-0.11 0.07 l
-0.11 0.06 l
-0.10 0.06 l
-0.10 0.07 l
-0.10 0.07 l
-0.10 0.07 l
-0.10 0.07 l
-0.10 0.07 l
-0.10 0.08 l
-0.09 0.07 l
-0.09 0.08 l
-0.10 0.08 l
-0.09 0.08 l
-0.09 0.09 l
-0.08 0.08 l
-0.09 0.09 l
-0.08 0.09 l
-0.09 0.08 l
-0.08 0.10 l
-0.08 0.09 l
-0.08 0.09 l
-0.07 0.09 l
-0.08 0.10 l
-0.07 0.10 l
-0.07 0.10 l
-0.07 0.09 l
-0.07 0.11 l
-0.07 0.10 l
-0.06 0.10 l
-0.06 0.10 l
-0.06 0.11 l
-0.06 0.10 l
-0.06 0.11 l
-0.05 0.11 l
-0.06 0.11 l
-0.05 0.11 l
-0.05 0.11 l
-0.04 0.11 l
-0.05 0.11 l
-0.04 0.12 l
-0.04 0.11 l
-0.04 0.11 l
-0.04 0.12 l
-0.03 0.11 l
-0.04 0.12 l
-0.03 0.12 l
-0.03 0.11 l
-0.02 0.12 l
-0.03 0.12 l
-0.02 0.12 l
-0.02 0.12 l
-0.02 0.12 l
-0.01 0.12 l
-0.02 0.12 l
-0.01 0.12 l
-0.01 0.12 l
-0.01 0.12 l
0 0.12 l
-0.01 0.12 l
0 0.12 l
0 0.12 l
0.01 0.12 l
0 0.12 l
0.01 0.12 l
0.01 0.12 l
0.01 0.12 l
0.02 0.12 l
0.01 0.12 l
0.02 0.12 l
513.16 347.83 lineto
0.02 0.12 l
0.03 0.12 l
0.02 0.11 l
0.03 0.12 l
0.03 0.12 l
0.04 0.11 l
0.03 0.12 l
0.04 0.12 l
0.04 0.11 l
0.04 0.11 l
0.04 0.12 l
0.05 0.11 l
0.04 0.11 l
0.05 0.11 l
0.05 0.11 l
0.06 0.11 l
0.05 0.11 l
0.06 0.10 l
0.06 0.11 l
0.06 0.11 l
0.06 0.10 l
0.06 0.10 l
0.07 0.10 l
0.07 0.10 l
0.07 0.10 l
0.07 0.10 l
0.07 0.10 l
0.08 0.09 l
0.07 0.10 l
0.08 0.09 l
0.08 0.09 l
0.08 0.09 l
0.09 0.09 l
0.08 0.09 l
0.09 0.09 l
0.08 0.08 l
0.09 0.08 l
0.09 0.09 l
0.10 0.08 l
0.09 0.07 l
0.09 0.08 l
0.10 0.08 l
0.10 0.07 l
0.10 0.07 l
0.10 0.07 l
0.10 0.07 l
0.10 0.07 l
0.10 0.06 l
0.11 0.06 l
0.11 0.07 l
0.10 0.05 l
0.11 0.06 l
0.11 0.06 l
0.11 0.05 l
0.11 0.05 l
0.11 0.05 l
0.11 0.05 l
0.12 0.05 l
0.11 0.04 l
0.12 0.04 l
0.11 0.04 l
0.12 0.04 l
0.12 0.04 l
0.12 0.03 l
0.11 0.04 l
0.12 0.03 l
0.12 0.02 l
0.12 0.03 l
0.12 0.02 l
0.12 0.03 l
0.13 0.02 l
0.12 0.01 l
0.12 0.02 l
0.12 0.01 l
0.12 0.02 l
0.13 0 l
0.12 0.01 l
0.12 0.01 l
0.12 0 l
0.13 0 l
cp p3
np
82.52 533.59 m
18.77 21.04 l
o
np
153.89 434.85 m
18.76 21.04 l
o
np
225.25 533.59 m
18.77 21.04 l
o
np
225.25 434.85 m
18.77 21.04 l
o
np
296.62 533.59 m
18.76 21.04 l
o
np
367.98 434.85 m
18.77 21.04 l
o
np
439.35 434.85 m
18.76 21.04 l
o
np
98.95 544.11 m
57.27 0 l
o
np
241.68 544.11 m
57.28 0 l
o
np
98.95 445.37 m
57.27 0 l
o
np
313.04 445.37 m
57.28 0 l
o
np
170.31 346.63 m
57.28 0 l
o
np
313.04 346.63 m
57.28 0 l
o
np
455.78 346.63 m
57.27 0 l
o
np
163.27 453.27 m
0 21.72 l
o
np
234.63 453.27 m
0 21.72 l
o
np
306.00 453.27 m
0 21.72 l
o
np
163.27 474.99 m
142.73 0 l
o
np
234.63 474.99 m
0 20.74 l
o
np
234.63 495.73 m
-107.04 27.65 l
o
np
127.59 523.38 m
0 20.73 l
o
np
377.37 453.27 m
0 21.72 l
o
np
448.73 453.27 m
0 21.72 l
o
np
377.37 474.99 m
71.36 0 l
o
np
413.05 474.99 m
0 20.74 l
o
np
413.05 495.73 m
-142.73 27.65 l
o
np
270.32 523.38 m
0 20.73 l
o
np
91.90 354.53 m
0 21.72 l
o
np
91.90 376.25 m
0 0 l
o
np
91.90 376.25 m
0 20.74 l
o
np
91.90 396.99 m
35.69 27.64 l
o
np
127.59 424.63 m
0 20.74 l
o
np
234.63 354.53 m
0 21.72 l
o
np
306.00 354.53 m
0 21.72 l
o
np
520.10 354.53 m
0 21.72 l
o
np
234.63 376.25 m
285.47 0 l
o
np
377.37 376.25 m
0 20.74 l
o
np
377.37 396.99 m
-35.69 27.64 l
o
np
341.68 424.63 m
0 20.74 l
o
np
91.90 255.79 m
0 21.72 l
o
np
91.90 277.51 m
0 0 l
o
np
91.90 277.51 m
0 20.74 l
o
np
91.90 298.25 m
107.05 27.64 l
o
np
198.95 325.89 m
0 20.74 l
o
np
163.27 255.79 m
0 21.72 l
o
np
163.27 277.51 m
0 0 l
o
np
163.27 277.51 m
0 20.74 l
o
np
163.27 298.25 m
178.41 27.64 l
o
np
341.68 325.89 m
0 20.74 l
o
np
234.63 255.79 m
0 21.72 l
o
np
306.00 255.79 m
0 21.72 l
o
np
377.37 255.79 m
0 21.72 l
o
np
448.73 255.79 m
0 21.72 l
o
np
234.63 277.51 m
214.10 0 l
o
np
341.68 277.51 m
0 20.74 l
o
np
341.68 298.25 m
142.73 27.64 l
o
np
484.41 325.89 m
0 20.74 l
o
np
209.66 331.82 m
17.84 4.94 l
o
np
222.45 331.62 m
5.05 5.14 l
-6.97 1.80 l
o
/ps 9 def /Font1 findfont 9 s
377.37 422.54 (87) .5 0 0 t
91.90 225.06 (32) .5 0 0 t
306.00 323.80 (50) .5 0 0 t
91.90 521.28 (96) .5 0 0 t
306.00 521.35 (75) .5 0 0 t
234.63 521.28 (94) .5 0 0 t
163.27 422.54 (85) .5 0 0 t
234.63 422.54 (79) .5 0 0 t
163.27 225.06 (23) .5 0 0 t
234.63 224.98 (12) .5 0 0 t
306.00 224.98 (22) .5 0 0 t
377.37 225.06 (19) .5 0 0 t
448.73 225.06 (16) .5 0 0 t
91.90 323.80 (54) .5 0 0 t
91.90 422.53 (77) .5 0 0 t
234.63 324.50 (BC \(1\)  57) .5 0 0 t
520.10 324.50 (BC \(1\)  45) .5 0 0 t
448.73 423.24 (BC \(1\)  85) .5 0 0 t
306.00 422.39 (OC  69) .5 0 0 t
163.27 521.13 (OC  65) .5 0 0 t
ep
%%Trailer
%%Pages: 1
%%EOF
