%!PS-Adobe-3.0
%%DocumentNeededResources: font Helvetica
%%+ font Helvetica-Bold
%%+ font Helvetica-Oblique
%%+ font Helvetica-BoldOblique
%%+ font Symbol
%%DocumentMedia: letter 612 792 0 () ()
%%Title: R Graphics Output
%%Creator: R Software
%%Pages: (atend)
%%Orientation: Landscape
%%BoundingBox: 18 18 594 774
%%EndComments
%%BeginProlog
/bp  { gs 612.00 0 translate 90 rotate gs } def
% begin .ps.prolog
/gs  { gsave } def
/gr  { grestore } def
/ep  { showpage gr gr } def
/m   { moveto } def
/l  { rlineto } def
/np  { newpath } def
/cp  { closepath } def
/f   { fill } def
/o   { stroke } def
/c   { newpath 0 360 arc } def
/r   { 4 2 roll moveto 1 copy 3 -1 roll exch 0 exch rlineto 0 rlineto -1 mul 0 exch rlineto closepath } def
/p1  { stroke } def
/p2  { gsave bg setrgbcolor fill grestore newpath } def
/p3  { gsave bg setrgbcolor fill grestore stroke } def
/t   { 6 -2 roll moveto gsave rotate
       ps mul neg 0 2 1 roll rmoveto
       1 index stringwidth pop
       mul neg 0 rmoveto show grestore } def
/cl  { grestore gsave newpath 3 index 3 index moveto 1 index
       4 -1 roll lineto  exch 1 index lineto lineto
       closepath clip newpath } def
/rgb { setrgbcolor } def
/s   { scalefont setfont } def
% end   .ps.prolog
% begin encoding
/WinAnsiEncoding [
 /.notdef /.notdef /.notdef /.notdef /.notdef /.notdef /.notdef /.notdef
 /.notdef /.notdef /.notdef /.notdef /.notdef /.notdef /.notdef /.notdef
 /.notdef /.notdef /.notdef /.notdef /.notdef /.notdef /.notdef /.notdef
 /.notdef /.notdef /.notdef /.notdef /.notdef /.notdef /.notdef /.notdef
 /space /exclam /quotedbl /numbersign /dollar /percent /ampersand /quoteright
 /parenleft /parenright /asterisk /plus /comma /minus /period /slash
 /zero /one /two /three /four /five /six /seven
 /eight /nine /colon /semicolon /less /equal /greater /question
 /at /A /B /C /D /E /F /G
 /H /I /J /K /L /M /N /O
 /P /Q /R /S /T /U /V /W
 /X /Y /Z /bracketleft /backslash /bracketright /asciicircum /underscore
 /grave /a /b /c /d /e /f /g
 /h /i /j /k /l /m /n /o
 /p /q /r /s /t /u /v /w
 /x /y /z /braceleft /bar /braceright /asciitilde /.notdef
 /Euro /.notdef /quotesinglbase /florin /quotedblbase /ellipsis /dagger /daggerdbl
 /circumflex /perthousand /Scaron /guilsinglleft /OE /.notdef /Zcaron /.notdef
 /.notdef /quoteleft /quoteright /quotedblleft /quotedblright /bullet /endash /emdash
 /tilde /trademark /scaron /guilsinglright /oe /.notdef /zcaron /Ydieresis
 /space /exclamdown /cent /sterling /currency /yen /brokenbar /section
 /dieresis /copyright /ordfeminine /guillemotleft /logicalnot /hyphen /registered /macron
 /degree /plusminus /twosuperior /threesuperior /acute /mu /paragraph /periodcentered
 /cedilla /onesuperior /ordmasculine /guillemotright /onequarter /onehalf /threequarters /questiondown
 /Agrave /Aacute /Acircumflex /Atilde /Adieresis /Aring /AE /Ccedilla
 /Egrave /Eacute /Ecircumflex /Edieresis /Igrave /Iacute /Icircumflex /Idieresis
 /Eth /Ntilde /Ograve /Oacute /Ocircumflex /Otilde /Odieresis /multiply
 /Oslash /Ugrave /Uacute /Ucircumflex /Udieresis /Yacute /Thorn /germandbls
 /agrave /aacute /acircumflex /atilde /adieresis /aring /ae /ccedilla
 /egrave /eacute /ecircumflex /edieresis /igrave /iacute /icircumflex /idieresis
 /eth /ntilde /ograve /oacute /ocircumflex /otilde /odieresis /divide
 /oslash /ugrave /uacute /ucircumflex /udieresis /yacute /thorn /ydieresis
]
 def
% end encoding
%%IncludeResource: font Helvetica
/Helvetica findfont
dup length dict begin
  {1 index /FID ne {def} {pop pop} ifelse} forall
  /Encoding WinAnsiEncoding def
  currentdict
  end
/Font1 exch definefont pop
%%IncludeResource: font Helvetica-Bold
/Helvetica-Bold findfont
dup length dict begin
  {1 index /FID ne {def} {pop pop} ifelse} forall
  /Encoding WinAnsiEncoding def
  currentdict
  end
/Font2 exch definefont pop
%%IncludeResource: font Helvetica-Oblique
/Helvetica-Oblique findfont
dup length dict begin
  {1 index /FID ne {def} {pop pop} ifelse} forall
  /Encoding WinAnsiEncoding def
  currentdict
  end
/Font3 exch definefont pop
%%IncludeResource: font Helvetica-BoldOblique
/Helvetica-BoldOblique findfont
dup length dict begin
  {1 index /FID ne {def} {pop pop} ifelse} forall
  /Encoding WinAnsiEncoding def
  currentdict
  end
/Font4 exch definefont pop
%%IncludeResource: font Symbol
/Symbol findfont
dup length dict begin
  {1 index /FID ne {def} {pop pop} ifelse} forall
  currentdict
  end
/Font5 exch definefont pop
%%EndProlog
%%Page: 1 1
bp
18.00 18.00 774.00 594.00 cl
0 0 0 rgb
0.75 setlinewidth
[] 0 setdash
1 setlinecap
1 setlinejoin
10.00 setmiterlimit
np
49.16 507.82 m
0 20.36 l
20.35 0 l
0 -20.36 l
-20.35 0 l
o
np
49.16 225.16 m
0 20.35 l
20.35 0 l
0 -20.35 l
-20.35 0 l
o
np
183.82 83.82 m
0 20.36 l
20.36 0 l
0 -20.36 l
-20.36 0 l
o
np
318.49 507.82 m
0 20.36 l
20.35 0 l
0 -20.36 l
-20.35 0 l
o
np
318.49 225.16 m
0 20.35 l
20.35 0 l
0 -20.35 l
-20.35 0 l
o
np
318.49 83.82 m
0 20.36 l
20.35 0 l
0 -20.36 l
-20.35 0 l
o
np
453.16 366.49 m
0 20.35 l
20.35 0 l
0 -20.35 l
-20.35 0 l
o
np
587.82 225.16 m
0 20.35 l
20.36 0 l
0 -20.35 l
-20.36 0 l
o
np
59.33 386.84 m
0.18 0 l
0.18 0 l
0.18 -0.01 l
0.17 -0.01 l
0.18 -0.02 l
0.18 -0.01 l
0.17 -0.02 l
0.18 -0.03 l
0.18 -0.02 l
0.17 -0.03 l
0.18 -0.03 l
0.17 -0.04 l
0.17 -0.04 l
0.18 -0.04 l
0.17 -0.04 l
0.17 -0.05 l
0.17 -0.05 l
0.17 -0.06 l
0.17 -0.05 l
0.16 -0.06 l
0.17 -0.06 l
0.17 -0.07 l
0.16 -0.07 l
0.16 -0.07 l
0.16 -0.07 l
0.16 -0.08 l
0.16 -0.08 l
0.16 -0.08 l
0.16 -0.08 l
0.15 -0.09 l
0.15 -0.09 l
0.16 -0.09 l
0.15 -0.10 l
0.14 -0.10 l
0.15 -0.10 l
0.14 -0.10 l
0.15 -0.11 l
0.14 -0.10 l
0.14 -0.12 l
0.13 -0.11 l
0.14 -0.11 l
0.13 -0.12 l
0.13 -0.12 l
0.13 -0.12 l
0.13 -0.13 l
0.12 -0.12 l
0.13 -0.13 l
0.12 -0.13 l
0.11 -0.14 l
0.12 -0.13 l
0.11 -0.14 l
0.11 -0.14 l
0.11 -0.14 l
0.11 -0.14 l
0.10 -0.15 l
0.10 -0.14 l
0.10 -0.15 l
0.09 -0.15 l
0.10 -0.15 l
0.09 -0.16 l
0.08 -0.15 l
0.09 -0.16 l
0.08 -0.15 l
0.08 -0.16 l
0.08 -0.16 l
0.07 -0.16 l
0.07 -0.17 l
0.07 -0.16 l
0.06 -0.17 l
0.07 -0.16 l
0.05 -0.17 l
0.06 -0.17 l
0.05 -0.17 l
0.06 -0.17 l
0.04 -0.17 l
0.05 -0.17 l
0.04 -0.17 l
0.04 -0.18 l
0.03 -0.17 l
0.03 -0.18 l
0.03 -0.17 l
0.03 -0.18 l
0.02 -0.17 l
0.02 -0.18 l
0.02 -0.18 l
0.01 -0.17 l
0.02 -0.18 l
0 -0.18 l
0.01 -0.18 l
0 -0.17 l
0 -0.18 l
-0.01 -0.18 l
0 -0.18 l
-0.02 -0.17 l
-0.01 -0.18 l
-0.02 -0.18 l
-0.02 -0.17 l
-0.02 -0.18 l
-0.03 -0.18 l
69.35 374.90 lineto
-0.03 -0.18 l
-0.03 -0.17 l
-0.04 -0.17 l
-0.04 -0.18 l
-0.05 -0.17 l
-0.04 -0.17 l
-0.06 -0.17 l
-0.05 -0.17 l
-0.06 -0.17 l
-0.05 -0.16 l
-0.07 -0.17 l
-0.06 -0.17 l
-0.07 -0.16 l
-0.07 -0.16 l
-0.07 -0.16 l
-0.08 -0.16 l
-0.08 -0.16 l
-0.08 -0.16 l
-0.09 -0.16 l
-0.08 -0.15 l
-0.09 -0.15 l
-0.10 -0.16 l
-0.09 -0.15 l
-0.10 -0.14 l
-0.10 -0.15 l
-0.10 -0.14 l
-0.11 -0.15 l
-0.11 -0.14 l
-0.11 -0.14 l
-0.11 -0.13 l
-0.12 -0.14 l
-0.11 -0.13 l
-0.12 -0.13 l
-0.13 -0.13 l
-0.12 -0.13 l
-0.13 -0.12 l
-0.13 -0.13 l
-0.13 -0.12 l
-0.13 -0.11 l
-0.14 -0.12 l
-0.13 -0.11 l
-0.14 -0.11 l
-0.14 -0.11 l
-0.15 -0.11 l
-0.14 -0.10 l
-0.15 -0.10 l
-0.14 -0.10 l
-0.15 -0.09 l
-0.16 -0.10 l
-0.15 -0.09 l
-0.15 -0.08 l
-0.16 -0.09 l
-0.16 -0.08 l
-0.16 -0.08 l
-0.16 -0.08 l
-0.16 -0.07 l
-0.16 -0.07 l
-0.16 -0.07 l
-0.17 -0.06 l
-0.17 -0.07 l
-0.16 -0.05 l
-0.17 -0.06 l
-0.17 -0.05 l
-0.17 -0.06 l
-0.17 -0.04 l
-0.17 -0.05 l
-0.18 -0.04 l
-0.17 -0.04 l
-0.17 -0.03 l
-0.18 -0.03 l
-0.17 -0.03 l
-0.18 -0.03 l
-0.18 -0.02 l
-0.17 -0.02 l
-0.18 -0.02 l
-0.18 -0.01 l
-0.17 -0.02 l
-0.18 0 l
-0.18 -0.01 l
-0.18 0 l
-0.17 0 l
-0.18 0.01 l
-0.18 0 l
-0.18 0.02 l
-0.17 0.01 l
-0.18 0.02 l
-0.18 0.02 l
-0.17 0.02 l
-0.18 0.03 l
-0.17 0.03 l
-0.18 0.03 l
-0.17 0.03 l
-0.18 0.04 l
-0.17 0.04 l
-0.17 0.05 l
-0.17 0.04 l
-0.17 0.06 l
-0.17 0.05 l
-0.17 0.06 l
55.85 367.10 lineto
-0.16 0.07 l
-0.17 0.06 l
-0.16 0.07 l
-0.17 0.07 l
-0.16 0.07 l
-0.16 0.08 l
-0.16 0.08 l
-0.15 0.08 l
-0.16 0.09 l
-0.15 0.08 l
-0.16 0.09 l
-0.15 0.10 l
-0.15 0.09 l
-0.15 0.10 l
-0.14 0.10 l
-0.15 0.10 l
-0.14 0.11 l
-0.14 0.11 l
-0.14 0.11 l
-0.14 0.11 l
-0.13 0.12 l
-0.14 0.11 l
-0.13 0.12 l
-0.13 0.13 l
-0.12 0.12 l
-0.13 0.13 l
-0.12 0.13 l
-0.12 0.13 l
-0.12 0.13 l
-0.11 0.14 l
-0.11 0.13 l
-0.12 0.14 l
-0.10 0.14 l
-0.11 0.15 l
-0.10 0.14 l
-0.10 0.15 l
-0.10 0.14 l
-0.10 0.15 l
-0.09 0.16 l
-0.09 0.15 l
-0.09 0.15 l
-0.08 0.16 l
-0.08 0.16 l
-0.08 0.16 l
-0.08 0.16 l
-0.07 0.16 l
-0.07 0.16 l
-0.07 0.16 l
-0.07 0.17 l
-0.06 0.17 l
-0.06 0.16 l
-0.05 0.17 l
-0.06 0.17 l
-0.05 0.17 l
-0.05 0.17 l
-0.04 0.17 l
-0.04 0.18 l
-0.04 0.17 l
-0.04 0.17 l
-0.03 0.18 l
-0.03 0.17 l
-0.02 0.18 l
-0.03 0.18 l
-0.02 0.17 l
-0.01 0.18 l
-0.02 0.18 l
-0.01 0.17 l
-0.01 0.18 l
0 0.18 l
0 0.18 l
0 0.17 l
0 0.18 l
0.01 0.18 l
0.01 0.18 l
0.02 0.17 l
0.01 0.18 l
0.02 0.18 l
0.03 0.17 l
0.02 0.18 l
0.03 0.17 l
0.03 0.18 l
0.04 0.17 l
0.04 0.18 l
0.04 0.17 l
0.04 0.17 l
0.05 0.17 l
0.05 0.17 l
0.06 0.17 l
0.05 0.17 l
0.06 0.17 l
0.06 0.16 l
0.07 0.17 l
0.07 0.16 l
0.07 0.17 l
0.07 0.16 l
0.08 0.16 l
0.08 0.16 l
0.08 0.15 l
0.08 0.16 l
50.52 381.75 lineto
0.09 0.16 l
0.09 0.15 l
0.10 0.15 l
0.10 0.15 l
0.10 0.14 l
0.10 0.15 l
0.11 0.14 l
0.10 0.14 l
0.12 0.14 l
0.11 0.14 l
0.11 0.13 l
0.12 0.14 l
0.12 0.13 l
0.12 0.13 l
0.13 0.12 l
0.12 0.13 l
0.13 0.12 l
0.13 0.12 l
0.14 0.12 l
0.13 0.11 l
0.14 0.11 l
0.14 0.12 l
0.14 0.10 l
0.14 0.11 l
0.15 0.10 l
0.14 0.10 l
0.15 0.10 l
0.15 0.10 l
0.15 0.09 l
0.16 0.09 l
0.15 0.09 l
0.16 0.08 l
0.15 0.08 l
0.16 0.08 l
0.16 0.08 l
0.16 0.07 l
0.17 0.07 l
0.16 0.07 l
0.17 0.07 l
0.16 0.06 l
0.17 0.06 l
0.17 0.05 l
0.17 0.06 l
0.17 0.05 l
0.17 0.05 l
0.17 0.04 l
0.17 0.04 l
0.18 0.04 l
0.17 0.04 l
0.18 0.03 l
0.17 0.03 l
0.18 0.02 l
0.17 0.03 l
0.18 0.02 l
0.18 0.01 l
0.17 0.02 l
0.18 0.01 l
0.18 0.01 l
0.18 0 l
0.17 0 l
0 0 l
o
np
59.33 104.18 m
0.18 -0.01 l
0.18 0 l
0.18 -0.01 l
0.17 -0.01 l
0.18 -0.01 l
0.18 -0.02 l
0.17 -0.02 l
0.18 -0.02 l
0.18 -0.03 l
0.17 -0.03 l
0.18 -0.03 l
0.17 -0.04 l
0.17 -0.03 l
0.18 -0.05 l
0.17 -0.04 l
0.17 -0.05 l
0.17 -0.05 l
0.17 -0.05 l
0.17 -0.06 l
0.16 -0.06 l
0.17 -0.06 l
0.17 -0.06 l
0.16 -0.07 l
0.16 -0.07 l
0.16 -0.08 l
0.16 -0.07 l
0.16 -0.08 l
0.16 -0.09 l
0.16 -0.08 l
0.15 -0.09 l
0.15 -0.09 l
0.16 -0.09 l
0.15 -0.10 l
0.14 -0.09 l
0.15 -0.10 l
0.14 -0.11 l
0.15 -0.10 l
0.14 -0.11 l
0.14 -0.11 l
0.13 -0.11 l
0.14 -0.12 l
0.13 -0.12 l
0.13 -0.12 l
0.13 -0.12 l
0.13 -0.12 l
0.12 -0.13 l
0.13 -0.13 l
0.12 -0.13 l
0.11 -0.13 l
0.12 -0.14 l
0.11 -0.14 l
0.11 -0.14 l
0.11 -0.14 l
0.11 -0.14 l
0.10 -0.14 l
0.10 -0.15 l
0.10 -0.15 l
0.09 -0.15 l
0.10 -0.15 l
0.09 -0.15 l
0.08 -0.16 l
0.09 -0.15 l
0.08 -0.16 l
0.08 -0.16 l
0.08 -0.16 l
0.07 -0.16 l
0.07 -0.16 l
0.07 -0.17 l
0.06 -0.16 l
0.07 -0.17 l
0.05 -0.17 l
0.06 -0.17 l
0.05 -0.16 l
0.06 -0.18 l
0.04 -0.17 l
0.05 -0.17 l
0.04 -0.17 l
0.04 -0.17 l
0.03 -0.18 l
0.03 -0.17 l
0.03 -0.18 l
0.03 -0.17 l
0.02 -0.18 l
0.02 -0.18 l
0.02 -0.17 l
0.01 -0.18 l
0.02 -0.18 l
0 -0.17 l
0.01 -0.18 l
0 -0.18 l
0 -0.18 l
-0.01 -0.18 l
0 -0.17 l
-0.02 -0.18 l
-0.01 -0.18 l
-0.02 -0.17 l
-0.02 -0.18 l
-0.02 -0.18 l
-0.03 -0.17 l
69.35 92.23 lineto
-0.03 -0.17 l
-0.03 -0.18 l
-0.04 -0.17 l
-0.04 -0.17 l
-0.05 -0.17 l
-0.04 -0.17 l
-0.06 -0.18 l
-0.05 -0.16 l
-0.06 -0.17 l
-0.05 -0.17 l
-0.07 -0.17 l
-0.06 -0.16 l
-0.07 -0.17 l
-0.07 -0.16 l
-0.07 -0.16 l
-0.08 -0.16 l
-0.08 -0.16 l
-0.08 -0.16 l
-0.09 -0.15 l
-0.08 -0.16 l
-0.09 -0.15 l
-0.10 -0.15 l
-0.09 -0.15 l
-0.10 -0.15 l
-0.10 -0.15 l
-0.10 -0.14 l
-0.11 -0.14 l
-0.11 -0.14 l
-0.11 -0.14 l
-0.11 -0.14 l
-0.12 -0.14 l
-0.11 -0.13 l
-0.12 -0.13 l
-0.13 -0.13 l
-0.12 -0.13 l
-0.13 -0.12 l
-0.13 -0.12 l
-0.13 -0.12 l
-0.13 -0.12 l
-0.14 -0.12 l
-0.13 -0.11 l
-0.14 -0.11 l
-0.14 -0.11 l
-0.15 -0.10 l
-0.14 -0.11 l
-0.15 -0.10 l
-0.14 -0.09 l
-0.15 -0.10 l
-0.16 -0.09 l
-0.15 -0.09 l
-0.15 -0.09 l
-0.16 -0.08 l
-0.16 -0.09 l
-0.16 -0.08 l
-0.16 -0.07 l
-0.16 -0.08 l
-0.16 -0.07 l
-0.16 -0.07 l
-0.17 -0.06 l
-0.17 -0.06 l
-0.16 -0.06 l
-0.17 -0.06 l
-0.17 -0.05 l
-0.17 -0.05 l
-0.17 -0.05 l
-0.17 -0.04 l
-0.18 -0.05 l
-0.17 -0.03 l
-0.17 -0.04 l
-0.18 -0.03 l
-0.17 -0.03 l
-0.18 -0.03 l
-0.18 -0.02 l
-0.17 -0.02 l
-0.18 -0.02 l
-0.18 -0.01 l
-0.17 -0.01 l
-0.18 -0.01 l
-0.18 0 l
-0.18 -0.01 l
-0.17 0.01 l
-0.18 0 l
-0.18 0.01 l
-0.18 0.01 l
-0.17 0.01 l
-0.18 0.02 l
-0.18 0.02 l
-0.17 0.02 l
-0.18 0.03 l
-0.17 0.03 l
-0.18 0.03 l
-0.17 0.04 l
-0.18 0.03 l
-0.17 0.05 l
-0.17 0.04 l
-0.17 0.05 l
-0.17 0.05 l
-0.17 0.05 l
-0.17 0.06 l
55.85 84.44 lineto
-0.16 0.06 l
-0.17 0.06 l
-0.16 0.07 l
-0.17 0.07 l
-0.16 0.08 l
-0.16 0.07 l
-0.16 0.08 l
-0.15 0.09 l
-0.16 0.08 l
-0.15 0.09 l
-0.16 0.09 l
-0.15 0.09 l
-0.15 0.10 l
-0.15 0.09 l
-0.14 0.10 l
-0.15 0.11 l
-0.14 0.10 l
-0.14 0.11 l
-0.14 0.11 l
-0.14 0.11 l
-0.13 0.12 l
-0.14 0.12 l
-0.13 0.12 l
-0.13 0.12 l
-0.12 0.12 l
-0.13 0.13 l
-0.12 0.13 l
-0.12 0.13 l
-0.12 0.13 l
-0.11 0.14 l
-0.11 0.14 l
-0.12 0.14 l
-0.10 0.14 l
-0.11 0.14 l
-0.10 0.14 l
-0.10 0.15 l
-0.10 0.15 l
-0.10 0.15 l
-0.09 0.15 l
-0.09 0.15 l
-0.09 0.16 l
-0.08 0.15 l
-0.08 0.16 l
-0.08 0.16 l
-0.08 0.16 l
-0.07 0.16 l
-0.07 0.16 l
-0.07 0.17 l
-0.07 0.16 l
-0.06 0.17 l
-0.06 0.17 l
-0.05 0.17 l
-0.06 0.16 l
-0.05 0.18 l
-0.05 0.17 l
-0.04 0.17 l
-0.04 0.17 l
-0.04 0.17 l
-0.04 0.18 l
-0.03 0.17 l
-0.03 0.18 l
-0.02 0.17 l
-0.03 0.18 l
-0.02 0.18 l
-0.01 0.17 l
-0.02 0.18 l
-0.01 0.18 l
-0.01 0.17 l
0 0.18 l
0 0.18 l
0 0.18 l
0 0.18 l
0.01 0.17 l
0.01 0.18 l
0.02 0.18 l
0.01 0.17 l
0.02 0.18 l
0.03 0.18 l
0.02 0.17 l
0.03 0.18 l
0.03 0.17 l
0.04 0.18 l
0.04 0.17 l
0.04 0.17 l
0.04 0.17 l
0.05 0.17 l
0.05 0.18 l
0.06 0.16 l
0.05 0.17 l
0.06 0.17 l
0.06 0.17 l
0.07 0.16 l
0.07 0.17 l
0.07 0.16 l
0.07 0.16 l
0.08 0.16 l
0.08 0.16 l
0.08 0.16 l
0.08 0.15 l
50.52 99.09 lineto
0.09 0.15 l
0.09 0.15 l
0.10 0.15 l
0.10 0.15 l
0.10 0.15 l
0.10 0.14 l
0.11 0.14 l
0.10 0.14 l
0.12 0.14 l
0.11 0.14 l
0.11 0.14 l
0.12 0.13 l
0.12 0.13 l
0.12 0.13 l
0.13 0.13 l
0.12 0.12 l
0.13 0.12 l
0.13 0.12 l
0.14 0.12 l
0.13 0.12 l
0.14 0.11 l
0.14 0.11 l
0.14 0.11 l
0.14 0.10 l
0.15 0.11 l
0.14 0.10 l
0.15 0.09 l
0.15 0.10 l
0.15 0.09 l
0.16 0.09 l
0.15 0.09 l
0.16 0.08 l
0.15 0.09 l
0.16 0.08 l
0.16 0.07 l
0.16 0.08 l
0.17 0.07 l
0.16 0.07 l
0.17 0.06 l
0.16 0.06 l
0.17 0.06 l
0.17 0.06 l
0.17 0.05 l
0.17 0.05 l
0.17 0.05 l
0.17 0.04 l
0.17 0.05 l
0.18 0.03 l
0.17 0.04 l
0.18 0.03 l
0.17 0.03 l
0.18 0.03 l
0.17 0.02 l
0.18 0.02 l
0.18 0.02 l
0.17 0.01 l
0.18 0.01 l
0.18 0.01 l
0.18 0 l
0.17 0.01 l
0 0 l
o
np
194.00 528.18 m
0.18 -0.01 l
0.18 0 l
0.17 -0.01 l
0.18 -0.01 l
0.18 -0.01 l
0.17 -0.02 l
0.18 -0.02 l
0.18 -0.02 l
0.17 -0.03 l
0.18 -0.03 l
0.17 -0.03 l
0.18 -0.04 l
0.17 -0.03 l
0.17 -0.05 l
0.17 -0.04 l
0.17 -0.05 l
0.18 -0.05 l
0.16 -0.05 l
0.17 -0.06 l
0.17 -0.06 l
0.17 -0.06 l
0.16 -0.06 l
0.17 -0.07 l
0.16 -0.07 l
0.16 -0.08 l
0.16 -0.07 l
0.16 -0.08 l
0.16 -0.09 l
0.15 -0.08 l
0.16 -0.09 l
0.15 -0.09 l
0.15 -0.09 l
0.15 -0.10 l
0.15 -0.09 l
0.15 -0.10 l
0.14 -0.11 l
0.14 -0.10 l
0.14 -0.11 l
0.14 -0.11 l
0.14 -0.11 l
0.14 -0.12 l
0.13 -0.12 l
0.13 -0.12 l
0.13 -0.12 l
0.13 -0.12 l
0.12 -0.13 l
0.12 -0.13 l
0.12 -0.13 l
0.12 -0.13 l
0.12 -0.14 l
0.11 -0.14 l
0.11 -0.14 l
0.11 -0.14 l
0.10 -0.14 l
0.11 -0.14 l
0.10 -0.15 l
0.09 -0.15 l
0.10 -0.15 l
0.09 -0.15 l
0.09 -0.15 l
0.09 -0.16 l
0.08 -0.15 l
0.09 -0.16 l
0.08 -0.16 l
0.07 -0.16 l
0.08 -0.16 l
0.07 -0.16 l
0.07 -0.17 l
0.06 -0.16 l
0.06 -0.17 l
0.06 -0.17 l
0.06 -0.17 l
0.05 -0.16 l
0.05 -0.18 l
0.05 -0.17 l
0.04 -0.17 l
0.05 -0.17 l
0.03 -0.17 l
0.04 -0.18 l
0.03 -0.17 l
0.03 -0.18 l
0.03 -0.17 l
0.02 -0.18 l
0.02 -0.18 l
0.02 -0.17 l
0.01 -0.18 l
0.01 -0.18 l
0.01 -0.17 l
0 -0.18 l
0.01 -0.18 l
-0.01 -0.18 l
0 -0.18 l
-0.01 -0.17 l
-0.01 -0.18 l
-0.01 -0.18 l
-0.02 -0.17 l
-0.02 -0.18 l
-0.02 -0.18 l
-0.03 -0.17 l
204.02 516.23 lineto
-0.03 -0.17 l
-0.04 -0.18 l
-0.03 -0.17 l
-0.05 -0.17 l
-0.04 -0.17 l
-0.05 -0.17 l
-0.05 -0.18 l
-0.05 -0.16 l
-0.06 -0.17 l
-0.06 -0.17 l
-0.06 -0.17 l
-0.06 -0.16 l
-0.07 -0.17 l
-0.07 -0.16 l
-0.08 -0.16 l
-0.07 -0.16 l
-0.08 -0.16 l
-0.09 -0.16 l
-0.08 -0.15 l
-0.09 -0.16 l
-0.09 -0.15 l
-0.09 -0.15 l
-0.10 -0.15 l
-0.09 -0.15 l
-0.10 -0.15 l
-0.11 -0.14 l
-0.10 -0.14 l
-0.11 -0.14 l
-0.11 -0.14 l
-0.11 -0.14 l
-0.12 -0.14 l
-0.12 -0.13 l
-0.12 -0.13 l
-0.12 -0.13 l
-0.12 -0.13 l
-0.13 -0.12 l
-0.13 -0.12 l
-0.13 -0.12 l
-0.13 -0.12 l
-0.14 -0.12 l
-0.14 -0.11 l
-0.14 -0.11 l
-0.14 -0.11 l
-0.14 -0.10 l
-0.14 -0.11 l
-0.15 -0.10 l
-0.15 -0.09 l
-0.15 -0.10 l
-0.15 -0.09 l
-0.15 -0.09 l
-0.16 -0.09 l
-0.15 -0.08 l
-0.16 -0.09 l
-0.16 -0.08 l
-0.16 -0.07 l
-0.16 -0.08 l
-0.16 -0.07 l
-0.17 -0.07 l
-0.16 -0.06 l
-0.17 -0.06 l
-0.17 -0.06 l
-0.17 -0.06 l
-0.16 -0.05 l
-0.18 -0.05 l
-0.17 -0.05 l
-0.17 -0.04 l
-0.17 -0.05 l
-0.17 -0.03 l
-0.18 -0.04 l
-0.17 -0.03 l
-0.18 -0.03 l
-0.17 -0.03 l
-0.18 -0.02 l
-0.18 -0.02 l
-0.17 -0.02 l
-0.18 -0.01 l
-0.18 -0.01 l
-0.17 -0.01 l
-0.18 0 l
-0.18 -0.01 l
-0.18 0.01 l
-0.18 0 l
-0.17 0.01 l
-0.18 0.01 l
-0.18 0.01 l
-0.17 0.02 l
-0.18 0.02 l
-0.18 0.02 l
-0.17 0.03 l
-0.18 0.03 l
-0.17 0.03 l
-0.18 0.04 l
-0.17 0.03 l
-0.17 0.05 l
-0.17 0.04 l
-0.17 0.05 l
-0.18 0.05 l
-0.16 0.05 l
-0.17 0.06 l
190.52 508.44 lineto
-0.17 0.06 l
-0.16 0.06 l
-0.17 0.07 l
-0.16 0.07 l
-0.16 0.08 l
-0.16 0.07 l
-0.16 0.08 l
-0.16 0.09 l
-0.15 0.08 l
-0.16 0.09 l
-0.15 0.09 l
-0.15 0.09 l
-0.15 0.10 l
-0.15 0.09 l
-0.15 0.10 l
-0.14 0.11 l
-0.14 0.10 l
-0.14 0.11 l
-0.14 0.11 l
-0.14 0.11 l
-0.14 0.12 l
-0.13 0.12 l
-0.13 0.12 l
-0.13 0.12 l
-0.13 0.12 l
-0.12 0.13 l
-0.12 0.13 l
-0.12 0.13 l
-0.12 0.13 l
-0.12 0.14 l
-0.11 0.14 l
-0.11 0.14 l
-0.11 0.14 l
-0.10 0.14 l
-0.11 0.14 l
-0.10 0.15 l
-0.09 0.15 l
-0.10 0.15 l
-0.09 0.15 l
-0.09 0.15 l
-0.09 0.16 l
-0.08 0.15 l
-0.09 0.16 l
-0.08 0.16 l
-0.07 0.16 l
-0.08 0.16 l
-0.07 0.16 l
-0.07 0.17 l
-0.06 0.16 l
-0.06 0.17 l
-0.06 0.17 l
-0.06 0.17 l
-0.05 0.16 l
-0.05 0.18 l
-0.05 0.17 l
-0.04 0.17 l
-0.05 0.17 l
-0.03 0.17 l
-0.04 0.18 l
-0.03 0.17 l
-0.03 0.18 l
-0.03 0.17 l
-0.02 0.18 l
-0.02 0.18 l
-0.02 0.17 l
-0.01 0.18 l
-0.01 0.18 l
-0.01 0.17 l
0 0.18 l
-0.01 0.18 l
0.01 0.18 l
0 0.18 l
0.01 0.17 l
0.01 0.18 l
0.01 0.18 l
0.02 0.17 l
0.02 0.18 l
0.02 0.18 l
0.03 0.17 l
0.03 0.18 l
0.03 0.17 l
0.04 0.18 l
0.03 0.17 l
0.05 0.17 l
0.04 0.17 l
0.05 0.17 l
0.05 0.18 l
0.05 0.16 l
0.06 0.17 l
0.06 0.17 l
0.06 0.17 l
0.06 0.16 l
0.07 0.17 l
0.07 0.16 l
0.08 0.16 l
0.07 0.16 l
0.08 0.16 l
0.09 0.16 l
0.08 0.15 l
185.19 523.09 lineto
0.09 0.15 l
0.09 0.15 l
0.10 0.15 l
0.09 0.15 l
0.10 0.15 l
0.11 0.14 l
0.10 0.14 l
0.11 0.14 l
0.11 0.14 l
0.11 0.14 l
0.12 0.14 l
0.12 0.13 l
0.12 0.13 l
0.12 0.13 l
0.12 0.13 l
0.13 0.12 l
0.13 0.12 l
0.13 0.12 l
0.13 0.12 l
0.14 0.12 l
0.14 0.11 l
0.14 0.11 l
0.14 0.11 l
0.14 0.10 l
0.14 0.11 l
0.15 0.10 l
0.15 0.09 l
0.15 0.10 l
0.15 0.09 l
0.15 0.09 l
0.16 0.09 l
0.15 0.08 l
0.16 0.09 l
0.16 0.08 l
0.16 0.07 l
0.16 0.08 l
0.16 0.07 l
0.17 0.07 l
0.16 0.06 l
0.17 0.06 l
0.17 0.06 l
0.17 0.06 l
0.16 0.05 l
0.18 0.05 l
0.17 0.05 l
0.17 0.04 l
0.17 0.05 l
0.17 0.03 l
0.18 0.04 l
0.17 0.03 l
0.18 0.03 l
0.17 0.03 l
0.18 0.02 l
0.18 0.02 l
0.17 0.02 l
0.18 0.01 l
0.18 0.01 l
0.17 0.01 l
0.18 0 l
0.18 0.01 l
0 0 l
o
np
194.00 386.84 m
0.18 0 l
0.18 0 l
0.17 -0.01 l
0.18 -0.01 l
0.18 -0.02 l
0.17 -0.01 l
0.18 -0.02 l
0.18 -0.03 l
0.17 -0.02 l
0.18 -0.03 l
0.17 -0.03 l
0.18 -0.04 l
0.17 -0.04 l
0.17 -0.04 l
0.17 -0.04 l
0.17 -0.05 l
0.18 -0.05 l
0.16 -0.06 l
0.17 -0.05 l
0.17 -0.06 l
0.17 -0.06 l
0.16 -0.07 l
0.17 -0.07 l
0.16 -0.07 l
0.16 -0.07 l
0.16 -0.08 l
0.16 -0.08 l
0.16 -0.08 l
0.15 -0.08 l
0.16 -0.09 l
0.15 -0.09 l
0.15 -0.09 l
0.15 -0.10 l
0.15 -0.10 l
0.15 -0.10 l
0.14 -0.10 l
0.14 -0.11 l
0.14 -0.10 l
0.14 -0.12 l
0.14 -0.11 l
0.14 -0.11 l
0.13 -0.12 l
0.13 -0.12 l
0.13 -0.12 l
0.13 -0.13 l
0.12 -0.12 l
0.12 -0.13 l
0.12 -0.13 l
0.12 -0.14 l
0.12 -0.13 l
0.11 -0.14 l
0.11 -0.14 l
0.11 -0.14 l
0.10 -0.14 l
0.11 -0.15 l
0.10 -0.14 l
0.09 -0.15 l
0.10 -0.15 l
0.09 -0.15 l
0.09 -0.16 l
0.09 -0.15 l
0.08 -0.16 l
0.09 -0.15 l
0.08 -0.16 l
0.07 -0.16 l
0.08 -0.16 l
0.07 -0.17 l
0.07 -0.16 l
0.06 -0.17 l
0.06 -0.16 l
0.06 -0.17 l
0.06 -0.17 l
0.05 -0.17 l
0.05 -0.17 l
0.05 -0.17 l
0.04 -0.17 l
0.05 -0.17 l
0.03 -0.18 l
0.04 -0.17 l
0.03 -0.18 l
0.03 -0.17 l
0.03 -0.18 l
0.02 -0.17 l
0.02 -0.18 l
0.02 -0.18 l
0.01 -0.17 l
0.01 -0.18 l
0.01 -0.18 l
0 -0.18 l
0.01 -0.17 l
-0.01 -0.18 l
0 -0.18 l
-0.01 -0.18 l
-0.01 -0.17 l
-0.01 -0.18 l
-0.02 -0.18 l
-0.02 -0.17 l
-0.02 -0.18 l
-0.03 -0.18 l
204.02 374.90 lineto
-0.03 -0.18 l
-0.04 -0.17 l
-0.03 -0.17 l
-0.05 -0.18 l
-0.04 -0.17 l
-0.05 -0.17 l
-0.05 -0.17 l
-0.05 -0.17 l
-0.06 -0.17 l
-0.06 -0.16 l
-0.06 -0.17 l
-0.06 -0.17 l
-0.07 -0.16 l
-0.07 -0.16 l
-0.08 -0.16 l
-0.07 -0.16 l
-0.08 -0.16 l
-0.09 -0.16 l
-0.08 -0.16 l
-0.09 -0.15 l
-0.09 -0.15 l
-0.09 -0.16 l
-0.10 -0.15 l
-0.09 -0.14 l
-0.10 -0.15 l
-0.11 -0.14 l
-0.10 -0.15 l
-0.11 -0.14 l
-0.11 -0.14 l
-0.11 -0.13 l
-0.12 -0.14 l
-0.12 -0.13 l
-0.12 -0.13 l
-0.12 -0.13 l
-0.12 -0.13 l
-0.13 -0.12 l
-0.13 -0.13 l
-0.13 -0.12 l
-0.13 -0.11 l
-0.14 -0.12 l
-0.14 -0.11 l
-0.14 -0.11 l
-0.14 -0.11 l
-0.14 -0.11 l
-0.14 -0.10 l
-0.15 -0.10 l
-0.15 -0.10 l
-0.15 -0.09 l
-0.15 -0.10 l
-0.15 -0.09 l
-0.16 -0.08 l
-0.15 -0.09 l
-0.16 -0.08 l
-0.16 -0.08 l
-0.16 -0.08 l
-0.16 -0.07 l
-0.16 -0.07 l
-0.17 -0.07 l
-0.16 -0.06 l
-0.17 -0.07 l
-0.17 -0.05 l
-0.17 -0.06 l
-0.16 -0.05 l
-0.18 -0.06 l
-0.17 -0.04 l
-0.17 -0.05 l
-0.17 -0.04 l
-0.17 -0.04 l
-0.18 -0.03 l
-0.17 -0.03 l
-0.18 -0.03 l
-0.17 -0.03 l
-0.18 -0.02 l
-0.18 -0.02 l
-0.17 -0.02 l
-0.18 -0.01 l
-0.18 -0.02 l
-0.17 0 l
-0.18 -0.01 l
-0.18 0 l
-0.18 0 l
-0.18 0.01 l
-0.17 0 l
-0.18 0.02 l
-0.18 0.01 l
-0.17 0.02 l
-0.18 0.02 l
-0.18 0.02 l
-0.17 0.03 l
-0.18 0.03 l
-0.17 0.03 l
-0.18 0.03 l
-0.17 0.04 l
-0.17 0.04 l
-0.17 0.05 l
-0.17 0.04 l
-0.18 0.06 l
-0.16 0.05 l
-0.17 0.06 l
190.52 367.10 lineto
-0.17 0.07 l
-0.16 0.06 l
-0.17 0.07 l
-0.16 0.07 l
-0.16 0.07 l
-0.16 0.08 l
-0.16 0.08 l
-0.16 0.08 l
-0.15 0.09 l
-0.16 0.08 l
-0.15 0.09 l
-0.15 0.10 l
-0.15 0.09 l
-0.15 0.10 l
-0.15 0.10 l
-0.14 0.10 l
-0.14 0.11 l
-0.14 0.11 l
-0.14 0.11 l
-0.14 0.11 l
-0.14 0.12 l
-0.13 0.11 l
-0.13 0.12 l
-0.13 0.13 l
-0.13 0.12 l
-0.12 0.13 l
-0.12 0.13 l
-0.12 0.13 l
-0.12 0.13 l
-0.12 0.14 l
-0.11 0.13 l
-0.11 0.14 l
-0.11 0.14 l
-0.10 0.15 l
-0.11 0.14 l
-0.10 0.15 l
-0.09 0.14 l
-0.10 0.15 l
-0.09 0.16 l
-0.09 0.15 l
-0.09 0.15 l
-0.08 0.16 l
-0.09 0.16 l
-0.08 0.16 l
-0.07 0.16 l
-0.08 0.16 l
-0.07 0.16 l
-0.07 0.16 l
-0.06 0.17 l
-0.06 0.17 l
-0.06 0.16 l
-0.06 0.17 l
-0.05 0.17 l
-0.05 0.17 l
-0.05 0.17 l
-0.04 0.17 l
-0.05 0.18 l
-0.03 0.17 l
-0.04 0.17 l
-0.03 0.18 l
-0.03 0.17 l
-0.03 0.18 l
-0.02 0.18 l
-0.02 0.17 l
-0.02 0.18 l
-0.01 0.18 l
-0.01 0.17 l
-0.01 0.18 l
0 0.18 l
-0.01 0.18 l
0.01 0.17 l
0 0.18 l
0.01 0.18 l
0.01 0.18 l
0.01 0.17 l
0.02 0.18 l
0.02 0.18 l
0.02 0.17 l
0.03 0.18 l
0.03 0.17 l
0.03 0.18 l
0.04 0.17 l
0.03 0.18 l
0.05 0.17 l
0.04 0.17 l
0.05 0.17 l
0.05 0.17 l
0.05 0.17 l
0.06 0.17 l
0.06 0.17 l
0.06 0.16 l
0.06 0.17 l
0.07 0.16 l
0.07 0.17 l
0.08 0.16 l
0.07 0.16 l
0.08 0.16 l
0.09 0.15 l
0.08 0.16 l
185.19 381.75 lineto
0.09 0.16 l
0.09 0.15 l
0.10 0.15 l
0.09 0.15 l
0.10 0.14 l
0.11 0.15 l
0.10 0.14 l
0.11 0.14 l
0.11 0.14 l
0.11 0.14 l
0.12 0.13 l
0.12 0.14 l
0.12 0.13 l
0.12 0.13 l
0.12 0.12 l
0.13 0.13 l
0.13 0.12 l
0.13 0.12 l
0.13 0.12 l
0.14 0.11 l
0.14 0.11 l
0.14 0.12 l
0.14 0.10 l
0.14 0.11 l
0.14 0.10 l
0.15 0.10 l
0.15 0.10 l
0.15 0.10 l
0.15 0.09 l
0.15 0.09 l
0.16 0.09 l
0.15 0.08 l
0.16 0.08 l
0.16 0.08 l
0.16 0.08 l
0.16 0.07 l
0.16 0.07 l
0.17 0.07 l
0.16 0.07 l
0.17 0.06 l
0.17 0.06 l
0.17 0.05 l
0.16 0.06 l
0.18 0.05 l
0.17 0.05 l
0.17 0.04 l
0.17 0.04 l
0.17 0.04 l
0.18 0.04 l
0.17 0.03 l
0.18 0.03 l
0.17 0.02 l
0.18 0.03 l
0.18 0.02 l
0.17 0.01 l
0.18 0.02 l
0.18 0.01 l
0.17 0.01 l
0.18 0 l
0.18 0 l
0 0 l
o
np
194.00 245.51 m
0.18 0 l
0.18 -0.01 l
0.17 0 l
0.18 -0.02 l
0.18 -0.01 l
0.17 -0.02 l
0.18 -0.02 l
0.18 -0.02 l
0.17 -0.03 l
0.18 -0.03 l
0.17 -0.03 l
0.18 -0.03 l
0.17 -0.04 l
0.17 -0.04 l
0.17 -0.05 l
0.17 -0.04 l
0.18 -0.06 l
0.16 -0.05 l
0.17 -0.06 l
0.17 -0.05 l
0.17 -0.07 l
0.16 -0.06 l
0.17 -0.07 l
0.16 -0.07 l
0.16 -0.07 l
0.16 -0.08 l
0.16 -0.08 l
0.16 -0.08 l
0.15 -0.09 l
0.16 -0.08 l
0.15 -0.09 l
0.15 -0.10 l
0.15 -0.09 l
0.15 -0.10 l
0.15 -0.10 l
0.14 -0.10 l
0.14 -0.11 l
0.14 -0.11 l
0.14 -0.11 l
0.14 -0.11 l
0.14 -0.12 l
0.13 -0.11 l
0.13 -0.12 l
0.13 -0.13 l
0.13 -0.12 l
0.12 -0.13 l
0.12 -0.13 l
0.12 -0.13 l
0.12 -0.13 l
0.12 -0.14 l
0.11 -0.13 l
0.11 -0.14 l
0.11 -0.14 l
0.10 -0.15 l
0.11 -0.14 l
0.10 -0.15 l
0.09 -0.14 l
0.10 -0.15 l
0.09 -0.16 l
0.09 -0.15 l
0.09 -0.15 l
0.08 -0.16 l
0.09 -0.16 l
0.08 -0.16 l
0.07 -0.16 l
0.08 -0.16 l
0.07 -0.16 l
0.07 -0.16 l
0.06 -0.17 l
0.06 -0.17 l
0.06 -0.16 l
0.06 -0.17 l
0.05 -0.17 l
0.05 -0.17 l
0.05 -0.17 l
0.04 -0.17 l
0.05 -0.18 l
0.03 -0.17 l
0.04 -0.17 l
0.03 -0.18 l
0.03 -0.17 l
0.03 -0.18 l
0.02 -0.18 l
0.02 -0.17 l
0.02 -0.18 l
0.01 -0.18 l
0.01 -0.17 l
0.01 -0.18 l
0 -0.18 l
0.01 -0.18 l
-0.01 -0.17 l
0 -0.18 l
-0.01 -0.18 l
-0.01 -0.18 l
-0.01 -0.17 l
-0.02 -0.18 l
-0.02 -0.18 l
-0.02 -0.17 l
-0.03 -0.18 l
204.02 233.57 lineto
-0.03 -0.18 l
-0.04 -0.17 l
-0.03 -0.18 l
-0.05 -0.17 l
-0.04 -0.17 l
-0.05 -0.17 l
-0.05 -0.17 l
-0.05 -0.17 l
-0.06 -0.17 l
-0.06 -0.17 l
-0.06 -0.16 l
-0.06 -0.17 l
-0.07 -0.16 l
-0.07 -0.17 l
-0.08 -0.16 l
-0.07 -0.16 l
-0.08 -0.16 l
-0.09 -0.15 l
-0.08 -0.16 l
-0.09 -0.15 l
-0.09 -0.16 l
-0.09 -0.15 l
-0.10 -0.15 l
-0.09 -0.15 l
-0.10 -0.14 l
-0.11 -0.15 l
-0.10 -0.14 l
-0.11 -0.14 l
-0.11 -0.14 l
-0.11 -0.14 l
-0.12 -0.13 l
-0.12 -0.14 l
-0.12 -0.13 l
-0.12 -0.13 l
-0.12 -0.12 l
-0.13 -0.13 l
-0.13 -0.12 l
-0.13 -0.12 l
-0.13 -0.12 l
-0.14 -0.11 l
-0.14 -0.11 l
-0.14 -0.12 l
-0.14 -0.10 l
-0.14 -0.11 l
-0.14 -0.10 l
-0.15 -0.10 l
-0.15 -0.10 l
-0.15 -0.10 l
-0.15 -0.09 l
-0.15 -0.09 l
-0.16 -0.09 l
-0.15 -0.08 l
-0.16 -0.08 l
-0.16 -0.08 l
-0.16 -0.08 l
-0.16 -0.07 l
-0.16 -0.07 l
-0.17 -0.07 l
-0.16 -0.07 l
-0.17 -0.06 l
-0.17 -0.06 l
-0.17 -0.05 l
-0.16 -0.06 l
-0.18 -0.05 l
-0.17 -0.05 l
-0.17 -0.04 l
-0.17 -0.04 l
-0.17 -0.04 l
-0.18 -0.04 l
-0.17 -0.03 l
-0.18 -0.03 l
-0.17 -0.02 l
-0.18 -0.03 l
-0.18 -0.02 l
-0.17 -0.01 l
-0.18 -0.02 l
-0.18 -0.01 l
-0.17 -0.01 l
-0.18 0 l
-0.18 0 l
-0.18 0 l
-0.18 0 l
-0.17 0.01 l
-0.18 0.01 l
-0.18 0.02 l
-0.17 0.01 l
-0.18 0.02 l
-0.18 0.03 l
-0.17 0.02 l
-0.18 0.03 l
-0.17 0.03 l
-0.18 0.04 l
-0.17 0.04 l
-0.17 0.04 l
-0.17 0.04 l
-0.17 0.05 l
-0.18 0.05 l
-0.16 0.06 l
-0.17 0.05 l
190.52 225.77 lineto
-0.17 0.06 l
-0.16 0.07 l
-0.17 0.07 l
-0.16 0.07 l
-0.16 0.07 l
-0.16 0.08 l
-0.16 0.08 l
-0.16 0.08 l
-0.15 0.08 l
-0.16 0.09 l
-0.15 0.09 l
-0.15 0.09 l
-0.15 0.10 l
-0.15 0.10 l
-0.15 0.10 l
-0.14 0.10 l
-0.14 0.11 l
-0.14 0.10 l
-0.14 0.12 l
-0.14 0.11 l
-0.14 0.11 l
-0.13 0.12 l
-0.13 0.12 l
-0.13 0.12 l
-0.13 0.13 l
-0.12 0.12 l
-0.12 0.13 l
-0.12 0.13 l
-0.12 0.14 l
-0.12 0.13 l
-0.11 0.14 l
-0.11 0.14 l
-0.11 0.14 l
-0.10 0.14 l
-0.11 0.15 l
-0.10 0.14 l
-0.09 0.15 l
-0.10 0.15 l
-0.09 0.15 l
-0.09 0.16 l
-0.09 0.15 l
-0.08 0.16 l
-0.09 0.15 l
-0.08 0.16 l
-0.07 0.16 l
-0.08 0.16 l
-0.07 0.17 l
-0.07 0.16 l
-0.06 0.17 l
-0.06 0.16 l
-0.06 0.17 l
-0.06 0.17 l
-0.05 0.17 l
-0.05 0.17 l
-0.05 0.17 l
-0.04 0.17 l
-0.05 0.17 l
-0.03 0.18 l
-0.04 0.17 l
-0.03 0.18 l
-0.03 0.17 l
-0.03 0.18 l
-0.02 0.17 l
-0.02 0.18 l
-0.02 0.18 l
-0.01 0.17 l
-0.01 0.18 l
-0.01 0.18 l
0 0.18 l
-0.01 0.17 l
0.01 0.18 l
0 0.18 l
0.01 0.18 l
0.01 0.17 l
0.01 0.18 l
0.02 0.18 l
0.02 0.17 l
0.02 0.18 l
0.03 0.18 l
0.03 0.17 l
0.03 0.18 l
0.04 0.17 l
0.03 0.17 l
0.05 0.18 l
0.04 0.17 l
0.05 0.17 l
0.05 0.17 l
0.05 0.17 l
0.06 0.17 l
0.06 0.16 l
0.06 0.17 l
0.06 0.17 l
0.07 0.16 l
0.07 0.16 l
0.08 0.16 l
0.07 0.16 l
0.08 0.16 l
0.09 0.16 l
0.08 0.16 l
185.19 240.42 lineto
0.09 0.15 l
0.09 0.16 l
0.10 0.15 l
0.09 0.14 l
0.10 0.15 l
0.11 0.14 l
0.10 0.15 l
0.11 0.14 l
0.11 0.14 l
0.11 0.13 l
0.12 0.14 l
0.12 0.13 l
0.12 0.13 l
0.12 0.13 l
0.12 0.13 l
0.13 0.12 l
0.13 0.13 l
0.13 0.12 l
0.13 0.11 l
0.14 0.12 l
0.14 0.11 l
0.14 0.11 l
0.14 0.11 l
0.14 0.11 l
0.14 0.10 l
0.15 0.10 l
0.15 0.10 l
0.15 0.09 l
0.15 0.10 l
0.15 0.09 l
0.16 0.08 l
0.15 0.09 l
0.16 0.08 l
0.16 0.08 l
0.16 0.08 l
0.16 0.07 l
0.16 0.07 l
0.17 0.07 l
0.16 0.06 l
0.17 0.07 l
0.17 0.05 l
0.17 0.06 l
0.16 0.05 l
0.18 0.06 l
0.17 0.04 l
0.17 0.05 l
0.17 0.04 l
0.17 0.04 l
0.18 0.03 l
0.17 0.03 l
0.18 0.03 l
0.17 0.03 l
0.18 0.02 l
0.18 0.02 l
0.17 0.02 l
0.18 0.01 l
0.18 0.02 l
0.17 0 l
0.18 0.01 l
0.18 0 l
0 0 l
o
np
328.67 386.84 m
0.17 0 l
0.18 0 l
0.18 -0.01 l
0.18 -0.01 l
0.17 -0.02 l
0.18 -0.01 l
0.18 -0.02 l
0.17 -0.03 l
0.18 -0.02 l
0.17 -0.03 l
0.18 -0.03 l
0.17 -0.04 l
0.18 -0.04 l
0.17 -0.04 l
0.17 -0.04 l
0.17 -0.05 l
0.17 -0.05 l
0.17 -0.06 l
0.17 -0.05 l
0.17 -0.06 l
0.16 -0.06 l
0.17 -0.07 l
0.16 -0.07 l
0.17 -0.07 l
0.16 -0.07 l
0.16 -0.08 l
0.16 -0.08 l
0.15 -0.08 l
0.16 -0.08 l
0.15 -0.09 l
0.16 -0.09 l
0.15 -0.09 l
0.15 -0.10 l
0.15 -0.10 l
0.14 -0.10 l
0.15 -0.10 l
0.14 -0.11 l
0.14 -0.10 l
0.14 -0.12 l
0.14 -0.11 l
0.13 -0.11 l
0.14 -0.12 l
0.13 -0.12 l
0.13 -0.12 l
0.12 -0.13 l
0.13 -0.12 l
0.12 -0.13 l
0.12 -0.13 l
0.12 -0.14 l
0.11 -0.13 l
0.11 -0.14 l
0.12 -0.14 l
0.10 -0.14 l
0.11 -0.14 l
0.10 -0.15 l
0.10 -0.14 l
0.10 -0.15 l
0.10 -0.15 l
0.09 -0.15 l
0.09 -0.16 l
0.09 -0.15 l
0.08 -0.16 l
0.08 -0.15 l
0.08 -0.16 l
0.08 -0.16 l
0.07 -0.16 l
0.07 -0.17 l
0.07 -0.16 l
0.07 -0.17 l
0.06 -0.16 l
0.06 -0.17 l
0.05 -0.17 l
0.06 -0.17 l
0.05 -0.17 l
0.05 -0.17 l
0.04 -0.17 l
0.04 -0.17 l
0.04 -0.18 l
0.04 -0.17 l
0.03 -0.18 l
0.03 -0.17 l
0.02 -0.18 l
0.03 -0.17 l
0.02 -0.18 l
0.01 -0.18 l
0.02 -0.17 l
0.01 -0.18 l
0.01 -0.18 l
0 -0.18 l
0 -0.17 l
0 -0.18 l
0 -0.18 l
-0.01 -0.18 l
-0.01 -0.17 l
-0.02 -0.18 l
-0.01 -0.18 l
-0.02 -0.17 l
-0.03 -0.18 l
-0.02 -0.18 l
338.69 374.90 lineto
-0.03 -0.18 l
-0.04 -0.17 l
-0.04 -0.17 l
-0.04 -0.18 l
-0.04 -0.17 l
-0.05 -0.17 l
-0.05 -0.17 l
-0.06 -0.17 l
-0.05 -0.17 l
-0.06 -0.16 l
-0.06 -0.17 l
-0.07 -0.17 l
-0.07 -0.16 l
-0.07 -0.16 l
-0.07 -0.16 l
-0.08 -0.16 l
-0.08 -0.16 l
-0.08 -0.16 l
-0.08 -0.16 l
-0.09 -0.15 l
-0.09 -0.15 l
-0.09 -0.16 l
-0.10 -0.15 l
-0.10 -0.14 l
-0.10 -0.15 l
-0.10 -0.14 l
-0.11 -0.15 l
-0.10 -0.14 l
-0.12 -0.14 l
-0.11 -0.13 l
-0.11 -0.14 l
-0.12 -0.13 l
-0.12 -0.13 l
-0.12 -0.13 l
-0.13 -0.13 l
-0.12 -0.12 l
-0.13 -0.13 l
-0.13 -0.12 l
-0.14 -0.11 l
-0.13 -0.12 l
-0.14 -0.11 l
-0.14 -0.11 l
-0.14 -0.11 l
-0.14 -0.11 l
-0.15 -0.10 l
-0.14 -0.10 l
-0.15 -0.10 l
-0.15 -0.09 l
-0.15 -0.10 l
-0.16 -0.09 l
-0.15 -0.08 l
-0.16 -0.09 l
-0.15 -0.08 l
-0.16 -0.08 l
-0.16 -0.08 l
-0.16 -0.07 l
-0.17 -0.07 l
-0.16 -0.07 l
-0.17 -0.06 l
-0.16 -0.07 l
-0.17 -0.05 l
-0.17 -0.06 l
-0.17 -0.05 l
-0.17 -0.06 l
-0.17 -0.04 l
-0.17 -0.05 l
-0.17 -0.04 l
-0.18 -0.04 l
-0.17 -0.03 l
-0.18 -0.03 l
-0.17 -0.03 l
-0.18 -0.03 l
-0.17 -0.02 l
-0.18 -0.02 l
-0.18 -0.02 l
-0.17 -0.01 l
-0.18 -0.02 l
-0.18 0 l
-0.18 -0.01 l
-0.17 0 l
-0.18 0 l
-0.18 0.01 l
-0.18 0 l
-0.17 0.02 l
-0.18 0.01 l
-0.18 0.02 l
-0.17 0.02 l
-0.18 0.02 l
-0.18 0.03 l
-0.17 0.03 l
-0.18 0.03 l
-0.17 0.03 l
-0.17 0.04 l
-0.18 0.04 l
-0.17 0.05 l
-0.17 0.04 l
-0.17 0.06 l
-0.17 0.05 l
-0.17 0.06 l
325.19 367.10 lineto
-0.17 0.07 l
-0.17 0.06 l
-0.16 0.07 l
-0.16 0.07 l
-0.16 0.07 l
-0.16 0.08 l
-0.16 0.08 l
-0.16 0.08 l
-0.16 0.09 l
-0.15 0.08 l
-0.15 0.09 l
-0.16 0.10 l
-0.15 0.09 l
-0.14 0.10 l
-0.15 0.10 l
-0.14 0.10 l
-0.15 0.11 l
-0.14 0.11 l
-0.14 0.11 l
-0.13 0.11 l
-0.14 0.12 l
-0.13 0.11 l
-0.13 0.12 l
-0.13 0.13 l
-0.13 0.12 l
-0.12 0.13 l
-0.13 0.13 l
-0.12 0.13 l
-0.11 0.13 l
-0.12 0.14 l
-0.11 0.13 l
-0.11 0.14 l
-0.11 0.14 l
-0.11 0.15 l
-0.10 0.14 l
-0.10 0.15 l
-0.10 0.14 l
-0.09 0.15 l
-0.10 0.16 l
-0.09 0.15 l
-0.08 0.15 l
-0.09 0.16 l
-0.08 0.16 l
-0.08 0.16 l
-0.08 0.16 l
-0.07 0.16 l
-0.07 0.16 l
-0.07 0.16 l
-0.06 0.17 l
-0.07 0.17 l
-0.05 0.16 l
-0.06 0.17 l
-0.05 0.17 l
-0.06 0.17 l
-0.04 0.17 l
-0.05 0.17 l
-0.04 0.18 l
-0.04 0.17 l
-0.03 0.17 l
-0.03 0.18 l
-0.03 0.17 l
-0.03 0.18 l
-0.02 0.18 l
-0.02 0.17 l
-0.02 0.18 l
-0.01 0.18 l
-0.02 0.17 l
0 0.18 l
-0.01 0.18 l
0 0.18 l
0 0.17 l
0.01 0.18 l
0 0.18 l
0.02 0.18 l
0.01 0.17 l
0.02 0.18 l
0.02 0.18 l
0.02 0.17 l
0.03 0.18 l
0.03 0.17 l
0.03 0.18 l
0.03 0.17 l
0.04 0.18 l
0.04 0.17 l
0.05 0.17 l
0.04 0.17 l
0.06 0.17 l
0.05 0.17 l
0.06 0.17 l
0.05 0.17 l
0.07 0.16 l
0.06 0.17 l
0.07 0.16 l
0.07 0.17 l
0.07 0.16 l
0.08 0.16 l
0.08 0.16 l
0.08 0.15 l
0.09 0.16 l
319.85 381.75 lineto
0.09 0.16 l
0.10 0.15 l
0.09 0.15 l
0.10 0.15 l
0.10 0.14 l
0.10 0.15 l
0.11 0.14 l
0.11 0.14 l
0.11 0.14 l
0.11 0.14 l
0.12 0.13 l
0.11 0.14 l
0.12 0.13 l
0.13 0.13 l
0.12 0.12 l
0.13 0.13 l
0.13 0.12 l
0.13 0.12 l
0.13 0.12 l
0.14 0.11 l
0.13 0.11 l
0.14 0.12 l
0.14 0.10 l
0.15 0.11 l
0.14 0.10 l
0.15 0.10 l
0.14 0.10 l
0.15 0.10 l
0.16 0.09 l
0.15 0.09 l
0.15 0.09 l
0.16 0.08 l
0.16 0.08 l
0.16 0.08 l
0.16 0.08 l
0.16 0.07 l
0.16 0.07 l
0.16 0.07 l
0.17 0.07 l
0.17 0.06 l
0.16 0.06 l
0.17 0.05 l
0.17 0.06 l
0.17 0.05 l
0.17 0.05 l
0.17 0.04 l
0.18 0.04 l
0.17 0.04 l
0.17 0.04 l
0.18 0.03 l
0.17 0.03 l
0.18 0.02 l
0.18 0.03 l
0.17 0.02 l
0.18 0.01 l
0.18 0.02 l
0.17 0.01 l
0.18 0.01 l
0.18 0 l
0.18 0 l
0 0 l
o
np
463.33 528.18 m
0.18 -0.01 l
0.18 0 l
0.18 -0.01 l
0.17 -0.01 l
0.18 -0.01 l
0.18 -0.02 l
0.17 -0.02 l
0.18 -0.02 l
0.18 -0.03 l
0.17 -0.03 l
0.18 -0.03 l
0.17 -0.04 l
0.17 -0.03 l
0.18 -0.05 l
0.17 -0.04 l
0.17 -0.05 l
0.17 -0.05 l
0.17 -0.05 l
0.17 -0.06 l
0.16 -0.06 l
0.17 -0.06 l
0.17 -0.06 l
0.16 -0.07 l
0.16 -0.07 l
0.16 -0.08 l
0.16 -0.07 l
0.16 -0.08 l
0.16 -0.09 l
0.16 -0.08 l
0.15 -0.09 l
0.15 -0.09 l
0.16 -0.09 l
0.15 -0.10 l
0.14 -0.09 l
0.15 -0.10 l
0.14 -0.11 l
0.15 -0.10 l
0.14 -0.11 l
0.14 -0.11 l
0.13 -0.11 l
0.14 -0.12 l
0.13 -0.12 l
0.13 -0.12 l
0.13 -0.12 l
0.13 -0.12 l
0.12 -0.13 l
0.13 -0.13 l
0.12 -0.13 l
0.11 -0.13 l
0.12 -0.14 l
0.11 -0.14 l
0.11 -0.14 l
0.11 -0.14 l
0.11 -0.14 l
0.10 -0.14 l
0.10 -0.15 l
0.10 -0.15 l
0.09 -0.15 l
0.10 -0.15 l
0.09 -0.15 l
0.08 -0.16 l
0.09 -0.15 l
0.08 -0.16 l
0.08 -0.16 l
0.08 -0.16 l
0.07 -0.16 l
0.07 -0.16 l
0.07 -0.17 l
0.06 -0.16 l
0.07 -0.17 l
0.05 -0.17 l
0.06 -0.17 l
0.05 -0.16 l
0.06 -0.18 l
0.04 -0.17 l
0.05 -0.17 l
0.04 -0.17 l
0.04 -0.17 l
0.03 -0.18 l
0.03 -0.17 l
0.03 -0.18 l
0.03 -0.17 l
0.02 -0.18 l
0.02 -0.18 l
0.02 -0.17 l
0.01 -0.18 l
0.02 -0.18 l
0 -0.17 l
0.01 -0.18 l
0 -0.18 l
0 -0.18 l
-0.01 -0.18 l
0 -0.17 l
-0.02 -0.18 l
-0.01 -0.18 l
-0.02 -0.17 l
-0.02 -0.18 l
-0.02 -0.18 l
-0.03 -0.17 l
473.35 516.23 lineto
-0.03 -0.17 l
-0.03 -0.18 l
-0.04 -0.17 l
-0.04 -0.17 l
-0.05 -0.17 l
-0.04 -0.17 l
-0.06 -0.18 l
-0.05 -0.16 l
-0.06 -0.17 l
-0.05 -0.17 l
-0.07 -0.17 l
-0.06 -0.16 l
-0.07 -0.17 l
-0.07 -0.16 l
-0.07 -0.16 l
-0.08 -0.16 l
-0.08 -0.16 l
-0.08 -0.16 l
-0.09 -0.15 l
-0.08 -0.16 l
-0.09 -0.15 l
-0.10 -0.15 l
-0.09 -0.15 l
-0.10 -0.15 l
-0.10 -0.15 l
-0.10 -0.14 l
-0.11 -0.14 l
-0.11 -0.14 l
-0.11 -0.14 l
-0.11 -0.14 l
-0.12 -0.14 l
-0.11 -0.13 l
-0.12 -0.13 l
-0.13 -0.13 l
-0.12 -0.13 l
-0.13 -0.12 l
-0.13 -0.12 l
-0.13 -0.12 l
-0.13 -0.12 l
-0.14 -0.12 l
-0.13 -0.11 l
-0.14 -0.11 l
-0.14 -0.11 l
-0.15 -0.10 l
-0.14 -0.11 l
-0.15 -0.10 l
-0.14 -0.09 l
-0.15 -0.10 l
-0.16 -0.09 l
-0.15 -0.09 l
-0.15 -0.09 l
-0.16 -0.08 l
-0.16 -0.09 l
-0.16 -0.08 l
-0.16 -0.07 l
-0.16 -0.08 l
-0.16 -0.07 l
-0.16 -0.07 l
-0.17 -0.06 l
-0.17 -0.06 l
-0.16 -0.06 l
-0.17 -0.06 l
-0.17 -0.05 l
-0.17 -0.05 l
-0.17 -0.05 l
-0.17 -0.04 l
-0.18 -0.05 l
-0.17 -0.03 l
-0.17 -0.04 l
-0.18 -0.03 l
-0.17 -0.03 l
-0.18 -0.03 l
-0.18 -0.02 l
-0.17 -0.02 l
-0.18 -0.02 l
-0.18 -0.01 l
-0.17 -0.01 l
-0.18 -0.01 l
-0.18 0 l
-0.18 -0.01 l
-0.17 0.01 l
-0.18 0 l
-0.18 0.01 l
-0.18 0.01 l
-0.17 0.01 l
-0.18 0.02 l
-0.18 0.02 l
-0.17 0.02 l
-0.18 0.03 l
-0.17 0.03 l
-0.18 0.03 l
-0.17 0.04 l
-0.18 0.03 l
-0.17 0.05 l
-0.17 0.04 l
-0.17 0.05 l
-0.17 0.05 l
-0.17 0.05 l
-0.17 0.06 l
459.85 508.44 lineto
-0.16 0.06 l
-0.17 0.06 l
-0.16 0.07 l
-0.17 0.07 l
-0.16 0.08 l
-0.16 0.07 l
-0.16 0.08 l
-0.15 0.09 l
-0.16 0.08 l
-0.15 0.09 l
-0.16 0.09 l
-0.15 0.09 l
-0.15 0.10 l
-0.15 0.09 l
-0.14 0.10 l
-0.15 0.11 l
-0.14 0.10 l
-0.14 0.11 l
-0.14 0.11 l
-0.14 0.11 l
-0.13 0.12 l
-0.14 0.12 l
-0.13 0.12 l
-0.13 0.12 l
-0.12 0.12 l
-0.13 0.13 l
-0.12 0.13 l
-0.12 0.13 l
-0.12 0.13 l
-0.11 0.14 l
-0.11 0.14 l
-0.12 0.14 l
-0.10 0.14 l
-0.11 0.14 l
-0.10 0.14 l
-0.10 0.15 l
-0.10 0.15 l
-0.10 0.15 l
-0.09 0.15 l
-0.09 0.15 l
-0.09 0.16 l
-0.08 0.15 l
-0.08 0.16 l
-0.08 0.16 l
-0.08 0.16 l
-0.07 0.16 l
-0.07 0.16 l
-0.07 0.17 l
-0.07 0.16 l
-0.06 0.17 l
-0.06 0.17 l
-0.05 0.17 l
-0.06 0.16 l
-0.05 0.18 l
-0.05 0.17 l
-0.04 0.17 l
-0.04 0.17 l
-0.04 0.17 l
-0.04 0.18 l
-0.03 0.17 l
-0.03 0.18 l
-0.02 0.17 l
-0.03 0.18 l
-0.02 0.18 l
-0.01 0.17 l
-0.02 0.18 l
-0.01 0.18 l
-0.01 0.17 l
0 0.18 l
0 0.18 l
0 0.18 l
0 0.18 l
0.01 0.17 l
0.01 0.18 l
0.02 0.18 l
0.01 0.17 l
0.02 0.18 l
0.03 0.18 l
0.02 0.17 l
0.03 0.18 l
0.03 0.17 l
0.04 0.18 l
0.04 0.17 l
0.04 0.17 l
0.04 0.17 l
0.05 0.17 l
0.05 0.18 l
0.06 0.16 l
0.05 0.17 l
0.06 0.17 l
0.06 0.17 l
0.07 0.16 l
0.07 0.17 l
0.07 0.16 l
0.07 0.16 l
0.08 0.16 l
0.08 0.16 l
0.08 0.16 l
0.08 0.15 l
454.52 523.09 lineto
0.09 0.15 l
0.09 0.15 l
0.10 0.15 l
0.10 0.15 l
0.10 0.15 l
0.10 0.14 l
0.11 0.14 l
0.10 0.14 l
0.12 0.14 l
0.11 0.14 l
0.11 0.14 l
0.12 0.13 l
0.12 0.13 l
0.12 0.13 l
0.13 0.13 l
0.12 0.12 l
0.13 0.12 l
0.13 0.12 l
0.14 0.12 l
0.13 0.12 l
0.14 0.11 l
0.14 0.11 l
0.14 0.11 l
0.14 0.10 l
0.15 0.11 l
0.14 0.10 l
0.15 0.09 l
0.15 0.10 l
0.15 0.09 l
0.16 0.09 l
0.15 0.09 l
0.16 0.08 l
0.15 0.09 l
0.16 0.08 l
0.16 0.07 l
0.16 0.08 l
0.17 0.07 l
0.16 0.07 l
0.17 0.06 l
0.16 0.06 l
0.17 0.06 l
0.17 0.06 l
0.17 0.05 l
0.17 0.05 l
0.17 0.05 l
0.17 0.04 l
0.17 0.05 l
0.18 0.03 l
0.17 0.04 l
0.18 0.03 l
0.17 0.03 l
0.18 0.03 l
0.17 0.02 l
0.18 0.02 l
0.18 0.02 l
0.17 0.01 l
0.18 0.01 l
0.18 0.01 l
0.18 0 l
0.17 0.01 l
0 0 l
o
np
463.33 245.51 m
0.18 0 l
0.18 -0.01 l
0.18 0 l
0.17 -0.02 l
0.18 -0.01 l
0.18 -0.02 l
0.17 -0.02 l
0.18 -0.02 l
0.18 -0.03 l
0.17 -0.03 l
0.18 -0.03 l
0.17 -0.03 l
0.17 -0.04 l
0.18 -0.04 l
0.17 -0.05 l
0.17 -0.04 l
0.17 -0.06 l
0.17 -0.05 l
0.17 -0.06 l
0.16 -0.05 l
0.17 -0.07 l
0.17 -0.06 l
0.16 -0.07 l
0.16 -0.07 l
0.16 -0.07 l
0.16 -0.08 l
0.16 -0.08 l
0.16 -0.08 l
0.16 -0.09 l
0.15 -0.08 l
0.15 -0.09 l
0.16 -0.10 l
0.15 -0.09 l
0.14 -0.10 l
0.15 -0.10 l
0.14 -0.10 l
0.15 -0.11 l
0.14 -0.11 l
0.14 -0.11 l
0.13 -0.11 l
0.14 -0.12 l
0.13 -0.11 l
0.13 -0.12 l
0.13 -0.13 l
0.13 -0.12 l
0.12 -0.13 l
0.13 -0.13 l
0.12 -0.13 l
0.11 -0.13 l
0.12 -0.14 l
0.11 -0.13 l
0.11 -0.14 l
0.11 -0.14 l
0.11 -0.15 l
0.10 -0.14 l
0.10 -0.15 l
0.10 -0.14 l
0.09 -0.15 l
0.10 -0.16 l
0.09 -0.15 l
0.08 -0.15 l
0.09 -0.16 l
0.08 -0.16 l
0.08 -0.16 l
0.08 -0.16 l
0.07 -0.16 l
0.07 -0.16 l
0.07 -0.16 l
0.06 -0.17 l
0.07 -0.17 l
0.05 -0.16 l
0.06 -0.17 l
0.05 -0.17 l
0.06 -0.17 l
0.04 -0.17 l
0.05 -0.17 l
0.04 -0.18 l
0.04 -0.17 l
0.03 -0.17 l
0.03 -0.18 l
0.03 -0.17 l
0.03 -0.18 l
0.02 -0.18 l
0.02 -0.17 l
0.02 -0.18 l
0.01 -0.18 l
0.02 -0.17 l
0 -0.18 l
0.01 -0.18 l
0 -0.18 l
0 -0.17 l
-0.01 -0.18 l
0 -0.18 l
-0.02 -0.18 l
-0.01 -0.17 l
-0.02 -0.18 l
-0.02 -0.18 l
-0.02 -0.17 l
-0.03 -0.18 l
473.35 233.57 lineto
-0.03 -0.18 l
-0.03 -0.17 l
-0.04 -0.18 l
-0.04 -0.17 l
-0.05 -0.17 l
-0.04 -0.17 l
-0.06 -0.17 l
-0.05 -0.17 l
-0.06 -0.17 l
-0.05 -0.17 l
-0.07 -0.16 l
-0.06 -0.17 l
-0.07 -0.16 l
-0.07 -0.17 l
-0.07 -0.16 l
-0.08 -0.16 l
-0.08 -0.16 l
-0.08 -0.15 l
-0.09 -0.16 l
-0.08 -0.15 l
-0.09 -0.16 l
-0.10 -0.15 l
-0.09 -0.15 l
-0.10 -0.15 l
-0.10 -0.14 l
-0.10 -0.15 l
-0.11 -0.14 l
-0.11 -0.14 l
-0.11 -0.14 l
-0.11 -0.14 l
-0.12 -0.13 l
-0.11 -0.14 l
-0.12 -0.13 l
-0.13 -0.13 l
-0.12 -0.12 l
-0.13 -0.13 l
-0.13 -0.12 l
-0.13 -0.12 l
-0.13 -0.12 l
-0.14 -0.11 l
-0.13 -0.11 l
-0.14 -0.12 l
-0.14 -0.10 l
-0.15 -0.11 l
-0.14 -0.10 l
-0.15 -0.10 l
-0.14 -0.10 l
-0.15 -0.10 l
-0.16 -0.09 l
-0.15 -0.09 l
-0.15 -0.09 l
-0.16 -0.08 l
-0.16 -0.08 l
-0.16 -0.08 l
-0.16 -0.08 l
-0.16 -0.07 l
-0.16 -0.07 l
-0.16 -0.07 l
-0.17 -0.07 l
-0.17 -0.06 l
-0.16 -0.06 l
-0.17 -0.05 l
-0.17 -0.06 l
-0.17 -0.05 l
-0.17 -0.05 l
-0.17 -0.04 l
-0.18 -0.04 l
-0.17 -0.04 l
-0.17 -0.04 l
-0.18 -0.03 l
-0.17 -0.03 l
-0.18 -0.02 l
-0.18 -0.03 l
-0.17 -0.02 l
-0.18 -0.01 l
-0.18 -0.02 l
-0.17 -0.01 l
-0.18 -0.01 l
-0.18 0 l
-0.18 0 l
-0.17 0 l
-0.18 0 l
-0.18 0.01 l
-0.18 0.01 l
-0.17 0.02 l
-0.18 0.01 l
-0.18 0.02 l
-0.17 0.03 l
-0.18 0.02 l
-0.17 0.03 l
-0.18 0.03 l
-0.17 0.04 l
-0.18 0.04 l
-0.17 0.04 l
-0.17 0.04 l
-0.17 0.05 l
-0.17 0.05 l
-0.17 0.06 l
-0.17 0.05 l
459.85 225.77 lineto
-0.16 0.06 l
-0.17 0.07 l
-0.16 0.07 l
-0.17 0.07 l
-0.16 0.07 l
-0.16 0.08 l
-0.16 0.08 l
-0.15 0.08 l
-0.16 0.08 l
-0.15 0.09 l
-0.16 0.09 l
-0.15 0.09 l
-0.15 0.10 l
-0.15 0.10 l
-0.14 0.10 l
-0.15 0.10 l
-0.14 0.11 l
-0.14 0.10 l
-0.14 0.12 l
-0.14 0.11 l
-0.13 0.11 l
-0.14 0.12 l
-0.13 0.12 l
-0.13 0.12 l
-0.12 0.13 l
-0.13 0.12 l
-0.12 0.13 l
-0.12 0.13 l
-0.12 0.14 l
-0.11 0.13 l
-0.11 0.14 l
-0.12 0.14 l
-0.10 0.14 l
-0.11 0.14 l
-0.10 0.15 l
-0.10 0.14 l
-0.10 0.15 l
-0.10 0.15 l
-0.09 0.15 l
-0.09 0.16 l
-0.09 0.15 l
-0.08 0.16 l
-0.08 0.15 l
-0.08 0.16 l
-0.08 0.16 l
-0.07 0.16 l
-0.07 0.17 l
-0.07 0.16 l
-0.07 0.17 l
-0.06 0.16 l
-0.06 0.17 l
-0.05 0.17 l
-0.06 0.17 l
-0.05 0.17 l
-0.05 0.17 l
-0.04 0.17 l
-0.04 0.17 l
-0.04 0.18 l
-0.04 0.17 l
-0.03 0.18 l
-0.03 0.17 l
-0.02 0.18 l
-0.03 0.17 l
-0.02 0.18 l
-0.01 0.18 l
-0.02 0.17 l
-0.01 0.18 l
-0.01 0.18 l
0 0.18 l
0 0.17 l
0 0.18 l
0 0.18 l
0.01 0.18 l
0.01 0.17 l
0.02 0.18 l
0.01 0.18 l
0.02 0.17 l
0.03 0.18 l
0.02 0.18 l
0.03 0.17 l
0.03 0.18 l
0.04 0.17 l
0.04 0.17 l
0.04 0.18 l
0.04 0.17 l
0.05 0.17 l
0.05 0.17 l
0.06 0.17 l
0.05 0.17 l
0.06 0.16 l
0.06 0.17 l
0.07 0.17 l
0.07 0.16 l
0.07 0.16 l
0.07 0.16 l
0.08 0.16 l
0.08 0.16 l
0.08 0.16 l
0.08 0.16 l
454.52 240.42 lineto
0.09 0.15 l
0.09 0.16 l
0.10 0.15 l
0.10 0.14 l
0.10 0.15 l
0.10 0.14 l
0.11 0.15 l
0.10 0.14 l
0.12 0.14 l
0.11 0.13 l
0.11 0.14 l
0.12 0.13 l
0.12 0.13 l
0.12 0.13 l
0.13 0.13 l
0.12 0.12 l
0.13 0.13 l
0.13 0.12 l
0.14 0.11 l
0.13 0.12 l
0.14 0.11 l
0.14 0.11 l
0.14 0.11 l
0.14 0.11 l
0.15 0.10 l
0.14 0.10 l
0.15 0.10 l
0.15 0.09 l
0.15 0.10 l
0.16 0.09 l
0.15 0.08 l
0.16 0.09 l
0.15 0.08 l
0.16 0.08 l
0.16 0.08 l
0.16 0.07 l
0.17 0.07 l
0.16 0.07 l
0.17 0.06 l
0.16 0.07 l
0.17 0.05 l
0.17 0.06 l
0.17 0.05 l
0.17 0.06 l
0.17 0.04 l
0.17 0.05 l
0.17 0.04 l
0.18 0.04 l
0.17 0.03 l
0.18 0.03 l
0.17 0.03 l
0.18 0.03 l
0.17 0.02 l
0.18 0.02 l
0.18 0.02 l
0.17 0.01 l
0.18 0.02 l
0.18 0 l
0.18 0.01 l
0.17 0 l
0 0 l
o
np
463.33 104.18 m
0.18 -0.01 l
0.18 0 l
0.18 -0.01 l
0.17 -0.01 l
0.18 -0.01 l
0.18 -0.02 l
0.17 -0.02 l
0.18 -0.02 l
0.18 -0.03 l
0.17 -0.03 l
0.18 -0.03 l
0.17 -0.04 l
0.17 -0.03 l
0.18 -0.05 l
0.17 -0.04 l
0.17 -0.05 l
0.17 -0.05 l
0.17 -0.05 l
0.17 -0.06 l
0.16 -0.06 l
0.17 -0.06 l
0.17 -0.06 l
0.16 -0.07 l
0.16 -0.07 l
0.16 -0.08 l
0.16 -0.07 l
0.16 -0.08 l
0.16 -0.09 l
0.16 -0.08 l
0.15 -0.09 l
0.15 -0.09 l
0.16 -0.09 l
0.15 -0.10 l
0.14 -0.09 l
0.15 -0.10 l
0.14 -0.11 l
0.15 -0.10 l
0.14 -0.11 l
0.14 -0.11 l
0.13 -0.11 l
0.14 -0.12 l
0.13 -0.12 l
0.13 -0.12 l
0.13 -0.12 l
0.13 -0.12 l
0.12 -0.13 l
0.13 -0.13 l
0.12 -0.13 l
0.11 -0.13 l
0.12 -0.14 l
0.11 -0.14 l
0.11 -0.14 l
0.11 -0.14 l
0.11 -0.14 l
0.10 -0.14 l
0.10 -0.15 l
0.10 -0.15 l
0.09 -0.15 l
0.10 -0.15 l
0.09 -0.15 l
0.08 -0.16 l
0.09 -0.15 l
0.08 -0.16 l
0.08 -0.16 l
0.08 -0.16 l
0.07 -0.16 l
0.07 -0.16 l
0.07 -0.17 l
0.06 -0.16 l
0.07 -0.17 l
0.05 -0.17 l
0.06 -0.17 l
0.05 -0.16 l
0.06 -0.18 l
0.04 -0.17 l
0.05 -0.17 l
0.04 -0.17 l
0.04 -0.17 l
0.03 -0.18 l
0.03 -0.17 l
0.03 -0.18 l
0.03 -0.17 l
0.02 -0.18 l
0.02 -0.18 l
0.02 -0.17 l
0.01 -0.18 l
0.02 -0.18 l
0 -0.17 l
0.01 -0.18 l
0 -0.18 l
0 -0.18 l
-0.01 -0.18 l
0 -0.17 l
-0.02 -0.18 l
-0.01 -0.18 l
-0.02 -0.17 l
-0.02 -0.18 l
-0.02 -0.18 l
-0.03 -0.17 l
473.35 92.23 lineto
-0.03 -0.17 l
-0.03 -0.18 l
-0.04 -0.17 l
-0.04 -0.17 l
-0.05 -0.17 l
-0.04 -0.17 l
-0.06 -0.18 l
-0.05 -0.16 l
-0.06 -0.17 l
-0.05 -0.17 l
-0.07 -0.17 l
-0.06 -0.16 l
-0.07 -0.17 l
-0.07 -0.16 l
-0.07 -0.16 l
-0.08 -0.16 l
-0.08 -0.16 l
-0.08 -0.16 l
-0.09 -0.15 l
-0.08 -0.16 l
-0.09 -0.15 l
-0.10 -0.15 l
-0.09 -0.15 l
-0.10 -0.15 l
-0.10 -0.15 l
-0.10 -0.14 l
-0.11 -0.14 l
-0.11 -0.14 l
-0.11 -0.14 l
-0.11 -0.14 l
-0.12 -0.14 l
-0.11 -0.13 l
-0.12 -0.13 l
-0.13 -0.13 l
-0.12 -0.13 l
-0.13 -0.12 l
-0.13 -0.12 l
-0.13 -0.12 l
-0.13 -0.12 l
-0.14 -0.12 l
-0.13 -0.11 l
-0.14 -0.11 l
-0.14 -0.11 l
-0.15 -0.10 l
-0.14 -0.11 l
-0.15 -0.10 l
-0.14 -0.09 l
-0.15 -0.10 l
-0.16 -0.09 l
-0.15 -0.09 l
-0.15 -0.09 l
-0.16 -0.08 l
-0.16 -0.09 l
-0.16 -0.08 l
-0.16 -0.07 l
-0.16 -0.08 l
-0.16 -0.07 l
-0.16 -0.07 l
-0.17 -0.06 l
-0.17 -0.06 l
-0.16 -0.06 l
-0.17 -0.06 l
-0.17 -0.05 l
-0.17 -0.05 l
-0.17 -0.05 l
-0.17 -0.04 l
-0.18 -0.05 l
-0.17 -0.03 l
-0.17 -0.04 l
-0.18 -0.03 l
-0.17 -0.03 l
-0.18 -0.03 l
-0.18 -0.02 l
-0.17 -0.02 l
-0.18 -0.02 l
-0.18 -0.01 l
-0.17 -0.01 l
-0.18 -0.01 l
-0.18 0 l
-0.18 -0.01 l
-0.17 0.01 l
-0.18 0 l
-0.18 0.01 l
-0.18 0.01 l
-0.17 0.01 l
-0.18 0.02 l
-0.18 0.02 l
-0.17 0.02 l
-0.18 0.03 l
-0.17 0.03 l
-0.18 0.03 l
-0.17 0.04 l
-0.18 0.03 l
-0.17 0.05 l
-0.17 0.04 l
-0.17 0.05 l
-0.17 0.05 l
-0.17 0.05 l
-0.17 0.06 l
459.85 84.44 lineto
-0.16 0.06 l
-0.17 0.06 l
-0.16 0.07 l
-0.17 0.07 l
-0.16 0.08 l
-0.16 0.07 l
-0.16 0.08 l
-0.15 0.09 l
-0.16 0.08 l
-0.15 0.09 l
-0.16 0.09 l
-0.15 0.09 l
-0.15 0.10 l
-0.15 0.09 l
-0.14 0.10 l
-0.15 0.11 l
-0.14 0.10 l
-0.14 0.11 l
-0.14 0.11 l
-0.14 0.11 l
-0.13 0.12 l
-0.14 0.12 l
-0.13 0.12 l
-0.13 0.12 l
-0.12 0.12 l
-0.13 0.13 l
-0.12 0.13 l
-0.12 0.13 l
-0.12 0.13 l
-0.11 0.14 l
-0.11 0.14 l
-0.12 0.14 l
-0.10 0.14 l
-0.11 0.14 l
-0.10 0.14 l
-0.10 0.15 l
-0.10 0.15 l
-0.10 0.15 l
-0.09 0.15 l
-0.09 0.15 l
-0.09 0.16 l
-0.08 0.15 l
-0.08 0.16 l
-0.08 0.16 l
-0.08 0.16 l
-0.07 0.16 l
-0.07 0.16 l
-0.07 0.17 l
-0.07 0.16 l
-0.06 0.17 l
-0.06 0.17 l
-0.05 0.17 l
-0.06 0.16 l
-0.05 0.18 l
-0.05 0.17 l
-0.04 0.17 l
-0.04 0.17 l
-0.04 0.17 l
-0.04 0.18 l
-0.03 0.17 l
-0.03 0.18 l
-0.02 0.17 l
-0.03 0.18 l
-0.02 0.18 l
-0.01 0.17 l
-0.02 0.18 l
-0.01 0.18 l
-0.01 0.17 l
0 0.18 l
0 0.18 l
0 0.18 l
0 0.18 l
0.01 0.17 l
0.01 0.18 l
0.02 0.18 l
0.01 0.17 l
0.02 0.18 l
0.03 0.18 l
0.02 0.17 l
0.03 0.18 l
0.03 0.17 l
0.04 0.18 l
0.04 0.17 l
0.04 0.17 l
0.04 0.17 l
0.05 0.17 l
0.05 0.18 l
0.06 0.16 l
0.05 0.17 l
0.06 0.17 l
0.06 0.17 l
0.07 0.16 l
0.07 0.17 l
0.07 0.16 l
0.07 0.16 l
0.08 0.16 l
0.08 0.16 l
0.08 0.16 l
0.08 0.15 l
454.52 99.09 lineto
0.09 0.15 l
0.09 0.15 l
0.10 0.15 l
0.10 0.15 l
0.10 0.15 l
0.10 0.14 l
0.11 0.14 l
0.10 0.14 l
0.12 0.14 l
0.11 0.14 l
0.11 0.14 l
0.12 0.13 l
0.12 0.13 l
0.12 0.13 l
0.13 0.13 l
0.12 0.12 l
0.13 0.12 l
0.13 0.12 l
0.14 0.12 l
0.13 0.12 l
0.14 0.11 l
0.14 0.11 l
0.14 0.11 l
0.14 0.10 l
0.15 0.11 l
0.14 0.10 l
0.15 0.09 l
0.15 0.10 l
0.15 0.09 l
0.16 0.09 l
0.15 0.09 l
0.16 0.08 l
0.15 0.09 l
0.16 0.08 l
0.16 0.07 l
0.16 0.08 l
0.17 0.07 l
0.16 0.07 l
0.17 0.06 l
0.16 0.06 l
0.17 0.06 l
0.17 0.06 l
0.17 0.05 l
0.17 0.05 l
0.17 0.05 l
0.17 0.04 l
0.17 0.05 l
0.18 0.03 l
0.17 0.04 l
0.18 0.03 l
0.17 0.03 l
0.18 0.03 l
0.17 0.02 l
0.18 0.02 l
0.18 0.02 l
0.17 0.01 l
0.18 0.01 l
0.18 0.01 l
0.18 0 l
0.17 0.01 l
0 0 l
o
/bg { 0 0 0 } def
np
 598.00 386.84 m
0.18 0 l
0.18 0 l
0.17 -0.01 l
0.18 -0.01 l
0.18 -0.02 l
0.17 -0.01 l
0.18 -0.02 l
0.18 -0.03 l
0.17 -0.02 l
0.18 -0.03 l
0.17 -0.03 l
0.18 -0.04 l
0.17 -0.04 l
0.17 -0.04 l
0.17 -0.04 l
0.17 -0.05 l
0.18 -0.05 l
0.16 -0.06 l
0.17 -0.05 l
0.17 -0.06 l
0.17 -0.06 l
0.16 -0.07 l
0.17 -0.07 l
0.16 -0.07 l
0.16 -0.07 l
0.16 -0.08 l
0.16 -0.08 l
0.16 -0.08 l
0.15 -0.08 l
0.16 -0.09 l
0.15 -0.09 l
0.15 -0.09 l
0.15 -0.10 l
0.15 -0.10 l
0.15 -0.10 l
0.14 -0.10 l
0.14 -0.11 l
0.14 -0.10 l
0.14 -0.12 l
0.14 -0.11 l
0.14 -0.11 l
0.13 -0.12 l
0.13 -0.12 l
0.13 -0.12 l
0.13 -0.13 l
0.12 -0.12 l
0.12 -0.13 l
0.12 -0.13 l
0.12 -0.14 l
0.12 -0.13 l
0.11 -0.14 l
0.11 -0.14 l
0.11 -0.14 l
0.10 -0.14 l
0.11 -0.15 l
0.10 -0.14 l
0.09 -0.15 l
0.10 -0.15 l
0.09 -0.15 l
0.09 -0.16 l
0.09 -0.15 l
0.08 -0.16 l
0.09 -0.15 l
0.08 -0.16 l
0.07 -0.16 l
0.08 -0.16 l
0.07 -0.17 l
0.07 -0.16 l
0.06 -0.17 l
0.06 -0.16 l
0.06 -0.17 l
0.06 -0.17 l
0.05 -0.17 l
0.05 -0.17 l
0.05 -0.17 l
0.04 -0.17 l
0.05 -0.17 l
0.03 -0.18 l
0.04 -0.17 l
0.03 -0.18 l
0.03 -0.17 l
0.03 -0.18 l
0.02 -0.17 l
0.02 -0.18 l
0.02 -0.18 l
0.01 -0.17 l
0.01 -0.18 l
0.01 -0.18 l
0 -0.18 l
0.01 -0.17 l
-0.01 -0.18 l
0 -0.18 l
-0.01 -0.18 l
-0.01 -0.17 l
-0.01 -0.18 l
-0.02 -0.18 l
-0.02 -0.17 l
-0.02 -0.18 l
-0.03 -0.18 l
608.02 374.90 lineto
-0.03 -0.18 l
-0.04 -0.17 l
-0.03 -0.17 l
-0.05 -0.18 l
-0.04 -0.17 l
-0.05 -0.17 l
-0.05 -0.17 l
-0.05 -0.17 l
-0.06 -0.17 l
-0.06 -0.16 l
-0.06 -0.17 l
-0.06 -0.17 l
-0.07 -0.16 l
-0.07 -0.16 l
-0.08 -0.16 l
-0.07 -0.16 l
-0.08 -0.16 l
-0.09 -0.16 l
-0.08 -0.16 l
-0.09 -0.15 l
-0.09 -0.15 l
-0.09 -0.16 l
-0.10 -0.15 l
-0.09 -0.14 l
-0.10 -0.15 l
-0.11 -0.14 l
-0.10 -0.15 l
-0.11 -0.14 l
-0.11 -0.14 l
-0.11 -0.13 l
-0.12 -0.14 l
-0.12 -0.13 l
-0.12 -0.13 l
-0.12 -0.13 l
-0.12 -0.13 l
-0.13 -0.12 l
-0.13 -0.13 l
-0.13 -0.12 l
-0.13 -0.11 l
-0.14 -0.12 l
-0.14 -0.11 l
-0.14 -0.11 l
-0.14 -0.11 l
-0.14 -0.11 l
-0.14 -0.10 l
-0.15 -0.10 l
-0.15 -0.10 l
-0.15 -0.09 l
-0.15 -0.10 l
-0.15 -0.09 l
-0.16 -0.08 l
-0.15 -0.09 l
-0.16 -0.08 l
-0.16 -0.08 l
-0.16 -0.08 l
-0.16 -0.07 l
-0.16 -0.07 l
-0.17 -0.07 l
-0.16 -0.06 l
-0.17 -0.07 l
-0.17 -0.05 l
-0.17 -0.06 l
-0.16 -0.05 l
-0.18 -0.06 l
-0.17 -0.04 l
-0.17 -0.05 l
-0.17 -0.04 l
-0.17 -0.04 l
-0.18 -0.03 l
-0.17 -0.03 l
-0.18 -0.03 l
-0.17 -0.03 l
-0.18 -0.02 l
-0.18 -0.02 l
-0.17 -0.02 l
-0.18 -0.01 l
-0.18 -0.02 l
-0.17 0 l
-0.18 -0.01 l
-0.18 0 l
-0.18 0 l
-0.18 0.01 l
-0.17 0 l
-0.18 0.02 l
-0.18 0.01 l
-0.17 0.02 l
-0.18 0.02 l
-0.18 0.02 l
-0.17 0.03 l
-0.18 0.03 l
-0.17 0.03 l
-0.18 0.03 l
-0.17 0.04 l
-0.17 0.04 l
-0.17 0.05 l
-0.17 0.04 l
-0.18 0.06 l
-0.16 0.05 l
-0.17 0.06 l
594.52 367.10 lineto
-0.17 0.07 l
-0.16 0.06 l
-0.17 0.07 l
-0.16 0.07 l
-0.16 0.07 l
-0.16 0.08 l
-0.16 0.08 l
-0.16 0.08 l
-0.15 0.09 l
-0.16 0.08 l
-0.15 0.09 l
-0.15 0.10 l
-0.15 0.09 l
-0.15 0.10 l
-0.15 0.10 l
-0.14 0.10 l
-0.14 0.11 l
-0.14 0.11 l
-0.14 0.11 l
-0.14 0.11 l
-0.14 0.12 l
-0.13 0.11 l
-0.13 0.12 l
-0.13 0.13 l
-0.13 0.12 l
-0.12 0.13 l
-0.12 0.13 l
-0.12 0.13 l
-0.12 0.13 l
-0.12 0.14 l
-0.11 0.13 l
-0.11 0.14 l
-0.11 0.14 l
-0.10 0.15 l
-0.11 0.14 l
-0.10 0.15 l
-0.09 0.14 l
-0.10 0.15 l
-0.09 0.16 l
-0.09 0.15 l
-0.09 0.15 l
-0.08 0.16 l
-0.09 0.16 l
-0.08 0.16 l
-0.07 0.16 l
-0.08 0.16 l
-0.07 0.16 l
-0.07 0.16 l
-0.06 0.17 l
-0.06 0.17 l
-0.06 0.16 l
-0.06 0.17 l
-0.05 0.17 l
-0.05 0.17 l
-0.05 0.17 l
-0.04 0.17 l
-0.05 0.18 l
-0.03 0.17 l
-0.04 0.17 l
-0.03 0.18 l
-0.03 0.17 l
-0.03 0.18 l
-0.02 0.18 l
-0.02 0.17 l
-0.02 0.18 l
-0.01 0.18 l
-0.01 0.17 l
-0.01 0.18 l
0 0.18 l
-0.01 0.18 l
0.01 0.17 l
0 0.18 l
0.01 0.18 l
0.01 0.18 l
0.01 0.17 l
0.02 0.18 l
0.02 0.18 l
0.02 0.17 l
0.03 0.18 l
0.03 0.17 l
0.03 0.18 l
0.04 0.17 l
0.03 0.18 l
0.05 0.17 l
0.04 0.17 l
0.05 0.17 l
0.05 0.17 l
0.05 0.17 l
0.06 0.17 l
0.06 0.17 l
0.06 0.16 l
0.06 0.17 l
0.07 0.16 l
0.07 0.17 l
0.08 0.16 l
0.07 0.16 l
0.08 0.16 l
0.09 0.15 l
0.08 0.16 l
589.19 381.75 lineto
0.09 0.16 l
0.09 0.15 l
0.10 0.15 l
0.09 0.15 l
0.10 0.14 l
0.11 0.15 l
0.10 0.14 l
0.11 0.14 l
0.11 0.14 l
0.11 0.14 l
0.12 0.13 l
0.12 0.14 l
0.12 0.13 l
0.12 0.13 l
0.12 0.12 l
0.13 0.13 l
0.13 0.12 l
0.13 0.12 l
0.13 0.12 l
0.14 0.11 l
0.14 0.11 l
0.14 0.12 l
0.14 0.10 l
0.14 0.11 l
0.14 0.10 l
0.15 0.10 l
0.15 0.10 l
0.15 0.10 l
0.15 0.09 l
0.15 0.09 l
0.16 0.09 l
0.15 0.08 l
0.16 0.08 l
0.16 0.08 l
0.16 0.08 l
0.16 0.07 l
0.16 0.07 l
0.17 0.07 l
0.16 0.07 l
0.17 0.06 l
0.17 0.06 l
0.17 0.05 l
0.16 0.06 l
0.18 0.05 l
0.17 0.05 l
0.17 0.04 l
0.17 0.04 l
0.17 0.04 l
0.18 0.04 l
0.17 0.03 l
0.18 0.03 l
0.17 0.02 l
0.18 0.03 l
0.18 0.02 l
0.17 0.01 l
0.18 0.02 l
0.18 0.01 l
0.17 0.01 l
0.18 0 l
0.18 0 l
cp p3
np
598.00 104.18 m
0.18 -0.01 l
0.18 0 l
0.17 -0.01 l
0.18 -0.01 l
0.18 -0.01 l
0.17 -0.02 l
0.18 -0.02 l
0.18 -0.02 l
0.17 -0.03 l
0.18 -0.03 l
0.17 -0.03 l
0.18 -0.04 l
0.17 -0.03 l
0.17 -0.05 l
0.17 -0.04 l
0.17 -0.05 l
0.18 -0.05 l
0.16 -0.05 l
0.17 -0.06 l
0.17 -0.06 l
0.17 -0.06 l
0.16 -0.06 l
0.17 -0.07 l
0.16 -0.07 l
0.16 -0.08 l
0.16 -0.07 l
0.16 -0.08 l
0.16 -0.09 l
0.15 -0.08 l
0.16 -0.09 l
0.15 -0.09 l
0.15 -0.09 l
0.15 -0.10 l
0.15 -0.09 l
0.15 -0.10 l
0.14 -0.11 l
0.14 -0.10 l
0.14 -0.11 l
0.14 -0.11 l
0.14 -0.11 l
0.14 -0.12 l
0.13 -0.12 l
0.13 -0.12 l
0.13 -0.12 l
0.13 -0.12 l
0.12 -0.13 l
0.12 -0.13 l
0.12 -0.13 l
0.12 -0.13 l
0.12 -0.14 l
0.11 -0.14 l
0.11 -0.14 l
0.11 -0.14 l
0.10 -0.14 l
0.11 -0.14 l
0.10 -0.15 l
0.09 -0.15 l
0.10 -0.15 l
0.09 -0.15 l
0.09 -0.15 l
0.09 -0.16 l
0.08 -0.15 l
0.09 -0.16 l
0.08 -0.16 l
0.07 -0.16 l
0.08 -0.16 l
0.07 -0.16 l
0.07 -0.17 l
0.06 -0.16 l
0.06 -0.17 l
0.06 -0.17 l
0.06 -0.17 l
0.05 -0.16 l
0.05 -0.18 l
0.05 -0.17 l
0.04 -0.17 l
0.05 -0.17 l
0.03 -0.17 l
0.04 -0.18 l
0.03 -0.17 l
0.03 -0.18 l
0.03 -0.17 l
0.02 -0.18 l
0.02 -0.18 l
0.02 -0.17 l
0.01 -0.18 l
0.01 -0.18 l
0.01 -0.17 l
0 -0.18 l
0.01 -0.18 l
-0.01 -0.18 l
0 -0.18 l
-0.01 -0.17 l
-0.01 -0.18 l
-0.01 -0.18 l
-0.02 -0.17 l
-0.02 -0.18 l
-0.02 -0.18 l
-0.03 -0.17 l
608.02 92.23 lineto
-0.03 -0.17 l
-0.04 -0.18 l
-0.03 -0.17 l
-0.05 -0.17 l
-0.04 -0.17 l
-0.05 -0.17 l
-0.05 -0.18 l
-0.05 -0.16 l
-0.06 -0.17 l
-0.06 -0.17 l
-0.06 -0.17 l
-0.06 -0.16 l
-0.07 -0.17 l
-0.07 -0.16 l
-0.08 -0.16 l
-0.07 -0.16 l
-0.08 -0.16 l
-0.09 -0.16 l
-0.08 -0.15 l
-0.09 -0.16 l
-0.09 -0.15 l
-0.09 -0.15 l
-0.10 -0.15 l
-0.09 -0.15 l
-0.10 -0.15 l
-0.11 -0.14 l
-0.10 -0.14 l
-0.11 -0.14 l
-0.11 -0.14 l
-0.11 -0.14 l
-0.12 -0.14 l
-0.12 -0.13 l
-0.12 -0.13 l
-0.12 -0.13 l
-0.12 -0.13 l
-0.13 -0.12 l
-0.13 -0.12 l
-0.13 -0.12 l
-0.13 -0.12 l
-0.14 -0.12 l
-0.14 -0.11 l
-0.14 -0.11 l
-0.14 -0.11 l
-0.14 -0.10 l
-0.14 -0.11 l
-0.15 -0.10 l
-0.15 -0.09 l
-0.15 -0.10 l
-0.15 -0.09 l
-0.15 -0.09 l
-0.16 -0.09 l
-0.15 -0.08 l
-0.16 -0.09 l
-0.16 -0.08 l
-0.16 -0.07 l
-0.16 -0.08 l
-0.16 -0.07 l
-0.17 -0.07 l
-0.16 -0.06 l
-0.17 -0.06 l
-0.17 -0.06 l
-0.17 -0.06 l
-0.16 -0.05 l
-0.18 -0.05 l
-0.17 -0.05 l
-0.17 -0.04 l
-0.17 -0.05 l
-0.17 -0.03 l
-0.18 -0.04 l
-0.17 -0.03 l
-0.18 -0.03 l
-0.17 -0.03 l
-0.18 -0.02 l
-0.18 -0.02 l
-0.17 -0.02 l
-0.18 -0.01 l
-0.18 -0.01 l
-0.17 -0.01 l
-0.18 0 l
-0.18 -0.01 l
-0.18 0.01 l
-0.18 0 l
-0.17 0.01 l
-0.18 0.01 l
-0.18 0.01 l
-0.17 0.02 l
-0.18 0.02 l
-0.18 0.02 l
-0.17 0.03 l
-0.18 0.03 l
-0.17 0.03 l
-0.18 0.04 l
-0.17 0.03 l
-0.17 0.05 l
-0.17 0.04 l
-0.17 0.05 l
-0.18 0.05 l
-0.16 0.05 l
-0.17 0.06 l
594.52 84.44 lineto
-0.17 0.06 l
-0.16 0.06 l
-0.17 0.07 l
-0.16 0.07 l
-0.16 0.08 l
-0.16 0.07 l
-0.16 0.08 l
-0.16 0.09 l
-0.15 0.08 l
-0.16 0.09 l
-0.15 0.09 l
-0.15 0.09 l
-0.15 0.10 l
-0.15 0.09 l
-0.15 0.10 l
-0.14 0.11 l
-0.14 0.10 l
-0.14 0.11 l
-0.14 0.11 l
-0.14 0.11 l
-0.14 0.12 l
-0.13 0.12 l
-0.13 0.12 l
-0.13 0.12 l
-0.13 0.12 l
-0.12 0.13 l
-0.12 0.13 l
-0.12 0.13 l
-0.12 0.13 l
-0.12 0.14 l
-0.11 0.14 l
-0.11 0.14 l
-0.11 0.14 l
-0.10 0.14 l
-0.11 0.14 l
-0.10 0.15 l
-0.09 0.15 l
-0.10 0.15 l
-0.09 0.15 l
-0.09 0.15 l
-0.09 0.16 l
-0.08 0.15 l
-0.09 0.16 l
-0.08 0.16 l
-0.07 0.16 l
-0.08 0.16 l
-0.07 0.16 l
-0.07 0.17 l
-0.06 0.16 l
-0.06 0.17 l
-0.06 0.17 l
-0.06 0.17 l
-0.05 0.16 l
-0.05 0.18 l
-0.05 0.17 l
-0.04 0.17 l
-0.05 0.17 l
-0.03 0.17 l
-0.04 0.18 l
-0.03 0.17 l
-0.03 0.18 l
-0.03 0.17 l
-0.02 0.18 l
-0.02 0.18 l
-0.02 0.17 l
-0.01 0.18 l
-0.01 0.18 l
-0.01 0.17 l
0 0.18 l
-0.01 0.18 l
0.01 0.18 l
0 0.18 l
0.01 0.17 l
0.01 0.18 l
0.01 0.18 l
0.02 0.17 l
0.02 0.18 l
0.02 0.18 l
0.03 0.17 l
0.03 0.18 l
0.03 0.17 l
0.04 0.18 l
0.03 0.17 l
0.05 0.17 l
0.04 0.17 l
0.05 0.17 l
0.05 0.18 l
0.05 0.16 l
0.06 0.17 l
0.06 0.17 l
0.06 0.17 l
0.06 0.16 l
0.07 0.17 l
0.07 0.16 l
0.08 0.16 l
0.07 0.16 l
0.08 0.16 l
0.09 0.16 l
0.08 0.15 l
589.19 99.09 lineto
0.09 0.15 l
0.09 0.15 l
0.10 0.15 l
0.09 0.15 l
0.10 0.15 l
0.11 0.14 l
0.10 0.14 l
0.11 0.14 l
0.11 0.14 l
0.11 0.14 l
0.12 0.14 l
0.12 0.13 l
0.12 0.13 l
0.12 0.13 l
0.12 0.13 l
0.13 0.12 l
0.13 0.12 l
0.13 0.12 l
0.13 0.12 l
0.14 0.12 l
0.14 0.11 l
0.14 0.11 l
0.14 0.11 l
0.14 0.10 l
0.14 0.11 l
0.15 0.10 l
0.15 0.09 l
0.15 0.10 l
0.15 0.09 l
0.15 0.09 l
0.16 0.09 l
0.15 0.08 l
0.16 0.09 l
0.16 0.08 l
0.16 0.07 l
0.16 0.08 l
0.16 0.07 l
0.17 0.07 l
0.16 0.06 l
0.17 0.06 l
0.17 0.06 l
0.17 0.06 l
0.16 0.05 l
0.18 0.05 l
0.17 0.05 l
0.17 0.04 l
0.17 0.05 l
0.17 0.03 l
0.18 0.04 l
0.17 0.03 l
0.18 0.03 l
0.17 0.03 l
0.18 0.02 l
0.18 0.02 l
0.17 0.02 l
0.18 0.01 l
0.18 0.01 l
0.17 0.01 l
0.18 0 l
0.18 0.01 l
0 0 l
o
np
 732.67 245.51 m
0.17 0 l
0.18 -0.01 l
0.18 0 l
0.18 -0.02 l
0.17 -0.01 l
0.18 -0.02 l
0.18 -0.02 l
0.17 -0.02 l
0.18 -0.03 l
0.17 -0.03 l
0.18 -0.03 l
0.17 -0.03 l
0.18 -0.04 l
0.17 -0.04 l
0.17 -0.05 l
0.17 -0.04 l
0.17 -0.06 l
0.17 -0.05 l
0.17 -0.06 l
0.17 -0.05 l
0.16 -0.07 l
0.17 -0.06 l
0.16 -0.07 l
0.17 -0.07 l
0.16 -0.07 l
0.16 -0.08 l
0.16 -0.08 l
0.15 -0.08 l
0.16 -0.09 l
0.15 -0.08 l
0.16 -0.09 l
0.15 -0.10 l
0.15 -0.09 l
0.15 -0.10 l
0.14 -0.10 l
0.15 -0.10 l
0.14 -0.11 l
0.14 -0.11 l
0.14 -0.11 l
0.14 -0.11 l
0.13 -0.12 l
0.14 -0.11 l
0.13 -0.12 l
0.13 -0.13 l
0.12 -0.12 l
0.13 -0.13 l
0.12 -0.13 l
0.12 -0.13 l
0.12 -0.13 l
0.11 -0.14 l
0.11 -0.13 l
0.12 -0.14 l
0.10 -0.14 l
0.11 -0.15 l
0.10 -0.14 l
0.10 -0.15 l
0.10 -0.14 l
0.10 -0.15 l
0.09 -0.16 l
0.09 -0.15 l
0.09 -0.15 l
0.08 -0.16 l
0.08 -0.16 l
0.08 -0.16 l
0.08 -0.16 l
0.07 -0.16 l
0.07 -0.16 l
0.07 -0.16 l
0.07 -0.17 l
0.06 -0.17 l
0.06 -0.16 l
0.05 -0.17 l
0.06 -0.17 l
0.05 -0.17 l
0.05 -0.17 l
0.04 -0.17 l
0.04 -0.18 l
0.04 -0.17 l
0.04 -0.17 l
0.03 -0.18 l
0.03 -0.17 l
0.02 -0.18 l
0.03 -0.18 l
0.02 -0.17 l
0.01 -0.18 l
0.02 -0.18 l
0.01 -0.17 l
0.01 -0.18 l
0 -0.18 l
0 -0.18 l
0 -0.17 l
0 -0.18 l
-0.01 -0.18 l
-0.01 -0.18 l
-0.02 -0.17 l
-0.01 -0.18 l
-0.02 -0.18 l
-0.03 -0.17 l
-0.02 -0.18 l
742.69 233.57 lineto
-0.03 -0.18 l
-0.04 -0.17 l
-0.04 -0.18 l
-0.04 -0.17 l
-0.04 -0.17 l
-0.05 -0.17 l
-0.05 -0.17 l
-0.06 -0.17 l
-0.05 -0.17 l
-0.06 -0.17 l
-0.06 -0.16 l
-0.07 -0.17 l
-0.07 -0.16 l
-0.07 -0.17 l
-0.07 -0.16 l
-0.08 -0.16 l
-0.08 -0.16 l
-0.08 -0.15 l
-0.08 -0.16 l
-0.09 -0.15 l
-0.09 -0.16 l
-0.09 -0.15 l
-0.10 -0.15 l
-0.10 -0.15 l
-0.10 -0.14 l
-0.10 -0.15 l
-0.11 -0.14 l
-0.10 -0.14 l
-0.12 -0.14 l
-0.11 -0.14 l
-0.11 -0.13 l
-0.12 -0.14 l
-0.12 -0.13 l
-0.12 -0.13 l
-0.13 -0.12 l
-0.12 -0.13 l
-0.13 -0.12 l
-0.13 -0.12 l
-0.14 -0.12 l
-0.13 -0.11 l
-0.14 -0.11 l
-0.14 -0.12 l
-0.14 -0.10 l
-0.14 -0.11 l
-0.15 -0.10 l
-0.14 -0.10 l
-0.15 -0.10 l
-0.15 -0.10 l
-0.15 -0.09 l
-0.16 -0.09 l
-0.15 -0.09 l
-0.16 -0.08 l
-0.15 -0.08 l
-0.16 -0.08 l
-0.16 -0.08 l
-0.16 -0.07 l
-0.17 -0.07 l
-0.16 -0.07 l
-0.17 -0.07 l
-0.16 -0.06 l
-0.17 -0.06 l
-0.17 -0.05 l
-0.17 -0.06 l
-0.17 -0.05 l
-0.17 -0.05 l
-0.17 -0.04 l
-0.17 -0.04 l
-0.18 -0.04 l
-0.17 -0.04 l
-0.18 -0.03 l
-0.17 -0.03 l
-0.18 -0.02 l
-0.17 -0.03 l
-0.18 -0.02 l
-0.18 -0.01 l
-0.17 -0.02 l
-0.18 -0.01 l
-0.18 -0.01 l
-0.18 0 l
-0.17 0 l
-0.18 0 l
-0.18 0 l
-0.18 0.01 l
-0.17 0.01 l
-0.18 0.02 l
-0.18 0.01 l
-0.17 0.02 l
-0.18 0.03 l
-0.18 0.02 l
-0.17 0.03 l
-0.18 0.03 l
-0.17 0.04 l
-0.17 0.04 l
-0.18 0.04 l
-0.17 0.04 l
-0.17 0.05 l
-0.17 0.05 l
-0.17 0.06 l
-0.17 0.05 l
729.19 225.77 lineto
-0.17 0.06 l
-0.17 0.07 l
-0.16 0.07 l
-0.16 0.07 l
-0.16 0.07 l
-0.16 0.08 l
-0.16 0.08 l
-0.16 0.08 l
-0.16 0.08 l
-0.15 0.09 l
-0.15 0.09 l
-0.16 0.09 l
-0.15 0.10 l
-0.14 0.10 l
-0.15 0.10 l
-0.14 0.10 l
-0.15 0.11 l
-0.14 0.10 l
-0.14 0.12 l
-0.13 0.11 l
-0.14 0.11 l
-0.13 0.12 l
-0.13 0.12 l
-0.13 0.12 l
-0.13 0.13 l
-0.12 0.12 l
-0.13 0.13 l
-0.12 0.13 l
-0.11 0.14 l
-0.12 0.13 l
-0.11 0.14 l
-0.11 0.14 l
-0.11 0.14 l
-0.11 0.14 l
-0.10 0.15 l
-0.10 0.14 l
-0.10 0.15 l
-0.09 0.15 l
-0.10 0.15 l
-0.09 0.16 l
-0.08 0.15 l
-0.09 0.16 l
-0.08 0.15 l
-0.08 0.16 l
-0.08 0.16 l
-0.07 0.16 l
-0.07 0.17 l
-0.07 0.16 l
-0.06 0.17 l
-0.07 0.16 l
-0.05 0.17 l
-0.06 0.17 l
-0.05 0.17 l
-0.06 0.17 l
-0.04 0.17 l
-0.05 0.17 l
-0.04 0.17 l
-0.04 0.18 l
-0.03 0.17 l
-0.03 0.18 l
-0.03 0.17 l
-0.03 0.18 l
-0.02 0.17 l
-0.02 0.18 l
-0.02 0.18 l
-0.01 0.17 l
-0.02 0.18 l
0 0.18 l
-0.01 0.18 l
0 0.17 l
0 0.18 l
0.01 0.18 l
0 0.18 l
0.02 0.17 l
0.01 0.18 l
0.02 0.18 l
0.02 0.17 l
0.02 0.18 l
0.03 0.18 l
0.03 0.17 l
0.03 0.18 l
0.03 0.17 l
0.04 0.17 l
0.04 0.18 l
0.05 0.17 l
0.04 0.17 l
0.06 0.17 l
0.05 0.17 l
0.06 0.17 l
0.05 0.16 l
0.07 0.17 l
0.06 0.17 l
0.07 0.16 l
0.07 0.16 l
0.07 0.16 l
0.08 0.16 l
0.08 0.16 l
0.08 0.16 l
0.09 0.16 l
723.85 240.42 lineto
0.09 0.15 l
0.10 0.16 l
0.09 0.15 l
0.10 0.14 l
0.10 0.15 l
0.10 0.14 l
0.11 0.15 l
0.11 0.14 l
0.11 0.14 l
0.11 0.13 l
0.12 0.14 l
0.11 0.13 l
0.12 0.13 l
0.13 0.13 l
0.12 0.13 l
0.13 0.12 l
0.13 0.13 l
0.13 0.12 l
0.13 0.11 l
0.14 0.12 l
0.13 0.11 l
0.14 0.11 l
0.14 0.11 l
0.15 0.11 l
0.14 0.10 l
0.15 0.10 l
0.14 0.10 l
0.15 0.09 l
0.16 0.10 l
0.15 0.09 l
0.15 0.08 l
0.16 0.09 l
0.16 0.08 l
0.16 0.08 l
0.16 0.08 l
0.16 0.07 l
0.16 0.07 l
0.16 0.07 l
0.17 0.06 l
0.17 0.07 l
0.16 0.05 l
0.17 0.06 l
0.17 0.05 l
0.17 0.06 l
0.17 0.04 l
0.17 0.05 l
0.18 0.04 l
0.17 0.04 l
0.17 0.03 l
0.18 0.03 l
0.17 0.03 l
0.18 0.03 l
0.18 0.02 l
0.17 0.02 l
0.18 0.02 l
0.18 0.01 l
0.17 0.02 l
0.18 0 l
0.18 0.01 l
0.18 0 l
cp p3
np
732.67 104.18 m
0.17 -0.01 l
0.18 0 l
0.18 -0.01 l
0.18 -0.01 l
0.17 -0.01 l
0.18 -0.02 l
0.18 -0.02 l
0.17 -0.02 l
0.18 -0.03 l
0.17 -0.03 l
0.18 -0.03 l
0.17 -0.04 l
0.18 -0.03 l
0.17 -0.05 l
0.17 -0.04 l
0.17 -0.05 l
0.17 -0.05 l
0.17 -0.05 l
0.17 -0.06 l
0.17 -0.06 l
0.16 -0.06 l
0.17 -0.06 l
0.16 -0.07 l
0.17 -0.07 l
0.16 -0.08 l
0.16 -0.07 l
0.16 -0.08 l
0.15 -0.09 l
0.16 -0.08 l
0.15 -0.09 l
0.16 -0.09 l
0.15 -0.09 l
0.15 -0.10 l
0.15 -0.09 l
0.14 -0.10 l
0.15 -0.11 l
0.14 -0.10 l
0.14 -0.11 l
0.14 -0.11 l
0.14 -0.11 l
0.13 -0.12 l
0.14 -0.12 l
0.13 -0.12 l
0.13 -0.12 l
0.12 -0.12 l
0.13 -0.13 l
0.12 -0.13 l
0.12 -0.13 l
0.12 -0.13 l
0.11 -0.14 l
0.11 -0.14 l
0.12 -0.14 l
0.10 -0.14 l
0.11 -0.14 l
0.10 -0.14 l
0.10 -0.15 l
0.10 -0.15 l
0.10 -0.15 l
0.09 -0.15 l
0.09 -0.15 l
0.09 -0.16 l
0.08 -0.15 l
0.08 -0.16 l
0.08 -0.16 l
0.08 -0.16 l
0.07 -0.16 l
0.07 -0.16 l
0.07 -0.17 l
0.07 -0.16 l
0.06 -0.17 l
0.06 -0.17 l
0.05 -0.17 l
0.06 -0.16 l
0.05 -0.18 l
0.05 -0.17 l
0.04 -0.17 l
0.04 -0.17 l
0.04 -0.17 l
0.04 -0.18 l
0.03 -0.17 l
0.03 -0.18 l
0.02 -0.17 l
0.03 -0.18 l
0.02 -0.18 l
0.01 -0.17 l
0.02 -0.18 l
0.01 -0.18 l
0.01 -0.17 l
0 -0.18 l
0 -0.18 l
0 -0.18 l
0 -0.18 l
-0.01 -0.17 l
-0.01 -0.18 l
-0.02 -0.18 l
-0.01 -0.17 l
-0.02 -0.18 l
-0.03 -0.18 l
-0.02 -0.17 l
742.69 92.23 lineto
-0.03 -0.17 l
-0.04 -0.18 l
-0.04 -0.17 l
-0.04 -0.17 l
-0.04 -0.17 l
-0.05 -0.17 l
-0.05 -0.18 l
-0.06 -0.16 l
-0.05 -0.17 l
-0.06 -0.17 l
-0.06 -0.17 l
-0.07 -0.16 l
-0.07 -0.17 l
-0.07 -0.16 l
-0.07 -0.16 l
-0.08 -0.16 l
-0.08 -0.16 l
-0.08 -0.16 l
-0.08 -0.15 l
-0.09 -0.16 l
-0.09 -0.15 l
-0.09 -0.15 l
-0.10 -0.15 l
-0.10 -0.15 l
-0.10 -0.15 l
-0.10 -0.14 l
-0.11 -0.14 l
-0.10 -0.14 l
-0.12 -0.14 l
-0.11 -0.14 l
-0.11 -0.14 l
-0.12 -0.13 l
-0.12 -0.13 l
-0.12 -0.13 l
-0.13 -0.13 l
-0.12 -0.12 l
-0.13 -0.12 l
-0.13 -0.12 l
-0.14 -0.12 l
-0.13 -0.12 l
-0.14 -0.11 l
-0.14 -0.11 l
-0.14 -0.11 l
-0.14 -0.10 l
-0.15 -0.11 l
-0.14 -0.10 l
-0.15 -0.09 l
-0.15 -0.10 l
-0.15 -0.09 l
-0.16 -0.09 l
-0.15 -0.09 l
-0.16 -0.08 l
-0.15 -0.09 l
-0.16 -0.08 l
-0.16 -0.07 l
-0.16 -0.08 l
-0.17 -0.07 l
-0.16 -0.07 l
-0.17 -0.06 l
-0.16 -0.06 l
-0.17 -0.06 l
-0.17 -0.06 l
-0.17 -0.05 l
-0.17 -0.05 l
-0.17 -0.05 l
-0.17 -0.04 l
-0.17 -0.05 l
-0.18 -0.03 l
-0.17 -0.04 l
-0.18 -0.03 l
-0.17 -0.03 l
-0.18 -0.03 l
-0.17 -0.02 l
-0.18 -0.02 l
-0.18 -0.02 l
-0.17 -0.01 l
-0.18 -0.01 l
-0.18 -0.01 l
-0.18 0 l
-0.17 -0.01 l
-0.18 0.01 l
-0.18 0 l
-0.18 0.01 l
-0.17 0.01 l
-0.18 0.01 l
-0.18 0.02 l
-0.17 0.02 l
-0.18 0.02 l
-0.18 0.03 l
-0.17 0.03 l
-0.18 0.03 l
-0.17 0.04 l
-0.17 0.03 l
-0.18 0.05 l
-0.17 0.04 l
-0.17 0.05 l
-0.17 0.05 l
-0.17 0.05 l
-0.17 0.06 l
729.19 84.44 lineto
-0.17 0.06 l
-0.17 0.06 l
-0.16 0.07 l
-0.16 0.07 l
-0.16 0.08 l
-0.16 0.07 l
-0.16 0.08 l
-0.16 0.09 l
-0.16 0.08 l
-0.15 0.09 l
-0.15 0.09 l
-0.16 0.09 l
-0.15 0.10 l
-0.14 0.09 l
-0.15 0.10 l
-0.14 0.11 l
-0.15 0.10 l
-0.14 0.11 l
-0.14 0.11 l
-0.13 0.11 l
-0.14 0.12 l
-0.13 0.12 l
-0.13 0.12 l
-0.13 0.12 l
-0.13 0.12 l
-0.12 0.13 l
-0.13 0.13 l
-0.12 0.13 l
-0.11 0.13 l
-0.12 0.14 l
-0.11 0.14 l
-0.11 0.14 l
-0.11 0.14 l
-0.11 0.14 l
-0.10 0.14 l
-0.10 0.15 l
-0.10 0.15 l
-0.09 0.15 l
-0.10 0.15 l
-0.09 0.15 l
-0.08 0.16 l
-0.09 0.15 l
-0.08 0.16 l
-0.08 0.16 l
-0.08 0.16 l
-0.07 0.16 l
-0.07 0.16 l
-0.07 0.17 l
-0.06 0.16 l
-0.07 0.17 l
-0.05 0.17 l
-0.06 0.17 l
-0.05 0.16 l
-0.06 0.18 l
-0.04 0.17 l
-0.05 0.17 l
-0.04 0.17 l
-0.04 0.17 l
-0.03 0.18 l
-0.03 0.17 l
-0.03 0.18 l
-0.03 0.17 l
-0.02 0.18 l
-0.02 0.18 l
-0.02 0.17 l
-0.01 0.18 l
-0.02 0.18 l
0 0.17 l
-0.01 0.18 l
0 0.18 l
0 0.18 l
0.01 0.18 l
0 0.17 l
0.02 0.18 l
0.01 0.18 l
0.02 0.17 l
0.02 0.18 l
0.02 0.18 l
0.03 0.17 l
0.03 0.18 l
0.03 0.17 l
0.03 0.18 l
0.04 0.17 l
0.04 0.17 l
0.05 0.17 l
0.04 0.17 l
0.06 0.18 l
0.05 0.16 l
0.06 0.17 l
0.05 0.17 l
0.07 0.17 l
0.06 0.16 l
0.07 0.17 l
0.07 0.16 l
0.07 0.16 l
0.08 0.16 l
0.08 0.16 l
0.08 0.16 l
0.09 0.15 l
723.85 99.09 lineto
0.09 0.15 l
0.10 0.15 l
0.09 0.15 l
0.10 0.15 l
0.10 0.15 l
0.10 0.14 l
0.11 0.14 l
0.11 0.14 l
0.11 0.14 l
0.11 0.14 l
0.12 0.14 l
0.11 0.13 l
0.12 0.13 l
0.13 0.13 l
0.12 0.13 l
0.13 0.12 l
0.13 0.12 l
0.13 0.12 l
0.13 0.12 l
0.14 0.12 l
0.13 0.11 l
0.14 0.11 l
0.14 0.11 l
0.15 0.10 l
0.14 0.11 l
0.15 0.10 l
0.14 0.09 l
0.15 0.10 l
0.16 0.09 l
0.15 0.09 l
0.15 0.09 l
0.16 0.08 l
0.16 0.09 l
0.16 0.08 l
0.16 0.07 l
0.16 0.08 l
0.16 0.07 l
0.16 0.07 l
0.17 0.06 l
0.17 0.06 l
0.16 0.06 l
0.17 0.06 l
0.17 0.05 l
0.17 0.05 l
0.17 0.05 l
0.17 0.04 l
0.18 0.05 l
0.17 0.03 l
0.17 0.04 l
0.18 0.03 l
0.17 0.03 l
0.18 0.03 l
0.18 0.02 l
0.17 0.02 l
0.18 0.02 l
0.18 0.01 l
0.17 0.01 l
0.18 0.01 l
0.18 0 l
0.18 0.01 l
0 0 l
o
np
69.51 518.00 m
114.31 0 l
o
np
338.84 518.00 m
114.32 0 l
o
np
338.84 376.67 m
114.32 0 l
o
np
69.51 235.33 m
114.31 0 l
o
np
338.84 235.33 m
114.32 0 l
o
np
608.18 235.33 m
114.31 0 l
o
np
59.33 387.97 m
0 31.10 l
o
np
194.00 387.97 m
0 31.10 l
o
np
328.67 387.97 m
0 31.10 l
o
np
59.33 419.07 m
269.34 0 l
o
np
194.00 419.07 m
0 29.68 l
o
np
194.00 448.75 m
-67.33 39.57 l
o
np
126.67 488.32 m
0 29.68 l
o
np
463.33 387.97 m
0 31.10 l
o
np
598.00 387.97 m
0 31.10 l
o
np
463.33 419.07 m
134.67 0 l
o
np
530.67 419.07 m
0 29.68 l
o
np
530.67 448.75 m
-134.67 39.57 l
o
np
396.00 488.32 m
0 29.68 l
o
np
194.00 246.64 m
0 31.09 l
o
np
328.67 246.64 m
0 31.09 l
o
np
732.67 246.64 m
0 31.09 l
o
np
194.00 277.73 m
538.67 0 l
o
np
463.33 277.73 m
0 29.68 l
o
np
463.33 307.41 m
-67.33 39.58 l
o
np
396.00 346.99 m
0 29.68 l
o
np
59.33 105.31 m
0 31.09 l
o
np
59.33 136.40 m
0 0 l
o
np
59.33 136.40 m
0 29.68 l
o
np
59.33 166.08 m
67.34 39.57 l
o
np
126.67 205.65 m
0 29.68 l
o
np
194.00 105.31 m
0 31.09 l
o
np
194.00 136.40 m
0 0 l
o
np
194.00 136.40 m
0 29.68 l
o
np
194.00 166.08 m
202.00 39.57 l
o
np
396.00 205.65 m
0 29.68 l
o
np
328.67 105.31 m
0 31.09 l
o
np
463.33 105.31 m
0 31.09 l
o
np
598.00 105.31 m
0 31.09 l
o
np
732.67 105.31 m
0 31.09 l
o
np
328.67 136.40 m
404.00 0 l
o
np
530.67 136.40 m
0 29.68 l
o
np
530.67 166.08 m
134.66 39.57 l
o
np
665.33 205.65 m
0 29.68 l
o
194.00 235.33 13.50 c p1
18.00 18.00 774.00 594.00 cl
/ps 8 def /Font1 findfont 8 s
0 0 0 rgb
93.00 573.84 (Carrier probability = 0.169) 0 0 0 t
18.00 18.00 774.00 594.00 cl
/ps 9 def /Font1 findfont 9 s
0 0 0 rgb
194.00 204.06 (57) .5 0 0 t
328.67 345.32 (70) .5 0 0 t
463.33 345.32 (87) .5 0 0 t
59.33 62.66 (32) .5 0 0 t
328.67 203.99 (50) .5 0 0 t
194.00 486.66 (65) .5 0 0 t
59.33 486.66 (96) .5 0 0 t
463.33 486.72 (75) .5 0 0 t
328.67 486.66 (94) .5 0 0 t
59.33 345.32 (85) .5 0 0 t
194.00 345.32 (79) .5 0 0 t
194.00 62.66 (23) .5 0 0 t
328.67 62.57 (12) .5 0 0 t
463.33 62.57 (22) .5 0 0 t
598.00 62.66 (19) .5 0 0 t
732.67 62.66 (16) .5 0 0 t
732.67 203.84 (PC  45) .5 0 0 t
598.00 345.17 (PC  85) .5 0 0 t
ep
%%Trailer
%%Pages: 1
%%EOF
