age.women,age.fdr,risk
20,29,0.005679
21,29,0.006104
22,29,0.00651
23,29,0.006743
24,29,0.006907
25,29,0.007186
26,29,0.007928
27,29,0.009529
28,29,0.011494
29,29,0.013526
30,29,0.015522
31,29,0.017506
32,29,0.019561
33,29,0.021789
34,29,0.024275
35,29,0.02708
36,29,0.030218
37,29,0.033556
38,29,0.037003
39,29,0.040557
40,29,0.044252
41,29,0.048134
42,29,0.052241
43,29,0.056594
44,29,0.061193
45,29,0.066023
46,29,0.071011
47,29,0.075988
48,29,0.080998
49,29,0.086076
50,29,0.091246
51,29,0.096529
52,29,0.101937
53,29,0.107482
54,29,0.113173
55,29,0.118919
56,29,0.124655
57,29,0.130329
58,29,0.135943
59,29,0.141503
60,29,0.147017
61,29,0.152498
62,29,0.15795
63,29,0.163348
64,29,0.168613
65,29,0.173637
66,29,0.178417
67,29,0.182981
68,29,0.187381
69,29,0.191676
70,29,0.195904
71,29,0.200041
72,29,0.203936
73,29,0.20725
74,29,0.209446
75,29,0.210887
76,29,0.211883
77,29,0.212322
78,29,0.212549
79,29,0.212849
20,39,0.004431
21,39,0.004759
22,39,0.004895
23,39,0.005195
24,39,0.005517
25,39,0.00576
26,39,0.006053
27,39,0.006528
28,39,0.007281
29,39,0.008659
30,39,0.010253
31,39,0.011845
32,39,0.013398
33,39,0.01497
34,39,0.016648
35,39,0.018514
36,39,0.020629
37,39,0.023025
38,39,0.025708
39,39,0.02843
40,39,0.031167
41,39,0.033969
42,39,0.036895
43,39,0.039996
44,39,0.043293
45,39,0.046798
46,39,0.050512
47,39,0.054427
48,39,0.05853
49,39,0.062603
50,39,0.066681
51,39,0.070825
52,39,0.075075
53,39,0.079372
54,39,0.083719
55,39,0.088114
56,39,0.092551
57,39,0.097023
58,39,0.101525
59,39,0.106018
60,39,0.110537
61,39,0.1151
62,39,0.11968
63,39,0.124111
64,39,0.128386
65,39,0.132519
66,39,0.136543
67,39,0.140512
68,39,0.144474
69,39,0.148445
70,39,0.152345
71,39,0.155911
72,39,0.158691
73,39,0.160996
74,39,0.162885
75,39,0.163608
76,39,0.164442
77,39,0.165707
78,39,0.166285
79,39,0.166525
20,49,0.002627
21,49,0.002786
22,49,0.003142
23,49,0.003264
24,49,0.003445
25,49,0.003677
26,49,0.003921
27,49,0.004276
28,49,0.004821
29,49,0.005693
30,49,0.006871
31,49,0.008093
32,49,0.009282
33,49,0.010463
34,49,0.0117
35,49,0.01306
36,49,0.0146
37,49,0.016349
38,49,0.018319
39,49,0.020424
40,49,0.022485
41,49,0.024552
42,49,0.026692
43,49,0.028953
44,49,0.031367
45,49,0.033953
46,49,0.03672
47,49,0.039671
48,49,0.042802
49,49,0.046036
50,49,0.049246
51,49,0.052503
52,49,0.055806
53,49,0.059157
54,49,0.062572
55,49,0.066055
56,49,0.069611
57,49,0.073239
58,49,0.076939
59,49,0.080697
60,49,0.084506
61,49,0.088391
62,49,0.092244
63,49,0.096008
64,49,0.099679
65,49,0.10327
66,49,0.106807
67,49,0.110326
68,49,0.113854
69,49,0.117373
70,49,0.120765
71,49,0.123726
72,49,0.126202
73,49,0.128299
74,49,0.129933
75,49,0.130068
76,49,0.131569
77,49,0.132788
78,49,0.132987
79,49,0.133492
20,59,0.001853
21,59,0.001941
22,59,0.002179
23,59,0.002293
24,59,0.002392
25,59,0.002531
26,59,0.002651
27,59,0.002837
28,59,0.003156
29,59,0.003658
30,59,0.004473
31,59,0.005342
32,59,0.006179
33,59,0.006996
34,59,0.007849
35,59,0.008797
36,59,0.00989
37,59,0.01116
38,59,0.012618
39,59,0.014252
40,59,0.015818
41,59,0.017363
42,59,0.018965
43,59,0.020669
44,59,0.022511
45,59,0.024514
46,59,0.02669
47,59,0.029047
48,59,0.031581
49,59,0.034283
50,59,0.036953
51,59,0.03966
52,59,0.042402
53,59,0.045203
54,59,0.048081
55,59,0.051046
56,59,0.054101
57,59,0.057247
58,59,0.060485
59,59,0.063811
60,59,0.067194
61,59,0.070657
62,59,0.07408
63,59,0.077445
64,59,0.080749
65,59,0.084
66,59,0.087219
67,59,0.090429
68,59,0.093644
69,59,0.096834
70,59,0.099872
71,59,0.102455
72,59,0.104687
73,59,0.106594
74,59,0.107646
75,59,0.108226
76,59,0.109634
77,59,0.110787
78,59,0.111419
79,59,0.111419
20,69,0.00176
21,69,0.001884
22,69,0.002168
23,69,0.002287
24,69,0.002359
25,69,0.002443
26,69,0.002481
27,69,0.002549
28,69,0.002711
29,69,0.003009
30,69,0.003526
31,69,0.004154
32,69,0.004772
33,69,0.005371
34,69,0.005991
35,69,0.006682
36,69,0.007494
37,69,0.008458
38,69,0.009588
39,69,0.010881
40,69,0.0122
41,69,0.013464
42,69,0.014747
43,69,0.016106
44,69,0.01758
45,69,0.019199
46,69,0.020982
47,69,0.022938
48,69,0.02507
49,69,0.027375
50,69,0.029745
51,69,0.032098
52,69,0.034469
53,69,0.03689
54,69,0.039386
55,69,0.041973
56,69,0.044661
57,69,0.047455
58,69,0.050358
59,69,0.053371
60,69,0.056476
61,69,0.059612
62,69,0.062721
63,69,0.065795
64,69,0.068831
65,69,0.071838
66,69,0.074832
67,69,0.077829
68,69,0.080829
69,69,0.083779
70,69,0.086515
71,69,0.088897
72,69,0.090979
73,69,0.092787
74,69,0.093319
75,69,0.094369
76,69,0.095761
77,69,0.096647
78,69,0.096896
79,69,0.097447
20,79,0.001523
21,79,0.000912
22,79,0.000831
23,79,0.001033
24,79,0.001268
25,79,0.001444
26,79,0.00157
27,79,0.001701
28,79,0.001893
29,79,0.002187
30,79,0.002604
31,79,0.003174
32,79,0.003764
33,79,0.004318
34,79,0.004855
35,79,0.005428
36,79,0.006087
37,79,0.006872
38,79,0.007805
39,79,0.00889
40,79,0.01011
41,79,0.011301
42,79,0.012451
43,79,0.013626
44,79,0.014881
45,79,0.016254
46,79,0.017774
47,79,0.01946
48,79,0.021322
49,79,0.023365
50,79,0.025573
51,79,0.02776
52,79,0.029903
53,79,0.032056
54,79,0.034259
55,79,0.036544
56,79,0.038933
57,79,0.041442
58,79,0.044082
59,79,0.046864
60,79,0.049761
61,79,0.052651
62,79,0.055516
63,79,0.058362
64,79,0.061196
65,79,0.064038
66,79,0.066909
67,79,0.069825
68,79,0.072768
69,79,0.075642
70,79,0.078276
71,79,0.080671
72,79,0.082827
73,79,0.084601
74,79,0.084771
75,79,0.086539
76,79,0.088123
77,79,0.088464
78,79,0.089361
79,79,0.089772
