femBRCAnegcomprisk,femBRCA1poscomprisk,femBRCA2poscomprisk,femBRCApluspluscomprisk,femBRCAnegcomprisk1,femBRCA1poscomprisk1,femBRCA2poscomprisk1,femBRCApluspluscomprisk1,maleBRCAnegcomprisk,maleBRCA1poscomprisk,maleBRCA2poscomprisk,maleBRCApluspluscomprisk,maleBRCAnegcomprisk1,maleBRCA1poscomprisk1,maleBRCA2poscomprisk1,maleBRCApluspluscomprisk1
0.999959955,0.999886552,0.999924628,0.999811196,0.999959955,0.999886552,0.999924628,0.999811196,0.999989812,0.999981106,0.999984625,0.999965732,0.999989812,0.999981106,0.999984625,0.999965732
0.999916738,0.99976411,0.999843292,0.999607457,0.999916738,0.99976411,0.999843292,0.999607457,0.999978492,0.999960215,0.999967354,0.999927571,0.999978492,0.999960215,0.999967354,0.999927571
0.999870099,0.999631966,0.999755521,0.999387607,0.999870099,0.999631966,0.999755521,0.999387607,0.999965914,0.999937116,0.999947952,0.999885072,0.999965914,0.999937116,0.999947952,0.999885072
0.999819767,0.999489352,0.999660808,0.999150377,0.999819767,0.999489352,0.999660808,0.999150377,0.999951936,0.999911576,0.999926156,0.99983774,0.999951936,0.999911576,0.999926156,0.99983774
0.99976545,0.999335443,0.999558605,0.9988944,0.99976545,0.999335443,0.999558605,0.9988944,0.999936402,0.999883336,0.999901673,0.999785023,0.999936402,0.999883336,0.999901673,0.999785023
0.999706836,0.999169348,0.999448321,0.998618205,0.999706836,0.999169348,0.999448321,0.998618205,0.999919138,0.999852113,0.999874169,0.999726304,0.999919138,0.999852113,0.999874169,0.999726304
0.999643584,0.998990107,0.999329319,0.998320202,0.999643584,0.998990107,0.999329319,0.998320202,0.999899952,0.99981759,0.999843274,0.999660897,0.999899952,0.99981759,0.999843274,0.999660897
0.999575331,0.998796684,0.999200914,0.997998683,0.999575331,0.998796684,0.999200914,0.997998683,0.999878626,0.999779419,0.999808568,0.999588035,0.999878626,0.999779419,0.999808568,0.999588035
0.999501681,0.998587963,0.999062363,0.997651803,0.999501681,0.998587963,0.999062363,0.997651803,0.999854922,0.999737216,0.999769582,0.999506866,0.999854922,0.999737216,0.999769582,0.999506866
0.999422211,0.998362743,0.99891287,0.997277579,0.999422211,0.998362743,0.99891287,0.997277579,0.999828574,0.999690554,0.99972579,0.999416438,0.999828574,0.999690554,0.99972579,0.999416438
0.999336464,0.998119727,0.998751572,0.996873872,0.999336464,0.998119727,0.998751572,0.996873872,0.999799284,0.999638963,0.999676597,0.999315689,0.999799284,0.999638963,0.999676597,0.999315689
0.999243946,0.997857518,0.998577544,0.99643838,0.999243946,0.997857518,0.998577544,0.99643838,0.999766724,0.999581923,0.999621341,0.999203437,0.999766724,0.999581923,0.999621341,0.999203437
0.999144126,0.997574612,0.998389784,0.995968625,0.999144126,0.997574612,0.998389784,0.995968625,0.999730526,0.999518859,0.999559273,0.999078363,0.999730526,0.999518859,0.999559273,0.999078363
0.999036433,0.997269389,0.998187215,0.995461939,0.999036433,0.997269389,0.998187215,0.995461939,0.999690281,0.999449136,0.999489555,0.998938996,0.999690281,0.999449136,0.999489555,0.998938996
0.998920249,0.996940103,0.997968675,0.994915452,0.998920249,0.996940103,0.997968675,0.994915452,0.999645537,0.999372052,0.999411246,0.998783698,0.999645537,0.999372052,0.999411246,0.998783698
0.998794911,0.996584876,0.997732914,0.994326075,0.998794911,0.996584876,0.997732914,0.994326075,0.999595788,0.999286831,0.999323288,0.998610639,0.999595788,0.999286831,0.999323288,0.998610639
0.998659705,0.996201685,0.997478584,0.993690486,0.998659705,0.996201685,0.997478584,0.993690486,0.999540471,0.999192615,0.999224494,0.998417782,0.999540471,0.999192615,0.999224494,0.998417782
0.99851386,0.995788353,0.997204233,0.993005113,0.99851386,0.995788353,0.997204233,0.993005113,0.999478961,0.999088458,0.999113533,0.998202857,0.999478961,0.999088458,0.999113533,0.998202857
0.998356548,0.995342536,0.996908296,0.992266116,0.998356548,0.995342536,0.996908296,0.992266116,0.999410562,0.998973312,0.998988909,0.997963331,0.999410562,0.998973312,0.998988909,0.997963331
0.998186878,0.994861715,0.996589091,0.99146937,0.998186878,0.994861715,0.996589091,0.99146937,0.999334501,0.998846021,0.998848944,0.997696383,0.999334501,0.998846021,0.998848944,0.997696383
0.99800389,0.994343179,0.996244804,0.990610443,0.99800389,0.994343179,0.996244804,0.990610443,0.999249917,0.998705309,0.998691753,0.997398868,0.999249917,0.998705309,0.998691753,0.997398868
0.997806553,0.993784016,0.995873484,0.989684575,0.997806553,0.993784016,0.995873484,0.989684575,0.999155851,0.998549763,0.998515225,0.997067281,0.999155851,0.998549763,0.998515225,0.997067281
0.997593758,0.993181092,0.995473032,0.988686659,0.997593758,0.993181092,0.995473032,0.988686659,0.999051239,0.998377826,0.998316987,0.996697717,0.999051239,0.998377826,0.998316987,0.996697717
0.997364311,0.992531044,0.995041187,0.987611215,0.997364311,0.992531044,0.995041187,0.987611215,0.998934896,0.998187778,0.998094381,0.996285829,0.998934896,0.998187778,0.998094381,0.996285829
0.997116932,0.991830258,0.99457552,0.986452368,0.997116932,0.991830258,0.99457552,0.986452368,0.998805504,0.997977718,0.997844424,0.99582677,0.998805504,0.997977718,0.997844424,0.99582677
0.996850245,0.991074855,0.994073418,0.985203821,0.996850245,0.991074855,0.994073418,0.985203821,0.998661598,0.997745549,0.997563772,0.995315147,0.998661598,0.997745549,0.997563772,0.995315147
0.996562769,0.990260672,0.993532072,0.983858829,0.996562769,0.990260672,0.993532072,0.983858829,0.998501549,0.997488956,0.997248677,0.994744956,0.998501549,0.997488956,0.997248677,0.994744956
0.99625292,0.989383245,0.992948461,0.982410175,0.99625292,0.989383245,0.992948461,0.982410175,0.998323546,0.997205384,0.996894936,0.994109512,0.998323546,0.997205384,0.996894936,0.994109512
0.995918995,0.988437789,0.992319343,0.980850137,0.995918995,0.988437789,0.992319343,0.980850137,0.998125578,0.996892015,0.996497843,0.993401382,0.998125578,0.996892015,0.996497843,0.993401382
0.995559168,0.987419176,0.991641234,0.979170461,0.995559168,0.987419176,0.991641234,0.979170461,0.997905408,0.996545739,0.996052126,0.992612296,0.997905408,0.996545739,0.996052126,0.992612296
0.995171482,0.986321917,0.990910396,0.977362333,0.995171482,0.986321917,0.990910396,0.977362333,0.997660552,0.996163127,0.995551884,0.991733064,0.997660552,0.996163127,0.995551884,0.991733064
0.994753843,0.985140139,0.990122815,0.97541635,0.994753843,0.985140139,0.990122815,0.97541635,0.997388253,0.9957404,0.994990512,0.990753474,0.997388253,0.9957404,0.994990512,0.990753474
0.994304007,0.983867561,0.989274189,0.973322486,0.994304007,0.983867561,0.989274189,0.973322486,0.997085447,0.995273392,0.994360622,0.989662185,0.997085447,0.995273392,0.994360622,0.989662185
0.993819573,0.982497474,0.988359903,0.971070065,0.993819573,0.982497474,0.988359903,0.971070065,0.996748736,0.994757511,0.993653955,0.988446616,0.996748736,0.994757511,0.993653955,0.988446616
0.993297977,0.981022717,0.987375017,0.96864773,0.993297977,0.981022717,0.987375017,0.96864773,0.996374351,0.994187702,0.992861283,0.98709281,0.996374351,0.994187702,0.992861283,0.98709281
0.992736477,0.979435652,0.986314237,0.966043419,0.992736477,0.979435652,0.986314237,0.966043419,0.995958113,0.993558402,0.991972303,0.985585308,0.995958113,0.993558402,0.991972303,0.985585308
0.992132148,0.97772814,0.9851719,0.963244331,0.992132148,0.97772814,0.9851719,0.963244331,0.995495391,0.992863485,0.990975521,0.983906995,0.995495391,0.992863485,0.990975521,0.983906995
0.991481873,0.975891521,0.983941951,0.960236908,0.991481873,0.975891521,0.983941951,0.960236908,0.994981058,0.992096219,0.989858125,0.982038946,0.994981058,0.992096219,0.989858125,0.982038946
0.99078233,0.973916589,0.982617919,0.957006808,0.99078233,0.973916589,0.982617919,0.957006808,0.994409439,0.991249201,0.988605845,0.979960258,0.994409439,0.991249201,0.988605845,0.979960258
0.990029983,0.971793571,0.981192895,0.953538888,0.990029983,0.971793571,0.981192895,0.953538888,0.993774262,0.990314302,0.98720281,0.977647876,0.993774262,0.990314302,0.98720281,0.977647876
0.989221076,0.969512103,0.97965951,0.949817192,0.989221076,0.969512103,0.97965951,0.949817192,0.993068598,0.989282596,0.985631384,0.975076411,0.993068598,0.989282596,0.985631384,0.975076411
0.988351622,0.967061217,0.97800991,0.945824937,0.988351622,0.967061217,0.97800991,0.945824937,0.992284803,0.988144297,0.983872004,0.972217949,0.992284803,0.988144297,0.983872004,0.972217949
0.987417394,0.964429321,0.976235735,0.94154452,0.987417394,0.964429321,0.976235735,0.94154452,0.99141445,0.986888681,0.981902995,0.969041863,0.99141445,0.986888681,0.981902995,0.969041863
0.986413919,0.961604185,0.974328094,0.936957515,0.986413919,0.961604185,0.974328094,0.936957515,0.99044827,0.985504004,0.979700393,0.965514622,0.99044827,0.985504004,0.979700393,0.965514622
0.985336472,0.958572932,0.972277545,0.932044694,0.985336472,0.958572932,0.972277545,0.932044694,0.989376072,0.983977429,0.977237751,0.96159961,0.989376072,0.983977429,0.977237751,0.96159961
0.984180066,0.955322035,0.97007407,0.926786055,0.984180066,0.955322035,0.97007407,0.926786055,0.988186681,0.982294929,0.974485948,0.957256955,0.988186681,0.982294929,0.974485948,0.957256955
0.982939455,0.951837313,0.967707064,0.92116086,0.982939455,0.951837313,0.967707064,0.92116086,0.986867863,0.980441208,0.971413004,0.952443386,0.986867863,0.980441208,0.971413004,0.952443386
0.981609127,0.94810394,0.965165307,0.915147689,0.981609127,0.94810394,0.965165307,0.915147689,0.985406252,0.978399603,0.967983898,0.94711211,0.985406252,0.978399603,0.967983898,0.94711211
0.980183304,0.944106462,0.962436959,0.908724517,0.980183304,0.944106462,0.962436959,0.908724517,0.983787289,0.976151995,0.96416041,0.941212749,0.983787289,0.976151995,0.96416041,0.941212749
0.978655948,0.939828814,0.959509541,0.901868801,0.978655948,0.939828814,0.959509541,0.901868801,0.981995152,0.973678717,0.959900979,0.93469133,0.981995152,0.973678717,0.959900979,0.93469133
0.977020765,0.935254357,0.956369933,0.894557595,0.977020765,0.935254357,0.956369933,0.894557595,0.980012711,0.970958466,0.95516061,0.927490352,0.980012711,0.970958466,0.95516061,0.927490352
0.975271212,0.930365922,0.953004368,0.886767689,0.975271212,0.930365922,0.953004368,0.886767689,0.97782148,0.967968217,0.949890827,0.919548959,0.97782148,0.967968217,0.949890827,0.919548959
0.973400514,0.925145869,0.949398438,0.878475768,0.973400514,0.925145869,0.949398438,0.878475768,0.975401601,0.96468315,0.944039695,0.910803237,0.975401601,0.96468315,0.944039695,0.910803237
0.971401679,0.919576155,0.945537105,0.869658607,0.971401679,0.919576155,0.945537105,0.869658607,0.972731835,0.961076585,0.937551935,0.901186661,0.972731835,0.961076585,0.937551935,0.901186661
0.969267523,0.913638424,0.941404715,0.860293288,0.969267523,0.913638424,0.941404715,0.860293288,0.969789596,0.95711993,0.930369149,0.890630723,0.969789596,0.95711993,0.930369149,0.890630723
0.966990696,0.907314113,0.93698503,0.850357461,0.966990696,0.907314113,0.93698503,0.850357461,0.966551013,0.952782659,0.922430179,0.87906578,0.966551013,0.952782659,0.922430179,0.87906578
0.964563719,0.900584571,0.932261268,0.839829623,0.964563719,0.900584571,0.932261268,0.839829623,0.962991035,0.948032305,0.913671635,0.866422135,0.962991035,0.948032305,0.913671635,0.866422135
0.961979024,0.893431209,0.927216147,0.828689441,0.961979024,0.893431209,0.927216147,0.828689441,0.959083591,0.942834499,0.904028609,0.852631392,0.959083591,0.942834499,0.904028609,0.852631392
0.959229003,0.885835658,0.921831955,0.81691811,0.959229003,0.885835658,0.921831955,0.81691811,0.954801807,0.937153041,0.893435606,0.83762811,0.954801807,0.937153041,0.893435606,0.83762811
0.956306063,0.877779956,0.916090627,0.804498735,0.956306063,0.877779956,0.916090627,0.804498735,0.950118292,0.930950025,0.88182772,0.821351756,0.950118292,0.930950025,0.88182772,0.821351756
0.953202696,0.869246759,0.909973837,0.791416748,0.953202696,0.869246759,0.909973837,0.791416748,0.9450055,0.924186018,0.869142065,0.803748969,0.9450055,0.924186018,0.869142065,0.803748969
0.949911543,0.860219561,0.903463116,0.777660359,0.949911543,0.860219561,0.903463116,0.777660359,0.939436167,0.916820321,0.855319469,0.784776107,0.939436167,0.916820321,0.855319469,0.784776107
0.946425483,0.850682954,0.896539981,0.763221016,0.946425483,0.850682954,0.896539981,0.763221016,0.933383838,0.908811287,0.840306439,0.764402053,0.933383838,0.908811287,0.840306439,0.764402053
0.942737716,0.840622887,0.889186083,0.74809389,0.942737716,0.840622887,0.889186083,0.74809389,0.926823467,0.90011675,0.82405735,0.742611179,0.926823467,0.90011675,0.82405735,0.742611179
0.938841866,0.830026957,0.881383388,0.732278365,0.938841866,0.830026957,0.881383388,0.732278365,0.9197321,0.890694532,0.806536838,0.719406389,0.9197321,0.890694532,0.806536838,0.719406389
0.934732081,0.818884706,0.87311436,0.715778526,0.934732081,0.818884706,0.87311436,0.715778526,0.912089614,0.880503068,0.787722305,0.694812091,0.912089614,0.880503068,0.787722305,0.694812091
0.930403146,0.807187931,0.864362187,0.698603627,0.930403146,0.807187931,0.864362187,0.698603627,0.903879511,0.869502132,0.767606453,0.668876926,0.903879511,0.869502132,0.767606453,0.668876926
0.9258506,0.794930997,0.855111006,0.680768538,0.9258506,0.794930997,0.855111006,0.680768538,0.895089724,0.857653678,0.746199714,0.641676044,0.895089724,0.857653678,0.746199714,0.641676044
0.921070852,0.782111148,0.845346168,0.662294139,0.921070852,0.782111148,0.845346168,0.662294139,0.885713414,0.844922787,0.723532426,0.613312724,0.885713414,0.844922787,0.723532426,0.613312724
0.916061309,0.768728814,0.835054504,0.643207662,0.916061309,0.768728814,0.835054504,0.643207662,0.875749724,0.831278717,0.699656591,0.583919087,0.875749724,0.831278717,0.699656591,0.583919087
0.910820493,0.754787892,0.824224617,0.623542944,0.910820493,0.754787892,0.824224617,0.623542944,0.865204435,0.816696032,0.674647048,0.553655727,0.865204435,0.816696032,0.674647048,0.553655727
0.90534816,0.740296016,0.812847184,0.603340595,0.90534816,0.740296016,0.812847184,0.603340595,0.854090502,0.801155794,0.648601895,0.522710074,0.854090502,0.801155794,0.648601895,0.522710074
0.899645414,0.725264781,0.800915259,0.582648045,0.899645414,0.725264781,0.800915259,0.582648045,0.842428412,0.784646792,0.621642026,0.491293409,0.842428412,0.784646792,0.621642026,0.491293409
0.893714807,0.70970993,0.788424586,0.561519463,0.893714807,0.70970993,0.788424586,0.561519463,0.830246348,0.767166742,0.593909701,0.459636521,0.830246348,0.767166742,0.593909701,0.459636521
0.887560436,0.693651487,0.775373902,0.540015539,0.887560436,0.693651487,0.775373902,0.540015539,0.817580119,0.748723449,0.565566125,0.42798412,0.817580119,0.748723449,0.565566125,0.42798412
0.881188014,0.677113829,0.761765231,0.518203106,0.881188014,0.677113829,0.761765231,0.518203106,0.804472864,0.729335837,0.536788076,0.396588218,0.804472864,0.729335837,0.536788076,0.396588218
0.874604925,0.660125694,0.747604153,0.496154615,0.874604925,0.660125694,0.747604153,0.496154615,0.790974515,0.709034812,0.507763712,0.36570081,0.790974515,0.709034812,0.507763712,0.36570081
0.867820266,0.642720107,0.732900057,0.473947441,0.867820266,0.642720107,0.732900057,0.473947441,0.777141049,0.687863888,0.478687763,0.335566252,0.777141049,0.687863888,0.478687763,0.335566252
0.860844849,0.624934232,0.717666337,0.451663044,0.860844849,0.624934232,0.717666337,0.451663044,0.763033552,0.665879512,0.449756342,0.306413799,0.763033552,0.665879512,0.449756342,0.306413799
0.853691188,0.606809145,0.70192056,0.429385991,0.853691188,0.606809145,0.70192056,0.429385991,0.748717138,0.643151047,0.42116169,0.27845076,0.748717138,0.643151047,0.42116169,0.27845076
0.846373454,0.588389518,0.685684567,0.407202849,0.846373454,0.588389518,0.685684567,0.407202849,0.73425977,0.619760365,0.393087129,0.251856684,0.73425977,0.619760365,0.393087129,0.251856684
0.838907393,0.569723235,0.668984517,0.385200988,0.838907393,0.569723235,0.668984517,0.385200988,0.719731021,0.595801024,0.365702521,0.226778915,0.719731021,0.595801024,0.365702521,0.226778915
0.831310226,0.550860929,0.651850857,0.363467314,0.831310226,0.550860929,0.651850857,0.363467314,0.705200842,0.571377036,0.339160439,0.203329728,0.705200842,0.571377036,0.339160439,0.203329728
0.823600512,0.531855458,0.634318217,0.342086967,0.823600512,0.531855458,0.634318217,0.342086967,0.690738348,0.546601244,0.313593243,0.181585146,0.690738348,0.546601244,0.313593243,0.181585146
0.815797984,0.512761325,0.616425231,0.321142031,0.815797984,0.512761325,0.616425231,0.321142031,0.676410692,0.521593348,0.289111122,0.161585374,0.676410692,0.521593348,0.289111122,0.161585374
0.807923361,0.493634065,0.598214269,0.30071028,0.807923361,0.493634065,0.598214269,0.30071028,0.662282023,0.496477652,0.265801131,0.143336704,0.662282023,0.496477652,0.265801131,0.143336704
0.799998141,0.474529597,0.579731101,0.280864015,0.799998141,0.474529597,0.579731101,0.280864015,0.648412568,0.471380619,0.243727167,0.126814636,0.648412568,0.471380619,0.243727167,0.126814636
0.79204437,0.455503575,0.561024477,0.261669017,0.79204437,0.455503575,0.561024477,0.261669017,0.634857851,0.446428341,0.222930759,0.1119679,0.634857851,0.446428341,0.222930759,0.1119679
0.78408441,0.436610741,0.542145644,0.243183648,0.78408441,0.436610741,0.542145644,0.243183648,0.621668054,0.421744011,0.203432548,0.09872305,0.621668054,0.421744011,0.203432548,0.09872305
0.776140683,0.417904302,0.523147807,0.225458138,0.776140683,0.417904302,0.523147807,0.225458138,0.60888752,0.397445531,0.185234256,0.08698931,0.60888752,0.397445531,0.185234256,0.08698931
0.768235433,0.399435345,0.504085538,0.208534059,0.768235433,0.399435345,0.504085538,0.208534059,0.59655442,0.373643335,0.16832101,0.076663378,0.59655442,0.373643335,0.16832101,0.076663378
0.760390477,0.381252297,0.485014153,0.192444015,0.760390477,0.381252297,0.485014153,0.192444015,0.584700561,0.350438507,0.152663835,0.067633963,0.584700561,0.350438507,0.152663835,0.067633963
0.752626974,0.363400459,0.465989076,0.177211531,0.752626974,0.363400459,0.465989076,0.177211531,0.573351333,0.327921273,0.138222187,0.059785858,0.573351333,0.327921273,0.138222187,0.059785858
0.744965204,0.345921596,0.447065193,0.16285116,0.744965204,0.345921596,0.447065193,0.16285116,0.562525803,0.306169885,0.124946419,0.05300346,0.562525803,0.306169885,0.124946419,0.05300346
0.737424372,0.328853615,0.428296226,0.149368766,0.737424372,0.328853615,0.428296226,0.149368766,0.552236922,0.285249926,0.112780081,0.047173658,0.552236922,0.285249926,0.112780081,0.047173658
0.73002243,0.312230323,0.409734126,0.136761985,0.73002243,0.312230323,0.409734126,0.136761985,0.542491844,0.265214021,0.101662011,0.0421881,0.542491844,0.265214021,0.101662011,0.0421881
0.722775925,0.296081256,0.391428522,0.125020834,0.722775925,0.296081256,0.391428522,0.125020834,0.533292331,0.246101919,0.091528168,0.037944846,0.533292331,0.246101919,0.091528168,0.037944846
0.715699885,0.2804316,0.37342621,0.114128425,0.715699885,0.2804316,0.37342621,0.114128425,0.524635235,0.227940921,0.082313204,0.034349488,0.524635235,0.227940921,0.082313204,0.034349488
0.70880772,0.265302182,0.355770721,0.104061781,0.70880772,0.265302182,0.355770721,0.104061781,0.51651302,0.210746578,0.073951771,0.031315793,0.51651302,0.210746578,0.073951771,0.031315793
0.702111164,0.250709528,0.338501947,0.094792693,0.702111164,0.250709528,0.338501947,0.094792693,0.508914327,0.194523607,0.06637958,0.028765949,0.508914327,0.194523607,0.06637958,0.028765949
0.695620243,0.236665987,0.321655858,0.08628861,0.695620243,0.236665987,0.321655858,0.08628861,0.501824542,0.179266972,0.059534223,0.026630511,0.501824542,0.179266972,0.059534223,0.026630511
0.68934327,0.223179911,0.305264293,0.078513524,0.68934327,0.223179911,0.305264293,0.078513524,0.495226358,0.164963059,0.053355798,0.024848102,0.495226358,0.164963059,0.053355798,0.024848102
0.683286865,0.210255869,0.289354824,0.071428831,0.683286865,0.210255869,0.289354824,0.071428831,0.489100324,0.151590889,0.047787351,0.023364956,0.489100324,0.151590889,0.047787351,0.023364956
0.677456004,0.197894911,0.273950711,0.064994142,0.677456004,0.197894911,0.273950711,0.064994142,0.483425361,0.139123342,0.042775172,0.022134343,0.483425361,0.139123342,0.042775172,0.022134343
0.67185408,0.186094848,0.259070917,0.059168036,0.67185408,0.186094848,0.259070917,0.059168036,0.478179229,0.127528331,0.038268959,0.021115944,0.478179229,0.127528331,0.038268959,0.021115944
0.66648299,0.174850555,0.244730191,0.053908734,0.66648299,0.174850555,0.244730191,0.053908734,0.47333896,0.116769911,0.034221889,0.020275195,0.47333896,0.116769911,0.034221889,0.020275195
0.661343228,0.16415428,0.230939217,0.049174697,0.661343228,0.16415428,0.230939217,0.049174697,0.468881237,0.1068093,0.030590608,0.019582639,0.468881237,0.1068093,0.030590608,0.019582639
0.656433996,0.153995957,0.217704801,0.044925135,0.656433996,0.153995957,0.217704801,0.044925135,0.464782715,0.097605796,0.027335155,0.019013309,0.464782715,0.097605796,0.027335155,0.019013309
0.651753317,0.144363523,0.205030109,0.041120433,0.651753317,0.144363523,0.205030109,0.041120433,0.461020306,0.089117581,0.024418849,0.018546142,0.461020306,0.089117581,0.024418849,0.018546142
0.647298153,0.135243208,0.192914924,0.037722492,0.647298153,0.135243208,0.192914924,0.037722492,0.457571403,0.081302423,0.021808132,0.018163451,0.457571403,0.081302423,0.021808132,0.018163451
