maleBC,femaleBC,ovary,maleCRC,femaleCRC,uterus,malePanc,femalePanc,maleMelanoma,femaleMelanoma
0.00656532,0.00539963,0.00539963,0.00656532,0.00539963,0.00539963,0.00656532,0.00539963,0.00656532,0.00539963
0.00499688,0.004112233,0.004112233,0.00499688,0.004112233,0.004112233,0.00499688,0.004112233,0.004996843,0.004112233
0.00342844,0.002824835,0.002824835,0.00342844,0.002824835,0.002824835,0.00342844,0.002824835,0.003428365,0.002824835
0.00186,0.001537438,0.001537438,0.00186,0.001537438,0.001537438,0.00186,0.001537438,0.001859888,0.001537438
0.00029156,0.00025004,0.00025004,0.00029156,0.00025004,0.00025004,0.00029156,0.00025004,0.00029141,0.00025004
0.000261924,0.000224042,0.000224042,0.000261924,0.000224042,0.000224042,0.000261924,0.000224042,0.000261804,0.000224016
0.000232288,0.000198044,0.000198044,0.000232288,0.000198044,0.000198044,0.000232288,0.000198044,0.000232198,0.000197992
0.000202652,0.000172046,0.000172046,0.000202652,0.000172046,0.000172046,0.000202652,0.000172046,0.000202592,0.000171968
0.000173016,0.000146048,0.000146048,0.000173016,0.000146048,0.000146048,0.000173016,0.000146048,0.000172986,0.000145944
0.00014338,0.00012005,0.00012005,0.00014338,0.00012005,0.00012005,0.00014338,0.00012005,0.00014338,0.00011992
0.000153522,0.000122572,0.000122548,0.0001535,0.000122572,0.000122572,0.000153522,0.000122572,0.000153522,0.000122444
0.000163664,0.000125094,0.000125046,0.00016362,0.000125094,0.000125094,0.000163664,0.000125094,0.000163664,0.000124968
0.000173806,0.000127616,0.000127544,0.00017374,0.000127616,0.000127616,0.000173806,0.000127616,0.000173806,0.000127492
0.000183948,0.000130138,0.000130042,0.00018386,0.000130138,0.000130138,0.000183948,0.000130138,0.000183948,0.000130016
0.00019409,0.00013266,0.00013254,0.00019398,0.00013266,0.00013266,0.00019409,0.00013266,0.00019409,0.00013254
0.000330332,0.000175206,0.000174962,0.000330128,0.000175108,0.000175206,0.000330308,0.000175156,0.000330168,0.00017506
0.000466574,0.000217752,0.000217384,0.000466276,0.000217556,0.000217752,0.000466526,0.000217652,0.000466246,0.00021758
0.000602816,0.000260298,0.000259806,0.000602424,0.000260004,0.000260298,0.000602744,0.000260148,0.000602324,0.0002601
0.000739058,0.000302844,0.000302228,0.000738572,0.000302452,0.000302844,0.000738962,0.000302644,0.000738402,0.00030262
0.0008753,0.00034539,0.00034465,0.00087472,0.0003449,0.00034539,0.00087518,0.00034514,0.00087448,0.00034514
0.000978322,0.00036706,0.000366468,0.000977578,0.000366442,0.000367314,0.00097818,0.000367164,0.00097741,0.000366886
0.001081344,0.00038873,0.000388286,0.001080436,0.000387984,0.000389238,0.00108118,0.000389188,0.00108034,0.000388632
0.001184366,0.0004104,0.000410104,0.001183294,0.000409526,0.000411162,0.00118418,0.000411212,0.00118327,0.000410378
0.001287388,0.00043207,0.000431922,0.001286152,0.000431068,0.000433086,0.00128718,0.000433236,0.0012862,0.000432124
0.00139041,0.00045374,0.00045374,0.00138901,0.00045261,0.00045501,0.00139018,0.00045526,0.00138913,0.00045387
0.00138432,0.000467876,0.000468446,0.001382078,0.00046736,0.000470058,0.001383966,0.000470284,0.001382614,0.000468888
0.00137823,0.000482012,0.000483152,0.001375146,0.00048211,0.000485106,0.001377752,0.000485308,0.001376098,0.000483906
0.00137214,0.000496148,0.000497858,0.001368214,0.00049686,0.000500154,0.001371538,0.000500332,0.001369582,0.000498924
0.00136605,0.000510284,0.000512564,0.001361282,0.00051161,0.000515202,0.001365324,0.000515356,0.001363066,0.000513942
0.00135996,0.00052442,0.00052727,0.00135435,0.00052636,0.00053025,0.00135911,0.00053038,0.00135655,0.00052896
0.00136577,0.000546042,0.00055284,0.001358942,0.000551114,0.000555898,0.001364486,0.000555952,0.001361836,0.000554268
0.00137158,0.000567664,0.00057841,0.001363534,0.000575868,0.000581546,0.001369862,0.000581524,0.001367122,0.000579576
0.00137739,0.000589286,0.00060398,0.001368126,0.000600622,0.000607194,0.001375238,0.000607096,0.001372408,0.000604884
0.0013832,0.000610908,0.00062955,0.001372718,0.000625376,0.000632842,0.001380614,0.000632668,0.001377694,0.000630192
0.00138901,0.00063253,0.00065512,0.00137731,0.00065013,0.00065849,0.00138599,0.00065824,0.00138298,0.0006555
0.001469502,0.000685844,0.000716332,0.001456284,0.000711372,0.00072021,0.0014657,0.000720292,0.00146283,0.000717676
0.001549994,0.000739158,0.000777544,0.001535258,0.000772614,0.00078193,0.00154541,0.000782344,0.00154268,0.000779852
0.001630486,0.000792472,0.000838756,0.001614232,0.000833856,0.00084365,0.00162512,0.000844396,0.00162253,0.000842028
0.001710978,0.000845786,0.000899968,0.001693206,0.000895098,0.00090537,0.00170483,0.000906448,0.00170238,0.000904204
0.00179147,0.0008991,0.00096118,0.00177218,0.00095634,0.00096709,0.00178454,0.0009685,0.00178223,0.00096638
0.001970336,0.0010072,0.001079606,0.001947502,0.001073918,0.001087124,0.001960836,0.001087676,0.001959696,0.00108671
0.002149202,0.0011153,0.001198032,0.002122824,0.001191496,0.001207158,0.002137132,0.001206852,0.002137162,0.00120704
0.002328068,0.0012234,0.001316458,0.002298146,0.001309074,0.001327192,0.002313428,0.001326028,0.002314628,0.00132737
0.002506934,0.0013315,0.001434884,0.002473468,0.001426652,0.001447226,0.002489724,0.001445204,0.002492094,0.0014477
0.0026858,0.0014396,0.00155331,0.00264879,0.00154423,0.00156726,0.00266602,0.00156438,0.00266956,0.00156803
0.002972538,0.001598548,0.00172278,0.002927682,0.001715946,0.001741786,0.00294711,0.001736678,0.002954456,0.0017436
0.003259276,0.001757496,0.00189225,0.003206574,0.001887662,0.001916312,0.0032282,0.001908976,0.003239352,0.00191917
0.003546014,0.001916444,0.00206172,0.003485466,0.002059378,0.002090838,0.00350929,0.002081274,0.003524248,0.00209474
0.003832752,0.002075392,0.00223119,0.003764358,0.002231094,0.002265364,0.00379038,0.002253572,0.003809144,0.00227031
0.00411949,0.00223434,0.00240066,0.00404325,0.00240281,0.00243989,0.00407147,0.00242587,0.00409404,0.00244588
0.004533496,0.00243685,0.00261877,0.004444476,0.002620618,0.002663806,0.004474502,0.002647258,0.004505076,0.00267217
0.004947502,0.00263936,0.00283688,0.004845702,0.002838426,0.002887722,0.004877534,0.002868646,0.004916112,0.00289846
0.005361508,0.00284187,0.00305499,0.005246928,0.003056234,0.003111638,0.005280566,0.003090034,0.005327148,0.00312475
0.005775514,0.00304438,0.0032731,0.005648154,0.003274042,0.003335554,0.005683598,0.003311422,0.005738184,0.00335104
0.00618952,0.00324689,0.00349121,0.00604938,0.00349185,0.00355947,0.00608663,0.00353281,0.00614922,0.00357733
0.006672106,0.00355624,0.003817962,0.0065147,0.003815276,0.003888766,0.006556178,0.003858644,0.00662888,0.003911286
0.007154692,0.00386559,0.004144714,0.00698002,0.004138702,0.004218062,0.007025726,0.004184478,0.00710854,0.004245242
0.007637278,0.00417494,0.004471466,0.00744534,0.004462128,0.004547358,0.007495274,0.004510312,0.0075882,0.004579198
0.008119864,0.00448429,0.004798218,0.00791066,0.004785554,0.004876654,0.007964822,0.004836146,0.00806786,0.004913154
0.00860245,0.00479364,0.00512497,0.00837598,0.00510898,0.00520595,0.00843437,0.00516198,0.00854752,0.00524711
0.009484502,0.005381488,0.005727464,0.00922271,0.005707768,0.005814524,0.00929226,0.005761166,0.009426618,0.005865472
0.010366554,0.005969336,0.006329958,0.01006944,0.006306556,0.006423098,0.01015015,0.006360352,0.010305716,0.006483834
0.011248606,0.006557184,0.006932452,0.01091617,0.006905344,0.007031672,0.01100804,0.006959538,0.011184814,0.007102196
0.012130658,0.007145032,0.007534946,0.0117629,0.007504132,0.007640246,0.01186593,0.007558724,0.012063912,0.007720558
0.01301271,0.00773288,0.00813744,0.01260963,0.00810292,0.00824882,0.01272382,0.00815791,0.01294301,0.00833892
0.014277048,0.008619522,0.009023262,0.013829532,0.008982374,0.009143606,0.013958934,0.009040812,0.014201296,0.009239268
0.015541386,0.009506164,0.009909084,0.015049434,0.009861828,0.010038392,0.015194048,0.009923714,0.015459582,0.010139616
0.016805724,0.010392806,0.010794906,0.016269336,0.010741282,0.010933178,0.016429162,0.010806616,0.016717868,0.011039964
0.018070062,0.011279448,0.011680728,0.017489238,0.011620736,0.011827964,0.017664276,0.011689518,0.017976154,0.011940312
0.0193344,0.01216609,0.01256655,0.01870914,0.01250019,0.01272275,0.01889939,0.01257242,0.01923444,0.01284066
0.02150478,0.013641108,0.014060618,0.02082824,0.013967708,0.014224748,0.021039438,0.014052988,0.021397554,0.014347284
0.02367516,0.015116126,0.015554686,0.02294734,0.015435226,0.015726746,0.023179486,0.015533556,0.023560668,0.015853908
0.02584554,0.016591144,0.017048754,0.02506644,0.016902744,0.017228744,0.025319534,0.017014124,0.025723782,0.017360532
0.02801592,0.018066162,0.018542822,0.02718554,0.018370262,0.018730742,0.027459582,0.018494692,0.027886896,0.018867156
0.0301863,0.01954118,0.02003689,0.02930464,0.01983778,0.02023274,0.02959963,0.01997526,0.03005001,0.02037378
0.033847622,0.022045558,0.02256521,0.032893338,0.022324886,0.022774026,0.033224852,0.022484012,0.033695294,0.022915172
0.037508944,0.024549936,0.02509353,0.036482036,0.024811992,0.025315312,0.036850074,0.024992764,0.037340578,0.025456564
0.041170266,0.027054314,0.02762185,0.040070734,0.027299098,0.027856598,0.040475296,0.027501516,0.040985862,0.027997956
0.044831588,0.029558692,0.03015017,0.043659432,0.029786204,0.030397884,0.044100518,0.030010268,0.044631146,0.030539348
0.04849291,0.03206307,0.03267849,0.04724813,0.03227331,0.03293917,0.04772574,0.03251902,0.04827643,0.03308074
0.05448437,0.036599688,0.037246416,0.053134396,0.036779406,0.037511786,0.053676582,0.037062174,0.054260194,0.037660578
0.06047583,0.041136306,0.041814342,0.059020662,0.041285502,0.042084402,0.059627424,0.041605328,0.060243958,0.042240416
0.06646729,0.045672924,0.046382268,0.064906928,0.045791598,0.046657018,0.065578266,0.046148482,0.066227722,0.046820254
0.07245875,0.050209542,0.050950194,0.070793194,0.050297694,0.051229634,0.071529108,0.050691636,0.072211486,0.051400092
0.07845021,0.05474616,0.05551812,0.07667946,0.05480379,0.05580225,0.07747995,0.05523479,0.07819525,0.05597993
0.087557706,0.062661992,0.063478152,0.085705932,0.062667084,0.063762556,0.086574202,0.063178302,0.087282324,0.063944788
0.096665202,0.070577824,0.071438184,0.094732404,0.070530378,0.071722862,0.095668454,0.071121814,0.096369398,0.071909646
0.105772698,0.078493656,0.079398216,0.103758876,0.078393672,0.079683168,0.104762706,0.079065326,0.105456472,0.079874504
0.114880194,0.086409488,0.087358248,0.112785348,0.086256966,0.087643474,0.113856958,0.087008838,0.114543546,0.087839362
0.12398769,0.09432532,0.09531828,0.12181182,0.09412026,0.09560378,0.12295121,0.09495235,0.12363062,0.09580422
0.136476332,0.106678506,0.107737146,0.13417392,0.106427782,0.10799982,0.135448006,0.107346964,0.136126814,0.108202094
0.148964974,0.119031692,0.120156012,0.14653602,0.118735304,0.12039586,0.147944802,0.119741578,0.148623008,0.120599968
0.161453616,0.131384878,0.132574878,0.15889812,0.131042826,0.1327919,0.160441598,0.132136192,0.161119202,0.132997842
0.173942258,0.143738064,0.144993744,0.17126022,0.143350348,0.14518794,0.172938394,0.144530806,0.173615396,0.145395716
0.1864309,0.15609125,0.15741261,0.18362232,0.15565787,0.15758398,0.18543519,0.15692542,0.18611159,0.15779359
0.197523522,0.174251344,0.17568831,0.194716074,0.17387395,0.175838676,0.196574562,0.17519405,0.197221812,0.176033736
0.208616144,0.192411438,0.19396401,0.205809828,0.19209003,0.194093372,0.207713934,0.19346268,0.208332034,0.194273882
0.219708766,0.210571532,0.21223971,0.216903582,0.21030611,0.212348068,0.218853306,0.21173131,0.219442256,0.212514028
0.230801388,0.228731626,0.23051541,0.227997336,0.22852219,0.230602764,0.229992678,0.22999994,0.230552478,0.230754174
0.24189401,0.24689172,0.24879111,0.23909109,0.24673827,0.24885746,0.24113205,0.24826857,0.2416627,0.24899432
0.25189401,0.25689172,0.25879111,0.24909109,0.25673827,0.25885746,0.25113205,0.25826857,0.2516627,0.25899432
0.26189401,0.26689172,0.26879111,0.25909109,0.26673827,0.26885746,0.26113205,0.26826857,0.2616627,0.26899432
0.27189401,0.27689172,0.27879111,0.26909109,0.27673827,0.27885746,0.27113205,0.27826857,0.2716627,0.27899432
0.28189401,0.28689172,0.28879111,0.27909109,0.28673827,0.28885746,0.28113205,0.28826857,0.2816627,0.28899432
0.29189401,0.29689172,0.29879111,0.28909109,0.29673827,0.29885746,0.29113205,0.29826857,0.2916627,0.29899432
0.30189401,0.30689172,0.30879111,0.29909109,0.30673827,0.30885746,0.30113205,0.30826857,0.3016627,0.30899432
0.31189401,0.31689172,0.31879111,0.30909109,0.31673827,0.31885746,0.31113205,0.31826857,0.3116627,0.31899432
0.32189401,0.32689172,0.32879111,0.31909109,0.32673827,0.32885746,0.32113205,0.32826857,0.3216627,0.32899432
0.33189401,0.33689172,0.33879111,0.32909109,0.33673827,0.33885746,0.33113205,0.33826857,0.3316627,0.33899432
0.34189401,0.34689172,0.34879111,0.33909109,0.34673827,0.34885746,0.34113205,0.34826857,0.3416627,0.34899432
